wokwi/wokwi-logic.vcd
$version Generated by Wokwi.com $end
$date Sun, 24 Aug 2025 19:22:56 GMT $end
$timescale 1ns $end
$scope module logic $end
$var wire 1 ! D2 $end
$var wire 1 " D3 $end
$upscope $end
$enddefinitions $end
#0
0!
#0
0"
#0
1!
#1521900000
0!
#1523000000
1!
#1559400000
0!
#1560500000
1!
#1596900000
0!
#1598000000
1!
#1634400000
0!
#1635500000
1!
#1671900000
0!
#1673000000
1!
#1709400000
0!
#1710500000
1!
#1746900000
0!
#1748000000
1!
#1784400000
0!
#1785500000
1!
#1821900000
0!
#1823000000
1!
#1859400000
0!
#1860500000
1!
#1896900000
0!
#1898000000
1!
#1934400000
0!
#1935500000
1!
#1940197125
1"
#1943198687
0"
#1971900000
0!
#1973000000
1!
#1977697125
1"
#1980698500
0"
#2009399999
0!
#2010500000
1!
#2015197124
1"
#2018198562
0"
#2046900000
0!
#2048000000
1!
#2052697125
1"
#2055699000
0"
#2084400000
0!
#2085500000
1!
#2090197125
1"
#2093198562
0"
#2121900000
0!
#2123000000
1!
#2128021875
1"
#2131037812
0"
#2159400000
0!
#2160500000
1!
#2165520187
1"
#2168513812
0"
#2196900000
0!
#2198000000
1!
#2202698125
1"
#2205699562
0"
#2234400000
0!
#2235500000
1!
#2240198250
1"
#2243199500
0"
#2271900000
0!
#2273000000
1!
#2277698187
1"
#2280699500
0"
#2309400000
0!
#2310500000
1!
#2315198187
1"
#2318199937
0"
#2346900000
0!
#2348000000
1!
#2352698187
1"
#2355699500
0"
#2384400000
0!
#2385500000
1!
#2390515750
1"
#2393512937
0"
#2421900000
0!
#2423000000
1!
#2428016812
1"
#2431010750
0"
#2459400000
0!
#2460500000
1!
#2465198625
1"
#2468199500
0"
#2496900000
0!
#2498000000
1!
#2502698187
1"
#2505699687
0"
#2534400000
0!
#2535500000
1!
#2540198187
1"
#2543199500
0"
#2571900000
0!
#2573000000
1!
#2577698312
1"
#2580699500
0"
#2609400000
0!
#2610500000
1!
#2615198125
1"
#2618199500
0"
#2646900000
0!
#2648000000
1!
#2653012687
1"
#2656009562
0"
#2684400000
0!
#2685500000
1!
#2690520500
1"
#2693514125
0"
#2721900000
0!
#2723000000
1!
#2727698125
1"
#2730699562
0"
#2759400000
0!
#2760500000
1!
#2765198250
1"
#2768199500
0"
#2796900000
0!
#2798000000
1!
#2802698125
1"
#2805699500
0"
#2834400000
0!
#2835500000
1!
#2840198187
1"
#2843199937
0"
#2871900000
0!
#2873000000
1!
#2877698187
1"
#2880699500
0"
#2909400000
0!
#2910500000
1!
#2915515750
1"
#2918506625
0"
#2946900000
0!
#2948000000
1!
#2953016812
1"
#2956010437
0"
#2984400000
0!
#2985500000
1!
#2990199312
1"
#2993200500
0"
#3021900000
0!
#3023000000
1!
#3027698187
1"
#3030699625
0"
#3059400000
0!
#3060500000
1!
#3065198312
1"
#3068199500
0"
#3096900000
0!
#3098000000
1!
#3102698187
1"
#3105699562
0"
#3134400000
0!
#3135500000
1!
#3140198125
1"
#3143199500
0"
#3171900000
0!
#3173000000
1!
#3178012812
1"
#3181009687
0"
#3209400000
0!
#3210500000
1!
#3215514625
1"
#3218508562
0"
#3246900000
0!
#3248000000
1!
#3252698125
1"
#3255699500
0"
#3284400000
0!
#3285500000
1!
#3290198125
1"
#3293199562
0"
#3321900000
0!
#3323000000
1!
#3327698187
1"
#3330699500
0"
#3359400000
0!
#3360500000
1!
#3365199187
1"
#3368200625
0"
#3396900000
0!
#3398000000
1!
#3402698187
1"
#3405699500
0"
#3434400000
0!
#3435500000
1!
#3440510937
1"
#3443507812
0"
#3471900000
0!
#3473000000
1!
#3478018000
1"
#3481011625
0"
#3502000000
0!
#3503100000
1!
#3506284250
1"
#3509281125
0"
#3532100000
0!
#3533200000
1!
#3536015687
1"
#3539017062
0"
#3562200000
0!
#3563300000
1!
#3566103625
1"
#3569105000
0"
#3592300000
0!
#3593400000
1!
#3596194625
1"
#3599196500
0"
#3622400000
0!
#3623500000
1!
#3626287625
1"
#3629289250
0"
#3652500000
0!
#3653600000
1!
#3656383125
1"
#3659384562
0"
#3682600000
0!
#3683700000
1!
#3686478687
1"
#3689480062
0"
#3712700000
0!
#3713800000
1!
#3716575937
1"
#3719577000
0"
#3742800000
0!
#3743900000
1!
#3746673625
1"
#3749675000
0"
#3772900000
0!
#3774000000
1!
#3776771687
1"
#3779773000
0"
#3803000000
0!
#3804100000
1!
#3806871125
1"
#3809872062
0"
#3833100000
0!
#3834200000
1!
#3837284500
1"
#3840297500
0"
#3863200000
0!
#3864300000
1!
#3867385687
1"
#3870379312
0"
#3893300000
0!
#3894400000
1!
#3897498000
1"
#3900494875
0"
#3923400000
0!
#3924500000
1!
#3927268687
1"
#3930270000
0"
#3953500000
0!
#3954600000
1!
#3957368625
1"
#3960370000
0"
#3983600000
0!
#3984700000
1!
#3987468625
1"
#3990470000
0"
#4013700000
0!
#4014800000
1!
#4017568625
1"
#4020570062
0"
#4043800000
0!
#4044900000
1!
#4047668625
1"
#4050670000
0"
#4073900000
0!
#4075000000
1!
#4077768625
1"
#4080770000
0"
#4104000000
0!
#4105100000
1!
#4107868812
1"
#4110870000
0"
#4134100000
0!
#4135200000
1!
#4137968625
1"
#4140970000
0"
#4164200000
0!
#4165300000
1!
#4168068812
1"
#4171070062
0"
#4194300000
0!
#4195400000
1!
#4198500750
1"
#4201494375
0"
#4224400000
0!
#4225500000
1!
#4228574499
1"
#4231568125
0"
#4254500000
0!
#4255600000
1!
#4258682125
1"
#4261698062
0"
#4284600000
0!
#4285700000
1!
#4288468625
1"
#4291470187
0"
#4314700000
0!
#4315800000
1!
#4318568625
1"
#4321570125
0"
#4344800000
0!
#4345900000
1!
#4348668625
1"
#4351670000
0"
#4374900000
0!
#4376000000
1!
#4378768625
1"
#4381770062
0"
#4405000000
0!
#4406100000
1!
#4408868812
1"
#4411870000
0"
#4435100000
0!
#4436200000
1!
#4438968625
1"
#4441970000
0"
#4465200000
0!
#4466300000
1!
#4469068625
1"
#4472070500
0"
#4495300000
0!
#4496400000
1!
#4499169062
1"
#4502170000
0"
#4525400000
0!
#4526500000
1!
#4529268625
1"
#4532270187
0"
#4555500000
0!
#4556600000
1!
#4559368625
1"
#4562370000
0"
#4585600000
0!
#4586700000
1!
#4589780500
1"
#4592787187
0"
#4615700000
0!
#4616800000
1!
#4619878437
1"
#4622875312
0"
#4645800000
0!
#4646900000
1!
#4649668687
1"
#4652670000
0"
#4675900000
0!
#4677000000
1!
#4679768625
1"
#4682770000
0"
#4706000000
0!
#4707100000
1!
#4709868625
1"
#4712870187
0"
#4736100000
0!
#4737200000
1!
#4739968687
1"
#4742970000
0"
#4766200000
0!
#4767300000
1!
#4770069125
1"
#4773070062
0"
#4796300000
0!
#4797400000
1!
#4800169125
1"
#4803170562
0"
#4826400000
0!
#4827500000
1!
#4830268687
1"
#4833270000
0"
#4856500000
0!
#4857600000
1!
#4860368687
1"
#4863370000
0"
#4886600000
0!
#4887700000
1!
#4890468937
1"
#4893470000
0"
#4916700000
0!
#4917800000
1!
#4920568750
1"
#4923571812
0"
#4946800000
0!
#4947900000
1!
#4950979750
1"
#4953973375
0"
#4976900000
0!
#4978000000
1!
#4981081937
1"
#4984075562
0"
#5007000000
0!
#5008100000
1!
#5012300687
1"
#5015288687
0"
#5037100000
0!
#5038200000
1!
#5040968625
1"
#5043970000
0"
#5067200000
0!
#5068300000
1!
#5071069125
1"
#5074070500
0"
#5097300000
0!
#5098400000
1!
#5101168750
1"
#5104170062
0"
#5127400000
0!
#5128500000
1!
#5131269125
1"
#5134270000
0"
#5157500000
0!
#5158600000
1!
#5161368875
1"
#5164370000
0"
#5187600000
0!
#5188700000
1!
#5191468687
1"
#5194470687
0"
#5217700000
0!
#5218800000
1!
#5221568750
1"
#5224570250
0"
#5247800000
0!
#5248900000
1!
#5251668687
1"
#5254670312
0"
#5277900000
0!
#5279000000
1!
#5281768750
1"
#5284770062
0"
#5308000000
0!
#5309100000
1!
#5312176250
1"
#5315188937
0"
#5338100000
0!
#5339200000
1!
#5342277437
1"
#5345290125
0"
#5368200000
0!
#5369300000
1!
#5372381062
1"
#5375397000
0"
#5398300000
0!
#5399400000
1!
#5402168812
1"
#5405170000
0"
#5428400000
0!
#5429500000
1!
#5432269937
1"
#5435271000
0"
#5458500000
0!
#5459600000
1!
#5462368125
1"
#5465369500
0"
#5484000000
0!
#5485100000
1!
#5486742125
1"
#5489743937
0"
#5509100000
0!
#5510200000
1!
#5511706125
1"
#5514707500
0"
#5534200000
0!
#5535300000
1!
#5537098250
1"
#5540114187
0"
#5559300000
0!
#5560400000
1!
#5561877125
1"
#5564878500
0"
#5584400000
0!
#5585500000
1!
#5586972750
1"
#5589974000
0"
#5609500000
0!
#5610600000
1!
#5612069625
1"
#5615071250
0"
#5634600000
0!
#5635700000
1!
#5637480437
1"
#5640493125
0"
#5659700000
0!
#5660800000
1!
#5662265125
1"
#5665266625
0"
#5684800000
0!
#5685900000
1!
#5687364687
1"
#5690366000
0"
#5709900000
0!
#5711000000
1!
#5712463625
1"
#5715465062
0"
#5735000000
0!
#5736100000
1!
#5737562750
1"
#5740564000
0"
#5760100000
0!
#5761200000
1!
#5762662187
1"
#5765663562
0"
#5785200000
0!
#5786300000
1!
#5787762125
1"
#5790763750
0"
#5810300000
0!
#5811400000
1!
#5812862187
1"
#5815863500
0"
#5835400000
0!
#5836500000
1!
#5837962125
1"
#5840963687
0"
#5860500000
0!
#5861600000
1!
#5863377812
1"
#5866393750
0"
#5885600000
0!
#5886700000
1!
#5888162125
1"
#5891163500
0"
#5910700000
0!
#5911800000
1!
#5913268250
1"
#5916269500
0"
#5935800000
0!
#5936900000
1!
#5938360625
1"
#5941362000
0"
#5960900000
0!
#5962000000
1!
#5963768437
1"
#5966784375
0"
#5986000000
0!
#5987100000
1!
#5988562125
1"
#5991563500
0"
#6011100000
0!
#6012200000
1!
#6013662125
1"
#6016663500
0"
#6036200000
0!
#6037300000
1!
#6038762312
1"
#6041763625
0"
#6061300000
0!
#6062400000
1!
#6064176812
1"
#6067189500
0"
#6086400000
0!
#6087500000
1!
#6088962125
1"
#6091963562
0"
#6111500000
0!
#6112600000
1!
#6114062125
1"
#6117064062
0"
#6136600000
0!
#6137700000
1!
#6139162250
1"
#6142163500
0"
#6161700000
0!
#6162800000
1!
#6164262687
1"
#6167264125
0"
#6186800000
0!
#6187900000
1!
#6189361812
1"
#6192363000
0"
#6211900000
0!
#6213000000
1!
#6214462187
1"
#6217463687
0"
#6237000000
0!
#6238100000
1!
#6239562125
1"
#6242563500
0"
#6262100000
0!
#6263200000
1!
#6264662125
1"
#6267663687
0"
#6287200000
0!
#6288300000
1!
#6290068500
1"
#6293065375
0"
#6312300000
0!
#6313400000
1!
#6314862125
1"
#6317863500
0"
#6337400000
0!
#6338500000
1!
#6339962250
1"
#6342963625
0"
#6362500000
0!
#6363600000
1!
#6365062125
1"
#6368063875
0"
#6387600000
0!
#6388700000
1!
#6390471875
1"
#6393484562
0"
#6412700000
0!
#6413800000
1!
#6415262125
1"
#6418263500
0"
#6437800000
0!
#6438900000
1!
#6440362125
1"
#6443363625
0"
#6462900000
0!
#6464000000
1!
#6465462187
1"
#6468463500
0"
#6488000000
0!
#6489100000
1!
#6490877000
1"
#6493889687
0"
#6513100000
0!
#6514200000
1!
#6515662250
1"
#6518663500
0"
#6538200000
0!
#6539300000
1!
#6540762187
1"
#6543763562
0"
#6563300000
0!
#6564400000
1!
#6565862125
1"
#6568863500
0"
#6588400000
0!
#6589500000
1!
#6590962125
1"
#6593963562
0"
#6613500000
0!
#6614600000
1!
#6616062750
1"
#6619063562
0"
#6638600000
0!
#6639700000
1!
#6641162187
1"
#6644163500
0"
#6663700000
0!
#6664800000
1!
#6666262687
1"
#6669263562
0"
#6688800000
0!
#6689900000
1!
#6691362125
1"
#6694363500
0"
#6713900000
0!
#6715000000
1!
#6716781562
1"
#6719778437
0"
#6739000000
0!
#6740100000
1!
#6741561687
1"
#6744563062
0"
#6764100000
0!
#6765200000
1!
#6766662187
1"
#6769663500
0"
#6789200000
0!
#6790300000
1!
#6791762125
1"
#6794764062
0"
#6814300000
0!
#6815400000
1!
#6817172812
1"
#6820166750
0"
#6839400000
0!
#6840500000
1!
#6841961625
1"
#6844963125
0"
#6864500000
0!
#6865600000
1!
#6867062437
1"
#6870063500
0"
#6889600000
0!
#6890700000
1!
#6892162187
1"
#6895163625
0"
#6914700000
0!
#6915800000
1!
#6917262687
1"
#6920263500
0"
#6939800000
0!
#6940900000
1!
#6942362125
1"
#6945363687
0"
#6964900000
0!
#6966000000
1!
#6967462125
1"
#6970463937
0"
#6990000000
0!
#6991100000
1!
#6992563312
1"
#6995564500
0"
#7015100000
0!
#7016200000
1!
#7017661625
1"
#7020663187
0"
#7040200000
0!
#7041300000
1!
#7043070312
1"
#7046067500
0"
#7065300000
0!
#7066400000
1!
#7067862125
1"
#7070863625
0"
#7090400000
0!
#7091500000
1!
#7092962125
1"
#7095963562
0"
#7115500000
0!
#7116600000
1!
#7118062187
1"
#7121063625
0"
#7140600000
0!
#7141700000
1!
#7143470750
1"
#7146467625
0"
#7165700000
0!
#7166800000
1!
#7168262312
1"
#7171263500
0"
#7190800000
0!
#7191900000
1!
#7193362125
1"
#7196363562
0"
#7215900000
0!
#7217000000
1!
#7218462125
1"
#7221463562
0"
#7241000000
0!
#7242100000
1!
#7243874125
1"
#7246867750
0"
#7266100000
0!
#7267200000
1!
#7268662125
1"
#7271663500
0"
#7291200000
0!
#7292300000
1!
#7293762125
1"
#7296763750
0"
#7316300000
0!
#7317400000
1!
#7318862187
1"
#7321863562
0"
#7341400000
0!
#7342500000
1!
#7343962125
1"
#7346963687
0"
#7366500000
0!
#7367600000
1!
#7369062187
1"
#7372063500
0"
#7391600000
0!
#7392700000
1!
#7394162125
1"
#7397163500
0"
#7416700000
0!
#7417800000
1!
#7419262125
1"
#7422263500
0"
#7441800000
0!
#7442900000
1!
#7444362125
1"
#7447363625
0"
#7466900000
0!
#7468000000
1!
#7469774312
1"
#7472790250
0"
#7488400000
0!
#7489500000
1!
#7490056187
1"
#7493057625
0"
#7509900000
0!
#7511000000
1!
#7511538250
1"
#7514539500
0"
#7531400000
0!
#7532500000
1!
#7533033625
1"
#7536035000
0"
#7552900000
0!
#7554000000
1!
#7554530187
1"
#7557531562
0"
#7574400000
0!
#7575500000
1!
#7576028312
1"
#7579029500
0"
#7595900000
0!
#7597000000
1!
#7597526125
1"
#7600527500
0"
#7617400000
0!
#7618500000
1!
#7619024625
1"
#7622026250
0"
#7638900000
0!
#7640000000
1!
#7640523625
1"
#7643525000
0"
#7660400000
0!
#7661500000
1!
#7662023125
1"
#7665024687
0"
#7681900000
0!
#7683000000
1!
#7683522625
1"
#7686524000
0"
#7703400000
0!
#7704500000
1!
#7705021750
1"
#7708023000
0"
#7724900000
0!
#7726000000
1!
#7726522125
1"
#7729523062
0"
#7746400000
0!
#7747500000
1!
#7748021625
1"
#7751023000
0"
#7767900000
0!
#7769000000
1!
#7769522187
1"
#7772523562
0"
#7789400000
0!
#7790500000
1!
#7791022125
1"
#7794023500
0"
#7810900000
0!
#7812000000
1!
#7812521625
1"
#7815523187
0"
#7832400000
0!
#7833500000
1!
#7834021937
1"
#7837023000
0"
#7853900000
0!
#7855000000
1!
#7855522312
1"
#7858523000
0"
#7875400000
0!
#7876500000
1!
#7877021687
1"
#7880023000
0"
#7896900000
0!
#7898000000
1!
#7898836125
1"
#7901829750
0"
#7918400000
0!
#7919500000
1!
#7920022125
1"
#7923023000
0"
#7939900000
0!
#7941000000
1!
#7941521625
1"
#7944523562
0"
#7961400000
0!
#7962500000
1!
#7963340375
1"
#7966334000
0"
#7982900000
0!
#7984000000
1!
#7984521625
1"
#7987523000
0"
#8004400000
0!
#8005500000
1!
#8006021625
1"
#8009023062
0"
#8025900000
0!
#8026999999
1!
#8027841687
1"
#8030838562
0"
#8047400000
0!
#8048500000
1!
#8049021625
1"
#8052023000
0"
#8068899999
0!
#8070000000
1!
#8070522499
1"
#8073523500
0"
#8090400000
0!
#8091500000
1!
#8092331562
1"
#8095328437
0"
#8111900000
0!
#8113000000
1!
#8113521875
1"
#8116523125
0"
#8133400000
0!
#8134499999
1!
#8135021687
1"
#8138023000
0"
#8154900000
0!
#8156000000
1!
#8156836875
1"
#8159833750
0"
#8176399999
0!
#8177500000
1!
#8178021624
1"
#8181023000
0"
#8197900000
0!
#8199000000
1!
#8199522125
1"
#8202523062
0"
#8219400000
0!
#8220499999
1!
#8221021625
1"
#8224023000
0"
#8240900000
0!
#8242000000
1!
#8242521625
1"
#8245523125
0"
#8262399999
0!
#8263500000
1!
#8264022125
1"
#8267023500
0"
#8283899999
0!
#8285000000
1!
#8285521624
1"
#8288523187
0"
#8305400000
0!
#8306500000
1!
#8307021750
1"
#8310022999
0"
#8326900000
0!
#8327999999
1!
#8328522312
1"
#8331523000
0"
#8348400000
0!
#8349500000
1!
#8350021687
1"
#8353023000
0"
#8369899999
0!
#8371000000
1!
#8371521625
1"
#8374523062
0"
#8391400000
0!
#8392500000
1!
#8393021875
1"
#8396023062
0"
#8412900000
0!
#8414000000
1!
#8414521625
1"
#8417522999
0"
#8434400000
0!
#8435499999
1!
#8436021625
1"
#8439023562
0"
#8455900000
0!
#8457000000
1!
#8457521750
1"
#8460523000
0"
#8477399999
0!
#8478500000
1!
#8479021625
1"
#8482023000
0"
#8498900000
0!
#8500000000
1!
#8500521624
1"
#8503523437
0"
#8520400000
0!
#8521500000
1!
#8522021687
1"
#8525022999
0"
#8541900000
0!
#8542999999
1!
#8543521625
1"
#8546523000
0"
#8563400000
0!
#8564500000
1!
#8565021687
1"
#8568023000
0"
#8584899999
0!
#8586000000
1!
#8586837812
1"
#8589831437
0"
#8606400000
0!
#8607500000
1!
#8608021750
1"
#8611023062
0"
#8627900000
0!
#8629000000
1!
#8629522125
1"
#8632523000
0"
#8649400000
0!
#8650500000
1!
#8651342062
1"
#8654335687
0"
#8670900000
0!
#8672000000
1!
#8672521687
1"
#8675523187
0"
#8692400000
0!
#8693500000
1!
#8694021625
1"
#8697023062
0"
#8713900000
0!
#8715000000
1!
#8715843375
1"
#8718840250
0"
#8735400000
0!
#8736500000
1!
#8737021687
1"
#8740023062
0"
#8756900000
0!
#8758000000
1!
#8758521875
1"
#8761523875
0"
#8778400000
0!
#8779500000
1!
#8780333250
1"
#8783330437
0"
#8799900000
0!
#8801000000
1!
#8801521625
1"
#8804523000
0"
#8821400000
0!
#8822500000
1!
#8823021687
1"
#8826023000
0"
#8842900000
0!
#8844000000
1!
#8844521750
1"
#8847523250
0"
#8864400000
0!
#8865500000
1!
#8866021625
1"
#8869023062
0"
#8885900000
0!
#8887000000
1!
#8887521687
1"
#8890523062
0"
#8907400000
0!
#8908500000
1!
#8909021687
1"
#8912023062
0"
#8928900000
0!
#8930000000
1!
#8930522562
1"
#8933523562
0"
#8950400000
0!
#8951500000
1!
#8952021687
1"
#8955023000
0"
#8971900000
0!
#8973000000
1!
#8973522125
1"
#8976523687
0"
#8993400000
0!
#8994500000
1!
#8995021687
1"
#8998023000
0"
#9014900000
0!
#9016000000
1!
#9016521937
1"
#9019523000
0"
#9036400000
0!
#9037500000
1!
#9038022000
1"
#9041023062
0"
#9057900000
0!
#9059000000
1!
#9059521687
1"
#9062523000
0"
#9079400000
0!
#9080500000
1!
#9081021750
1"
#9084023000
0"
#9100900000
0!
#9102000000
1!
#9102521875
1"
#9105523000
0"
#9122400000
0!
#9123500000
1!
#9124021625
1"
#9127023000
0"
#9143900000
0!
#9145000000
1!
#9145522437
1"
#9148523062
0"
#9165400000
0!
#9166500000
1!
#9167026437
1"
#9170023187
0"
#9186900000
0!
#9188000000
1!
#9188521625
1"
#9191523000
0"
#9208400000
0!
#9209500000
1!
#9210021625
1"
#9213023000
0"
#9229900000
0!
#9231000000
1!
#9231521750
1"
#9234523062
0"
#9251400000
0!
#9252500000
1!
#9253022125
1"
#9256023500
0"
#9272900000
0!
#9274000000
1!
#9274835875
1"
#9277829500
0"
#9294400000
0!
#9295500000
1!
#9296021687
1"
#9299023000
0"
#9315900000
0!
#9317000000
1!
#9317521812
1"
#9320523062
0"
#9337400000
0!
#9338500000
1!
#9339340125
1"
#9342333750
0"
#9358900000
0!
#9360000000
1!
#9360521625
1"
#9363523062
0"
#9380400000
0!
#9381500000
1!
#9382021687
1"
#9385023187
0"
#9401900000
0!
#9403000000
1!
#9403841437
1"
#9406838312
0"
#9423400000
0!
#9424500000
1!
#9425021687
1"
#9428023000
0"
#9444900000
0!
#9446000000
1!
#9446521687
1"
#9449523000
0"
#9466400000
0!
#9467500000
1!
#9468331312
1"
#9471328187
0"
#9485200000
0!
#9486146750
1"
#9486300000
1!
#9489148062
0"
#9504000000
0!
#9504931125
1"
#9505100000
1!
#9507932500
0"
#9522800000
0!
#9523727187
1"
#9523900000
1!
#9526728562
0"
#9541600000
0!
#9542524187
1"
#9542700000
1!
#9545525500
0"
#9560400000
0!
#9561322125
1"
#9561500000
1!
#9564324062
0"
#9579200000
0!
#9580120250
1"
#9580300000
1!
#9583121562
0"
#9598000000
0!
#9599100000
1!
#9599251125
1"
#9602248625
0"
#9616800000
0!
#9617719187
1"
#9617900000
1!
#9620720062
0"
#9635600000
0!
#9636517625
1"
#9636700000
1!
#9639519062
0"
#9654400000
0!
#9655317125
1"
#9655500000
1!
#9658318812
0"
#9673200000
0!
#9674117250
1"
#9674300000
1!
#9677118500
0"
#9692000000
0!
#9692916687
1"
#9693100000
1!
#9695918062
0"
#9710800000
0!
#9711716687
1"
#9711900000
1!
#9714718687
0"
#9729600000
0!
#9730700000
1!
#9730826875
1"
#9733823750
0"
#9748400000
0!
#9749316812
1"
#9749500000
1!
#9752318000
0"
#9767200000
0!
#9768116750
1"
#9768300000
1!
#9771118312
0"
#9786000000
0!
#9786916625
1"
#9787100000
1!
#9789918125
0"
#9804800000
0!
#9805716625
1"
#9805900000
1!
#9808718125
0"
#9823600000
0!
#9824517125
1"
#9824700000
1!
#9827518000
0"
#9842400000
0!
#9843316687
1"
#9843500000
1!
#9846318000
0"
#9861200000
0!
#9862300000
1!
#9862436812
1"
#9865452750
0"
#9880000000
0!
#9880916812
1"
#9881100000
1!
#9883918000
0"
#9898800000
0!
#9899716625
1"
#9899900000
1!
#9902718187
0"
#9917600000
0!
#9918517125
1"
#9918700000
1!
#9921518062
0"
#9936400000
0!
#9937316812
1"
#9937500000
1!
#9940318125
0"
#9955200000
0!
#9956116687
1"
#9956300000
1!
#9959118000
0"
#9974000000
0!
#9974916625
1"
#9975100000
1!
#9977918437
0"
#9992800000
0!
#9993900000
1!
#9994031062
1"
#9997047000
0"
#10011600000
0!
#10012700000
1!
#10030400000
0!
#10031316125
1"
#10031500000
1!
#10034317562
0"
#10049200000
0!
#10050117312
1"
#10050300000
1!
#10053118562
0"
#10068000000
0!
#10068916625
1"
#10069100000
1!
#10071918187
0"
#10086800000
0!
#10087717125
1"
#10087900000
1!
#10090718000
0"
#10105600000
0!
#10106516687
1"
#10106700000
1!
#10109518000
0"
#10124400000
0!
#10125500000
1!
#10125640062
1"
#10128652750
0"
#10143200000
0!
#10144116812
1"
#10144300000
1!
#10147118000
0"
#10162000000
0!
#10162917125
1"
#10163100000
1!
#10165918500
0"
#10180800000
0!
#10181716625
1"
#10181900000
1!
#10184718000
0"
#10199600000
0!
#10200516687
1"
#10200700000
1!
#10203518000
0"
#10218400000
0!
#10219316625
1"
#10219500000
1!
#10222318000
0"
#10237200000
0!
#10238116687
1"
#10238300000
1!
#10241118312
0"
#10256000000
0!
#10257100000
1!
#10257236187
1"
#10260248875
0"
#10274800000
0!
#10275716625
1"
#10275900000
1!
#10278718375
0"
#10293600000
0!
#10294516687
1"
#10294700000
1!
#10297523750
0"
#10312400000
0!
#10313316687
1"
#10313500000
1!
#10316318062
0"
#10331200000
0!
#10332117500
1"
#10332300000
1!
#10335118500
0"
#10350000000
0!
#10350916625
1"
#10351100000
1!
#10353918500
0"
#10368800000
0!
#10369716625
1"
#10369900000
1!
#10372718187
0"
#10387600000
0!
#10388700000
1!
#10388839062
1"
#10391852062
0"
#10406400000
0!
#10407317250
1"
#10407500000
1!
#10410318062
0"
#10425200000
0!
#10426116625
1"
#10426300000
1!
#10429118000
0"
#10444000000
0!
#10444916750
1"
#10445100000
1!
#10447918062
0"
#10462800000
0!
#10463717250
1"
#10463900000
1!
#10466718500
0"
#10481600000
0!
#10482516750
1"
#10482700000
1!
#10485518000
0"
#10500400000
0!
#10501316750
1"
#10501500000
1!
#10504318062
0"
#10519200000
0!
#10520117250
1"
#10520300000
1!
#10523118500
0"
#10538000000
0!
#10538916750
1"
#10539100000
1!
#10541918000
0"
#10556800000
0!
#10557717062
1"
#10557900000
1!
#10560718000
0"
#10575600000
0!
#10576516625
1"
#10576700000
1!
#10579518562
0"
#10594400000
0!
#10595316687
1"
#10595500000
1!
#10598318000
0"
#10613200000
0!
#10614300000
1!
#10614435125
1"
#10617451062
0"
#10632000000
0!
#10632916625
1"
#10633100000
1!
#10635918000
0"
#10650800000
0!
#10651718000
1"
#10651900000
1!
#10654719062
0"
#10669600000
0!
#10670516875
1"
#10670700000
1!
#10673518062
0"
#10688400000
0!
#10689316625
1"
#10689500000
1!
#10692318000
0"
#10707200000
0!
#10708116875
1"
#10708300000
1!
#10711118062
0"
#10726000000
0!
#10726917187
1"
#10727100000
1!
#10729918000
0"
#10744800000
0!
#10745900000
1!
#10746037250
1"
#10749047187
0"
#10763600000
0!
#10764516750
1"
#10764700000
1!
#10767518000
0"
#10782400000
0!
#10783316625
1"
#10783500000
1!
#10786318000
0"
#10801200000
0!
#10802116625
1"
#10802300000
1!
#10805118000
0"
#10820000000
0!
#10820917250
1"
#10821100000
1!
#10823918500
0"
#10838800000
0!
#10839716687
1"
#10839900000
1!
#10842718000
0"
#10857600000
0!
#10858517187
1"
#10858700000
1!
#10861518562
0"
#10876400000
0!
#10877500000
1!
#10877635250
1"
#10880651500
0"
#10895200000
0!
#10896116625
1"
#10896300000
1!
#10899118000
0"
#10914000000
0!
#10914917187
1"
#10915100000
1!
#10917918000
0"
#10932800000
0!
#10933716750
1"
#10933900000
1!
#10936718000
0"
#10951600000
0!
#10952516750
1"
#10952700000
1!
#10955518000
0"
#10970400000
0!
#10971316687
1"
#10971500000
1!
#10974318000
0"
#10989200000
0!
#10990116625
1"
#10990300000
1!
#10993118000
0"
#11008000000
0!
#11009100000
1!
#11009235812
1"
#11012245750
0"
#11026800000
0!
#11027716625
1"
#11027900000
1!
#11030718062
0"
#11045600000
0!
#11046516625
1"
#11046700000
1!
#11049518000
0"
#11064400000
0!
#11065316625
1"
#11065500000
1!
#11068318062
0"
#11083200000
0!
#11084117000
1"
#11084300000
1!
#11087118000
0"
#11102000000
0!
#11102916625
1"
#11103100000
1!
#11105918062
0"
#11120800000
0!
#11121716625
1"
#11121900000
1!
#11124718062
0"
#11139600000
0!
#11140700000
1!
#11140830062
1"
#11143846000
0"
#11158400000
0!
#11159316625
1"
#11159500000
1!
#11162318062
0"
#11177200000
0!
#11178116687
1"
#11178300000
1!
#11181118062
0"
#11196000000
0!
#11196916625
1"
#11197100000
1!
#11199918000
0"
#11214800000
0!
#11215716625
1"
#11215900000
1!
#11218718125
0"
#11233600000
0!
#11234516687
1"
#11234700000
1!
#11237518000
0"
#11252400000
0!
#11253316625
1"
#11253500000
1!
#11256318000
0"
#11271200000
0!
#11272300000
1!
#11272433875
1"
#11275446562
0"
#11290000000
0!
#11290916625
1"
#11291100000
1!
#11293918375
0"
#11308800000
0!
#11309716687
1"
#11309900000
1!
#11312718000
0"
#11327600000
0!
#11328516625
1"
#11328700000
1!
#11331518000
0"
#11346400000
0!
#11347316750
1"
#11347500000
1!
#11350318062
0"
#11365200000
0!
#11366117250
1"
#11366300000
1!
#11369118062
0"
#11384000000
0!
#11384916687
1"
#11385100000
1!
#11387918062
0"
#11402800000
0!
#11403900000
1!
#11404028125
1"
#11407040812
0"
#11421600000
0!
#11422516687
1"
#11422700000
1!
#11425518062
0"
#11440400000
0!
#11441316750
1"
#11441500000
1!
#11444318000
0"
#11459200000
0!
#11460116625
1"
#11460300000
1!
#11463118000
0"
#11478000000
0!
#11478916625
1"
#11479100000
1!
#11481918562
0"
#11494700000
0!
#11495095250
1"
#11495800000
1!
#11498096500
0"
#11511400000
0!
#11511780812
1"
#11512500000
1!
#11514782000
0"
#11528100000
0!
#11528478187
1"
#11529200000
1!
#11531479562
0"
#11544800000
0!
#11545174625
1"
#11545900000
1!
#11548176187
0"
#11561500000
0!
#11561872625
1"
#11562600000
1!
#11564874000
0"
#11578200000
0!
#11578571125
1"
#11579300000
1!
#11581572625
0"
#11594900000
0!
#11595270187
1"
#11596000000
1!
#11598271562
0"
#11611600000
0!
#11611969625
1"
#11612700000
1!
#11614971000
0"
#11628300000
0!
#11628669125
1"
#11629400000
1!
#11631670500
0"
#11645000000
0!
#11645368625
1"
#11646100000
1!
#11648370312
0"
#11661700000
0!
#11662067625
1"
#11662800000
1!
#11665069125
0"
#11678400000
0!
#11678767687
1"
#11679500000
1!
#11681769125
0"
#11695100000
0!
#11695790000
1"
#11696200000
1!
#11698786875
0"
#11711800000
0!
#11712168812
1"
#11712900000
1!
#11715170000
0"
#11728500000
0!
#11729185875
1"
#11729600000
1!
#11732182750
0"
#11745200000
0!
#11745567625
1"
#11746300000
1!
#11748569000
0"
#11761900000
0!
#11762588937
1"
#11763000000
1!
#11765585812
0"
#11778600000
0!
#11778967687
1"
#11779700000
1!
#11781969000
0"
#11795300000
0!
#11795998000
1"
#11796400000
1!
#11798994875
0"
#11812000000
0!
#11812367625
1"
