wokwi/wokwi-logic.vcd
$version Generated by Wokwi.com $end
$date Sat, 23 Aug 2025 11:56:39 GMT $end
$timescale 1ns $end
$scope module logic $end
$var wire 1 ! D2 $end
$var wire 1 " D3 $end
$upscope $end
$enddefinitions $end
#0
0!
#0
0"
#0
1!
#2220900000
0!
#2222100000
1!
#2258400000
0!
#2259600000
1!
#2295900000
0!
#2297100000
1!
#2333400000
0!
#2334600000
1!
#2370900000
0!
#2372100000
1!
#2408400000
0!
#2409600000
1!
#2445900000
0!
#2447100000
1!
#2483400000
0!
#2484600000
1!
#2520900000
0!
#2522100000
1!
#2558400000
0!
#2559600000
1!
#2595900000
0!
#2597100000
1!
#2633400000
0!
#2634600000
1!
#2670900000
0!
#2672100000
1!
#2708400000
0!
#2709600000
1!
#2745900000
0!
#2747100000
1!
#2751949312
1"
#2754946000
0"
#2783400000
0!
#2784600000
1!
#2789451625
1"
#2792464125
0"
#2820900000
0!
#2822100000
1!
#2858400000
0!
#2859600000
1!
#2895900000
0!
#2897100000
1!
#2933400000
0!
#2934600000
1!
#2970900000
0!
#2972100000
1!
#3008400000
0!
#3009600000
1!
#3014446312
1"
#3017443000
0"
#3045900000
0!
#3047100000
1!
#3051953625
1"
#3054947062
0"
#3083400000
0!
#3084600000
1!
#3120900000
0!
#3122100000
1!
#3158400000
0!
#3159600000
1!
#3195900000
0!
#3197100000
1!
#3233400000
0!
#3234600000
1!
#3270900000
0!
#3272100000
1!
#3276951375
1"
#3279948062
0"
#3308400000
0!
#3309600000
1!
#3314458375
1"
#3317451812
0"
#3345900000
0!
#3347100000
1!
#3383400000
0!
#3384600000
1!
#3420900000
0!
#3422100000
1!
#3458400000
0!
#3459600000
1!
#3495900000
0!
#3497100000
1!
#3533400000
0!
#3534600000
1!
#3539451312
1"
#3542445062
0"
#3570900000
0!
#3572100000
1!
#3576949062
1"
#3579961562
0"
#3608400000
0!
#3609600000
1!
#3645900000
0!
#3647100000
1!
#3683400000
0!
#3684600000
1!
#3720900000
0!
#3722100000
1!
#3758400000
0!
#3759600000
1!
#3795900000
0!
#3797100000
1!
#3801962125
1"
#3804974625
0"
#3833400000
0!
#3834600000
1!
#3839457250
1"
#3842451000
0"
#3870900000
0!
#3872100000
1!
#3908400000
0!
#3909600000
1!
#3945900000
0!
#3947100000
1!
#3983400000
0!
#3984600000
1!
#4020900000
0!
#4022100000
1!
#4058400000
0!
#4059599999
1!
#4064450500
1"
#4067437937
0"
#4095900000
0!
#4097100000
1!
#4101962624
1"
#4104956062
0"
#4133400000
0!
#4134600000
1!
#4170899999
0!
#4172100000
1!
#4208400000
0!
#4209600000
1!
#4245900000
0!
#4247099999
1!
#4283400000
0!
#4284600000
1!
#4320900000
0!
#4322100000
1!
#4326956625
1"
#4329950062
0"
#4358400000
0!
#4359600000
1!
#4395900000
0!
#4397100000
1!
#4433400000
0!
#4434600000
1!
#4470900000
0!
#4472100000
1!
#4508400000
0!
#4509600000
1!
#4545900000
0!
#4547100000
1!
#4583400000
0!
#4584600000
1!
#4589459937
1"
#4592453375
0"
#4620900000
0!
#4622100000
1!
#4658400000
0!
#4659600000
1!
#4695900000
0!
#4697100000
1!
#4733400000
0!
#4734600000
1!
#4770900000
0!
#4772100000
1!
#4808400000
0!
#4809600000
1!
#4814449187
1"
#4817445875
0"
#4845900000
0!
#4847100000
1!
#4851956187
1"
#4854943625
0"
#4883400000
0!
#4884600000
1!
#4920900000
0!
#4922100000
1!
#4958400000
0!
#4959600000
1!
#4995900000
0!
#4997100000
1!
#5033400000
0!
#5034600000
1!
#5070900000
0!
#5072100000
1!
#5076955562
1"
#5079952562
0"
#5108400000
0!
#5109600000
1!
#5114462562
1"
#5117456000
0"
#5145900000
0!
#5147100000
1!
#5183400000
0!
#5184600000
1!
#5220900000
0!
#5222100000
1!
#5258400000
0!
#5259600000
1!
#5295900000
0!
#5297100000
1!
#5333400000
0!
#5334600000
1!
#5339452750
1"
#5342449437
0"
#5370900000
0!
#5372100000
1!
#5376953750
1"
#5379947187
0"
#5408400000
0!
#5409600000
1!
#5445900000
0!
#5447100000
1!
#5483400000
0!
#5484600000
1!
#5520900000
0!
#5522100000
1!
#5558400000
0!
#5559600000
1!
#5595900000
0!
#5597100000
1!
#5601956750
1"
#5604953437
0"
#5633400000
0!
#5634600000
1!
#5639450000
1"
#5642443437
0"
#5670900000
0!
#5672100000
1!
#5708400000
0!
#5709600000
1!
#5745900000
0!
#5747100000
1!
#5783400000
0!
#5784600000
1!
#5820900000
0!
#5822100000
1!
#5858400000
0!
#5859600000
1!
#5864448500
1"
#5867445187
0"
#5895900000
0!
#5897100000
1!
#5901956125
1"
#5904949562
0"
#5933400000
0!
#5934600000
1!
#5970900000
0!
#5972100000
1!
#6008400000
0!
#6009600000
1!
#6045900000
0!
#6047100000
1!
#6083400000
0!
#6084600000
1!
#6120900000
0!
#6122100000
1!
#6126959875
1"
#6129956562
0"
#6158400000
0!
#6159600000
1!
#6164460875
1"
#6167454312
0"
#6195900000
0!
#6197100000
1!
#6233400000
0!
#6234600000
1!
#6270900000
0!
#6272100000
1!
#6308400000
0!
#6309600000
1!
#6345900000
0!
#6347100000
1!
#6383400000
0!
#6384600000
1!
#6389450562
1"
#6392447250
0"
#6420900000
0!
#6422100000
1!
#6426957562
1"
#6429951000
0"
#6458400000
0!
#6459600000
1!
#6495900000
0!
#6497100000
1!
#6533400000
0!
#6534600000
1!
#6570900000
0!
#6572100000
1!
#6608400000
0!
#6609600000
1!
#6645900000
0!
#6647100000
1!
#6651954875
1"
#6654951562
0"
#6683400000
0!
#6684600000
1!
#6689461875
1"
#6692455312
0"
#6720900000
0!
#6722100000
1!
#6758400000
0!
#6759600000
1!
#6795900000
0!
#6797100000
1!
#6833400000
0!
#6834600000
1!
#6870900000
0!
#6872100000
1!
#6908400000
0!
#6909600000
1!
#6914455437
1"
#6917448875
0"
#6945900000
0!
#6947100000
1!
#6951952875
1"
#6954946312
0"
#6983400000
0!
#6984600000
1!
#7020900000
0!
#7022100000
1!
#7058400000
0!
#7059600000
1!
#7095900000
0!
#7097100000
1!
#7133400000
0!
#7134600000
1!
#7170900000
0!
#7172100000
1!
#7176959437
1"
#7179952875
0"
#7208400000
0!
#7209600000
1!
#7214463187
1"
#7217456625
0"
#7245900000
0!
#7247100000
1!
#7283400000
0!
#7284600000
1!
#7320900000
0!
#7322100000
1!
#7358400000
0!
#7359600000
1!
#7395900000
0!
#7397100000
1!
#7433400000
0!
#7434600000
1!
#7439450125
1"
#7442443562
0"
#7470900000
0!
#7472100000
1!
#7476953875
1"
#7479947312
0"
#7508400000
0!
#7509600000
1!
#7545900000
0!
#7547100000
1!
#7583400000
0!
#7584600000
1!
#7620900000
0!
#7622100000
1!
#7658400000
0!
#7659600000
1!
#7695900000
0!
#7697100000
1!
#7701961187
1"
#7704954625
0"
#7733400000
0!
#7734600000
1!
#7739458937
1"
#7742471437
0"
#7770900000
0!
#7772100000
1!
#7808400000
0!
#7809600000
1!
#7845900000
0!
#7847100000
1!
#7883400000
0!
#7884600000
1!
#7920900000
0!
#7922100000
1!
#7958400000
0!
#7959600000
1!
#7964456875
1"
#7967450312
0"
#7995900000
0!
#7997100000
1!
#8033400000
0!
#8034599999
1!
#8070900000
0!
#8072100000
1!
#8108400000
0!
#8109600000
1!
#8145899999
0!
#8147100000
1!
#8183400000
0!
#8184600000
1!
#8220900000
0!
#8222099999
1!
#8226946437
1"
#8229939874
0"
#8258400000
0!
#8259600000
1!
#8295900000
0!
#8297100000
1!
#8333399999
0!
#8334600000
1!
#8370900000
0!
#8372100000
1!
#8408400000
0!
#8409599999
1!
#8445900000
0!
#8447100000
1!
#8451950500
1"
#8454947187
0"
#8483400000
0!
#8484600000
1!
#8489457187
1"
#8492450937
0"
#8520899999
0!
#8522100000
1!
#8558400000
0!
#8559600000
1!
#8595900000
0!
#8597100000
1!
#8633400000
0!
#8634600000
1!
#8670900000
0!
#8672100000
1!
#8708400000
0!
#8709600000
1!
#8714448125
1"
#8717458000
0"
#8745900000
0!
#8747100000
1!
#8751955187
1"
#8754948625
0"
#8783400000
0!
#8784600000
1!
#8820900000
0!
#8822100000
1!
#8858400000
0!
#8859600000
1!
#8895900000
0!
#8897100000
1!
#8933400000
0!
#8934600000
1!
#8970900000
0!
#8972100000
1!
#8976959562
1"
#8979956250
0"
#9008400000
0!
#9009600000
1!
#9014452500
1"
#9017439937
0"
#9045900000
0!
#9047100000
1!
#9083400000
0!
#9084600000
1!
#9120900000
0!
#9122100000
1!
#9158400000
0!
#9159600000
1!
#9195900000
0!
#9197100000
1!
#9233400000
0!
#9234600000
1!
#9239450562
1"
#9242447250
0"
#9270900000
0!
#9272100000
1!
#9276957562
1"
#9279951000
0"
#9308400000
0!
#9309600000
1!
#9345900000
0!
#9347100000
1!
#9383400000
0!
#9384600000
1!
#9420900000
0!
#9422100000
1!
#9458400000
0!
#9459600000
1!
#9495900000
0!
#9497100000
1!
#9501946500
1"
#9504943187
0"
#9533400000
0!
#9534600000
1!
#9539461562
1"
#9542455000
0"
#9570900000
0!
#9572100000
1!
#9608400000
0!
#9609600000
1!
#9645900000
0!
#9647100000
1!
#9683400000
0!
#9684600000
1!
#9720900000
0!
#9722100000
1!
#9758400000
0!
#9759600000
1!
#9764451250
1"
#9767447937
0"
#9795900000
0!
#9797100000
1!
#9801959000
1"
#9804946437
0"
#9833400000
0!
#9834600000
1!
#9870900000
0!
#9872100000
1!
#9908400000
0!
#9909600000
1!
#9945900000
0!
#9947100000
1!
#9983400000
0!
#9984600000
1!
#10020900000
0!
#10022100000
1!
#10026964000
1"
#10029961000
0"
#10058400000
0!
#10059600000
1!
#10064456937
1"
#10067450375
0"
#10095900000
0!
#10097100000
1!
#10133400000
0!
#10134600000
1!
#10170900000
0!
#10172100000
1!
#10208400000
0!
#10209600000
1!
#10245900000
0!
#10247100000
1!
#10283400000
0!
#10284600000
1!
#10289450187
1"
#10292443625
0"
#10320900000
0!
#10322100000
1!
#10326962000
1"
#10329955437
0"
#10358400000
0!
#10359600000
1!
#10395900000
0!
#10397100000
1!
#10433400000
0!
#10434600000
1!
#10470900000
0!
#10472100000
1!
#10508400000
0!
#10509600000
1!
#10545900000
0!
#10547100000
1!
#10551954937
1"
#10554948375
0"
#10583400000
0!
#10584600000
1!
#10589458687
1"
#10592452125
0"
#10620900000
0!
#10622100000
1!
#10658400000
0!
#10659600000
1!
#10695900000
0!
#10697100000
1!
#10733400000
0!
#10734600000
1!
#10770900000
0!
#10772100000
1!
#10808400000
0!
#10809600000
1!
#10814459687
1"
#10817453125
0"
#10845900000
0!
#10847100000
1!
#10851963750
1"
#10854957500
0"
#10883400000
0!
#10884600000
1!
#10920900000
0!
#10922100000
1!
#10958400000
0!
#10959600000
1!
#10995900000
0!
#10997100000
1!
#11033400000
0!
#11034600000
1!
#11070900000
0!
#11072100000
1!
#11076957000
1"
#11079950437
0"
#11108400000
0!
#11109600000
1!
#11114454750
1"
#11117467250
0"
#11145900000
0!
#11147100000
1!
#11183400000
0!
#11184600000
1!
#11220900000
0!
#11222100000
1!
#11258400000
0!
#11259600000
1!
#11295900000
0!
#11297100000
1!
#11333400000
0!
#11334600000
1!
#11339453437
1"
#11342446875
0"
#11370900000
0!
#11372100000
1!
#11408400000
0!
#11409600000
1!
#11445900000
0!
#11447100000
1!
#11483400000
0!
#11484600000
1!
#11520900000
0!
#11522100000
1!
#11558400000
0!
#11559600000
1!
#11595900000
0!
#11597100000
1!
#11601956750
1"
#11604950187
0"
#11633400000
0!
#11634600000
1!
#11670900000
0!
#11672100000
1!
#11708400000
0!
#11709600000
1!
#11745900000
0!
#11747100000
1!
#11783400000
0!
#11784600000
1!
#11820900000
0!
#11822100000
1!
#11826946750
1"
#11829943437
0"
#11858400000
0!
#11859600000
1!
#11864454500
1"
#11867447937
0"
#11895900000
0!
#11897100000
1!
#11933400000
0!
#11934600000
1!
#11970900000
0!
#11972100000
1!
#12008400000
0!
#12009600000
1!
#12045900000
0!
#12047100000
1!
#12083400000
0!
#12084600000
1!
#12089451500
1"
#12092448187
0"
#12120900000
0!
#12122100000
1!
#12126958500
1"
#12129951937
0"
#12158400000
0!
#12159600000
1!
#12195900000
0!
#12197100000
1!
#12233400000
0!
#12234600000
1!
#12270900000
0!
#12272100000
1!
#12308400000
0!
#12309600000
1!
#12345900000
0!
#12347100000
1!
#12351947437
1"
#12354944125
0"
#12383400000
0!
#12384600000
1!
#12389449562
1"
#12392462062
0"
#12420900000
0!
#12422100000
1!
#12458400000
0!
#12459600000
1!
#12495900000
0!
#12497100000
1!
#12533400000
0!
#12534600000
1!
#12570900000
0!
#12572100000
1!
#12608400000
0!
#12609600000
1!
#12614459375
1"
#12617456062
0"
#12645900000
0!
#12647100000
1!
#12651952312
1"
#12654945750
0"
#12683400000
0!
#12684600000
1!
#12720900000
0!
#12722100000
1!
#12758400000
0!
#12759600000
1!
#12795900000
0!
#12797100000
1!
#12833400000
0!
#12834600000
1!
#12870900000
0!
#12872100000
1!
#12876949312
1"
#12879946000
0"
#12908400000
0!
#12909600000
1!
#12914456312
1"
#12917449750
0"
#12945900000
0!
#12947100000
1!
#12983400000
0!
#12984600000
1!
#13020900000
0!
#13022100000
1!
#13058400000
0!
#13059600000
1!
#13095900000
0!
#13097100000
1!
#13133400000
0!
#13134600000
1!
#13139460062
1"
#13142457062
0"
#13170900000
0!
#13172100000
1!
#13176947437
1"
#13179940875
0"
#13208400000
0!
#13209600000
1!
#13245900000
0!
#13247100000
1!
#13283400000
0!
#13284600000
1!
#13320900000
0!
#13322100000
1!
#13358400000
0!
#13359600000
1!
#13395900000
0!
#13397100000
1!
#13401951500
1"
#13404967250
0"
#13433400000
0!
#13434600000
1!
#13439463937
1"
#13442457687
0"
#13470900000
0!
#13472100000
1!
#13508400000
0!
#13509600000
1!
#13545900000
0!
#13547100000
1!
#13583400000
0!
#13584600000
1!
#13620900000
0!
#13622100000
1!
#13658400000
0!
#13659600000
1!
#13664454250
1"
#13667444937
0"
#13695900000
0!
#13697100000
1!
#13701955250
1"
#13704948687
0"
#13733400000
0!
#13734600000
1!
#13770900000
0!
#13772100000
1!
#13808400000
0!
#13809600000
1!
#13845900000
0!
#13847100000
1!
#13883400000
0!
#13884600000
1!
#13920900000
0!
#13922100000
1!
#13926962250
1"
#13929955687
0"
#13958400000
0!
#13959600000
1!
#13964445937
1"
#13967439375
0"
#13995900000
0!
#13997100000
1!
#14033400000
0!
#14034600000
1!
#14070900000
0!
#14072100000
1!
#14108400000
0!
#14109600000
1!
#14145900000
0!
#14147100000
1!
#14183400000
0!
#14184600000
1!
#14189452937
1"
#14192446375
0"
#14220900000
0!
#14222100000
1!
#14226956687
1"
#14229950437
0"
#14258400000
0!
#14259600000
1!
#14295900000
0!
#14297100000
1!
#14333400000
0!
#14334600000
1!
#14370900000
0!
#14372100000
1!
#14408400000
0!
#14409600000
1!
#14445900000
0!
#14447100000
1!
#14451949937
1"
#14454937375
0"
#14483400000
0!
#14484600000
1!
#14489461750
1"
#14492474250
0"
#14520900000
0!
#14522100000
1!
#14558400000
0!
#14559600000
1!
#14595900000
0!
#14597100000
1!
#14633400000
0!
#14634600000
1!
#14670900000
0!
#14672100000
1!
#14708400000
0!
#14709600000
1!
#14714460437
1"
#14717453875
0"
#14745900000
0!
#14747100000
1!
#14783400000
0!
#14784600000
1!
#14820900000
0!
#14822100000
1!
#14858400000
0!
#14859600000
1!
#14895900000
0!
#14897100000
1!
#14933400000
0!
#14934600000
1!
#14970900000
0!
#14972100000
1!
#14976950000
1"
#14979962500
0"
#15008400000
0!
#15009600000
1!
#15045900000
0!
#15047100000
1!
#15083400000
0!
#15084600000
1!
#15120900000
0!
#15122100000
1!
#15158400000
0!
#15159600000
1!
#15195900000
0!
#15197100000
1!
#15201958312
1"
#15204955000
0"
#15233400000
0!
#15234600000
1!
#15239451250
1"
#15242444687
0"
#15270900000
0!
#15272100000
1!
#15308400000
0!
#15309600000
1!
#15345900000
0!
#15347100000
1!
#15383400000
0!
#15384600000
1!
#15420900000
0!
#15422100000
1!
#15458400000
0!
#15459600000
1!
#15464448250
1"
#15467444937
0"
#15495900000
0!
#15497100000
1!
#15501955562
1"
#15504949000
0"
#15533400000
0!
#15534600000
1!
#15570900000
0!
#15572100000
1!
#15608400000
0!
#15609600000
1!
#15645900000
0!
#15647100000
1!
#15683400000
0!
#15684600000
1!
#15720900000
0!
#15722100000
1!
#15726958562
1"
#15729955250
0"
#15758400000
0!
#15759600000
1!
#15764460312
1"
#15767453750
0"
#15795900000
0!
#15797100000
1!
#15833400000
0!
#15834600000
1!
#15870900000
0!
#15872100000
1!
#15908400000
0!
#15909600000
1!
#15945900000
0!
#15947100000
1!
#15983400000
0!
#15984600000
1!
#15989449250
1"
#15992445937
0"
#16020900000
0!
#16022099999
1!
#16026956250
1"
#16029949687
0"
#16058399999
0!
#16059600000
1!
#16095900000
0!
#16097100000
1!
#16133400000
0!
#16134599999
1!
#16170900000
0!
#16172100000
1!
#16208400000
0!
#16209599999
1!
#16245899999
0!
#16247100000
1!
#16251954000
1"
#16254950687
0"
#16283400000
0!
#16284600000
1!
#16289461625
1"
#16292455062
0"
#16320900000
0!
#16322099999
1!
#16358400000
0!
#16359600000
1!
#16395900000
0!
#16397099999
1!
#16433399999
0!
#16434600000
1!
#16470900000
0!
#16472100000
1!
#16508400000
0!
#16509599999
1!
#16514452250
1"
#16517448937
0"
#16545900000
0!
#16547100000
1!
#16551952937
1"
#16554946375
0"
#16583400000
0!
#16584599999
1!
#16620899999
0!
#16622100000
1!
#16658400000
0!
#16659600000
1!
#16695900000
0!
#16697099999
1!
#16733400000
0!
#16734600000
1!
#16770900000
0!
#16772099999
1!
#16776957000
1"
#16779953687
0"
#16808399999
0!
#16809600000
1!
#16814449937
1"
#16817443375
0"
#16845900000
0!
#16847100000
1!
#16883400000
0!
#16884599999
1!
#16920900000
0!
#16922100000
1!
#16958400000
0!
#16959599999
1!
#16995899999
0!
#16997100000
1!
#17033400000
0!
#17034600000
1!
#17039447687
1"
#17042444374
0"
#17070900000
0!
#17072099999
1!
#17076955000
1"
#17079948750
0"
#17108400000
0!
#17109600000
1!
#17145900000
0!
#17147099999
1!
#17183400000
0!
#17184600000
1!
#17220900000
0!
#17222100000
1!
#17258400000
0!
#17259600000
1!
#17295900000
0!
#17297100000
1!
#17301962312
1"
#17304955750
0"
#17333400000
0!
#17334600000
1!
#17339460062
1"
#17342453500
0"
#17370900000
0!
#17372100000
1!
#17408400000
0!
#17409600000
1!
#17445900000
0!
#17447100000
1!
#17483400000
0!
#17484600000
1!
#17520900000
0!
#17522100000
1!
#17558400000
0!
#17559600000
1!
#17564452250
1"
#17567445687
0"
#17595900000
0!
#17597100000
1!
#17601956000
1"
#17604949437
0"
#17633400000
0!
#17634600000
1!
#17670900000
0!
#17672100000
1!
#17708400000
0!
#17709600000
1!
#17745900000
0!
#17747100000
1!
#17783400000
0!
#17784600000
1!
#17820900000
0!
#17822100000
1!
#17826943687
1"
#17829937125
0"
#17858400000
0!
#17859600000
1!
#17864462250
1"
#17867455687
0"
#17895900000
0!
#17897100000
1!
#17933400000
0!
#17934600000
1!
#17970900000
0!
#17972100000
1!
#18008400000
0!
#18009600000
1!
#18045900000
0!
#18047100000
1!
#18083400000
0!
#18084600000
1!
#18089454562
1"
#18092448625
0"
#18120900000
0!
#18122100000
1!
#18126953375
1"
#18129946812
0"
#18158400000
0!
#18159600000
1!
#18195900000
0!
#18197100000
1!
#18233400000
0!
#18234600000
1!
#18270900000
0!
#18272100000
1!
#18308400000
0!
#18309600000
1!
#18345900000
0!
#18347100000
1!
#18351959937
1"
#18354953375
0"
#18383400000
0!
#18384600000
1!
#18420900000
0!
#18422100000
1!
#18458400000
0!
#18459600000
1!
#18495900000
0!
#18497100000
1!
#18533400000
0!
#18534600000
1!
#18570900000
0!
#18572100000
1!
#18576948875
1"
#18579945562
0"
#18608400000
0!
#18609600000
1!
#18614455875
1"
#18617443312
0"
#18645900000
0!
#18647100000
1!
#18683400000
0!
#18684600000
1!
#18720900000
0!
#18722100000
1!
#18758400000
0!
#18759600000
1!
#18795900000
0!
#18797100000
1!
#18833400000
0!
#18834600000
1!
#18839452875
1"
#18842449875
0"
#18870900000
0!
#18872100000
1!
#18876960500
1"
#18879953937
0"
#18908400000
0!
#18909600000
1!
#18945900000
0!
#18947100000
1!
#18983400000
0!
#18984600000
1!
#19020900000
0!
#19022100000
1!
#19058400000
0!
#19059600000
1!
#19095900000
0!
#19097100000
1!
#19101950187
1"
#19104946875
0"
#19133400000
0!
#19134600000
1!
#19139451625
1"
#19142445062
0"
#19170900000
0!
#19172100000
1!
#19208400000
0!
#19209600000
1!
#19245900000
0!
#19247100000
1!
#19283400000
0!
#19284600000
1!
#19320900000
0!
#19322100000
1!
#19358400000
0!
#19359600000
1!
#19364454625
1"
#19367451312
0"
#19395900000
0!
#19397100000
1!
#19401962375
1"
#19404949812
0"
#19433400000
0!
#19434600000
1!
#19470900000
0!
#19472100000
1!
#19508400000
0!
#19509600000
1!
#19545900000
0!
#19547100000
1!
#19583400000
0!
#19584600000
1!
#19620900000
0!
#19622100000
1!
#19626960125
1"
#19629957125
0"
#19658400000
0!
#19659600000
1!
#19664453062
1"
#19667446500
0"
#19695900000
0!
#19697100000
1!
#19733400000
0!
#19734600000
1!
#19770900000
0!
#19772100000
1!
#19808400000
0!
#19809600000
1!
#19845900000
0!
#19847100000
1!
#19883400000
0!
#19884600000
1!
#19889456687
1"
#19892453375
0"
#19920900000
0!
#19922100000
1!
#19926958000
1"
#19929970500
0"
#19958400000
0!
#19959600000
1!
#19995900000
0!
#19997100000
1!
#20033400000
0!
#20034600000
1!
#20070900000
0!
#20072100000
1!
#20108400000
0!
#20109600000
1!
#20145900000
0!
#20147100000
1!
#20151954687
1"
#20154951375
0"
#20183400000
0!
#20184600000
1!
#20189461687
1"
#20192455125
0"
#20220900000
0!
#20222100000
1!
#20258400000
0!
#20259600000
1!
#20295900000
0!
#20297100000
1!
#20333400000
0!
#20334600000
1!
#20370900000
0!
#20372100000
1!
#20408400000
0!
#20409600000
1!
#20414460187
1"
#20417457187
0"
#20445900000
0!
#20447100000
1!
#20451953437
1"
#20454946875
0"
#20483400000
0!
#20484600000
1!
#20520900000
0!
#20522100000
1!
#20558400000
0!
#20559600000
1!
#20595900000
0!
#20597100000
1!
#20633400000
0!
#20634600000
1!
#20670900000
0!
#20672100000
1!
#20676961187
1"
#20679954937
0"
#20708400000
0!
#20709600000
1!
#20714459562
1"
#20717453000
0"
#20745900000
0!
#20747100000
1!
#20783400000
0!
#20784600000
1!
#20820900000
0!
#20822100000
1!
#20858400000
0!
#20859600000
1!
#20895900000
0!
#20897100000
1!
#20933400000
0!
#20934600000
1!
#20939451750
1"
#20942445187
0"
#20970900000
0!
#20972100000
1!
#20976955500
1"
#20979948937
0"
#20984540125
1#
