wokwi/wokwi-logic.vcd
$version Generated by Wokwi.com $end
$date Thu, 21 Aug 2025 15:49:42 GMT $end
$timescale 1ns $end
$scope module logic $end
$var wire 1 ! D0 $end
$var wire 1 " D1 $end
$var wire 1 # D2 $end
$upscope $end
$enddefinitions $end
#0
0!
#0
0"
#0
0#
#0
1!
#135000000
0!
#150000000
1!
#285000000
0!
#300000000
1!
#435000000
0!
#450000000
1!
#585000000
0!
#600000000
1!
#601367062
1"
#601367187
1#
#604368375
0"
#604368437
0#
#735000000
0!
#735902500
1"
#735902625
1#
#738903937
0"
#738904000
0#
#750000000
1!
#885000000
0!
#885902687
1"
#885902812
1#
#888903875
0"
#888903937
0#
#900000000
1!
#1034999999
0!
#1035902687
1"
#1035902812
1#
#1038903937
0"
#1038904000
0#
#1050000000
1!
#1185000000
0!
#1185902687
1"
#1185902812
1#
#1188903937
0"
#1188904000
0#
#1200000000
1!
#1335000000
0!
#1335902500
1"
#1335902625
1#
#1338904375
0"
#1338904437
0#
#1350000000
1!
#1485000000
0!
#1485902500
1"
#1485902625
1#
#1488904062
0"
#1488904125
0#
#1500000000
1!
#1635000000
0!
#1635902500
1"
#1635902625
1#
#1638903875
0"
#1638903937
0#
#1650000000
1!
#1785000000
0!
#1785902687
1"
#1785902812
1#
#1788903875
0"
#1788903937
0#
#1800000000
1!
#1935000000
0!
#1935902500
1"
#1935902625
1#
#1938903875
0"
#1938903937
0#
#1950000000
1!
#2085000000
0!
#2085902500
1"
#2085902625
1#
#2088904562
0"
#2088904625
0#
#2100000000
1!
#2235000000
0!
#2235902687
1"
#2235902812
1#
#2238903875
0"
#2238903937
0#
#2250000000
1!
#2385000000
0!
#2385902500
1"
#2385902625
1#
#2388903875
0"
#2388903937
0#
#2400000000
1!
#2535000000
0!
#2535902562
1"
#2535902687
1#
#2538903937
0"
#2538904000
0#
#2550000000
1!
#2685000000
0!
#2685902500
1"
#2685902625
1#
#2688904062
0"
#2688904125
0#
#2700000000
1!
#2835000000
0!
#2835902812
1"
#2835902937
1#
#2838904000
0"
#2838904062
0#
#2850000000
1!
#2985000000
0!
#2985902500
1"
#2985902625
1#
#2988903937
0"
#2988904000
0#
#3000000000
1!
#3128000000
0!
#3128193375
1"
#3128193500
1#
#3131194562
0"
#3131194625
0#
#3141400000
1!
#3262700000
0!
#3262894875
1"
#3262895000
1#
#3265896062
0"
#3265896125
0#
#3275500000
1!
#3391000000
0!
#3391186625
1"
#3391186750
1#
#3394187375
0"
#3394187437
0#
#3403300000
1!
#3513800000
0!
#3513987437
1"
#3513987562
1#
#3516988375
0"
#3516988437
0#
#3525600000
1!
#3631700000
0!
#3631884187
1"
#3631884312
1#
#3634884875
0"
#3634884937
0#
#3643000000
1!
#3745200000
0!
#3745390687
1"
#3745390812
1#
#3748391375
0"
#3748391437
0#
#3756100000
1!
#3854700000
0!
#3854890437
1"
#3854890562
1#
#3857891375
0"
#3857891437
0#
#3865300000
1!
#3960700000
0!
#3960889812
1"
#3960889937
1#
#3963891000
0"
#3963891062
0#
#3971000000
1!
#4063500000
0!
#4063687187
1"
#4063687312
1#
#4066687875
0"
#4066687937
0#
#4073500000
1!
#4163299999
0!
#4163491562
1"
#4163491687
1#
#4166492375
0"
#4166492437
0#
#4173000000
1!
#4260399999
0!
#4260587499
1"
#4260587625
1#
#4263588437
0"
#4263588500
0#
#4269800000
1!
#4354900000
0!
#4355092500
1"
#4355092625
1#
#4358093437
0"
#4358093500
0#
#4364200000
1!
#4447200000
0!
#4447395000
1"
#4447395125
1#
#4450395937
0"
#4450396000
0#
#4456200000
1!
#4537300000
0!
#4537495875
1"
#4537496000
1#
#4540497062
0"
#4540497125
0#
#4546100000
1!
#4625400000
0!
#4625592375
1"
#4625592500
1#
#4628593375
0"
#4628593437
0#
#4634000000
1!
#4711600000
0!
#4711796062
1"
#4711796187
1#
#4714796875
0"
#4714796937
0#
#4720000000
1!
#4796000000
0!
#4796194500
1"
#4796194625
1#
#4799195437
0"
#4799195500
0#
#4804200000
1!
#4878700000
0!
#4878890062
1"
#4878890187
1#
#4881890875
0"
#4881890937
0#
#4886800000
1!
#4959900000
0!
#4960095562
1"
#4960095687
1#
#4963096375
0"
#4963096437
0#
#4967800000
1!
#5039500000
0!
#5047300000
1!
#5117800000
0!
#5125400000
1!
#5194600000
0!
#5202200000
1!
#5270300000
0!
#5277700000
1!
#5344700000
0!
#5352000000
1!
#5418000000
0!
#5425200000
1!
#5490200000
0!
#5497300000
1!
#5561300000
0!
#5568300000
1!
#5631400000
0!
#5638300000
1!
#5700500000
0!
#5707400000
1!
#5768800000
0!
#5775500000
1!
#5836100000
0!
#5842700000
1!
#5849723000
1"
#5849723125
1#
#5852724437
0"
#5852724500
0#
#5902500000
0!
#5909100000
1!
#5915887625
1"
#5915887750
1#
#5918888875
0"
#5918888937
0#
#5968200000
0!
#5974700000
1!
#5981401500
1"
#5981401625
1#
#5984402937
0"
#5984403000
0#
#6033100000
0!
#6039500000
1!
#6046091562
1"
#6046091687
1#
#6049093062
0"
#6049093125
0#
#6097200000
0!
#6103500000
1!
#6109981625
1"
#6109981750
1#
#6112982875
0"
#6112982937
0#
#6160500000
0!
#6166800000
1!
#6173072000
1"
#6173072125
1#
#6176073437
0"
#6176073500
0#
#6223200000
0!
#6229400000
1!
#6235614187
1"
#6235614312
1#
#6238615375
0"
#6238615437
0#
#6285100000
0!
#6291300000
1!
#6297305187
1"
#6297305312
1#
#6300306562
0"
#6300306625
0#
#6346400000
0!
#6352500000
1!
#6358447500
1"
#6358447625
1#
#6361449000
0"
#6361449062
0#
#6407100000
0!
#6413000000
1!
#6418990000
1"
#6418990125
1#
#6421991625
0"
#6421991687
0#
#6467000000
0!
#6472900000
1!
#6478682500
1"
#6478682625
1#
#6481683875
0"
#6481683937
0#
#6526300000
0!
#6532200000
1!
#6537825000
1"
#6537825125
1#
#6540826375
0"
#6540826437
0#
#6585100000
0!
#6590900000
1!
#6596493000
1"
#6596493125
1#
#6599494375
0"
#6599494437
0#
#6643300000
0!
#6649000000
1!
#6654536187
1"
#6654536312
1#
#6657537375
0"
#6657537437
0#
#6700900000
0!
#6706600000
1!
#6711980000
1"
#6711980125
1#
#6714981750
0"
#6714981812
0#
#6758000000
0!
#6763600000
1!
#6768948500
1"
#6768948625
1#
#6771949875
0"
#6771949937
0#
#6814500000
0!
#6820100000
1!
#6825292500
1"
#6825292625
1#
#6828294437
0"
#6828294500
0#
#6870600000
0!
#6876100000
1!
#6881285500
1"
#6881285625
1#
#6884286937
0"
#6884287000
0#
#6926100000
0!
#6931600000
1!
#6936629687
1"
#6936629812
1#
#6939631062
0"
#6939631125
0#
#6981200000
0!
#6986600000
1!
#6991623062
1"
#6991623187
1#
#6994624375
0"
#6994624437
0#
#7035700000
0!
#7041200000
1!
#7045968000
1"
#7045968125
1#
#7048969500
0"
#7048969562
0#
#7089900000
0!
#7095300000
1!
#7100086000
1"
#7100086125
1#
#7103087562
0"
#7103087625
0#
#7143600000
0!
#7148900000
1!
#7153655000
1"
#7153655125
1#
#7156656375
0"
#7156656437
0#
#7196800000
0!
#7202100000
1!
#7206725000
1"
#7206725125
1#
#7209726375
0"
#7209726437
0#
#7249600000
0!
#7254900000
1!
#7259419125
1"
#7259419250
1#
#7262420437
0"
#7262420500
0#
#7302100000
0!
#7307300000
1!
#7311839000
1"
#7311839125
1#
#7314840375
0"
#7314840437
0#
#7354100000
0!
#7359200000
1!
#7363709000
1"
#7363709125
1#
#7366710375
0"
#7366710437
0#
#7405600000
0!
#7410800000
1!
#7415079562
1"
#7415079687
1#
#7418080875
0"
#7418080937
0#
#7456900000
0!
#7462000000
1!
#7466324000
1"
#7466324125
1#
#7469325375
0"
#7469325437
0#
#7507700000
0!
#7512800000
1!
#7516994500
1"
#7516994625
1#
#7519996187
0"
#7519996250
0#
#7558200000
0!
#7563200000
1!
#7567415000
1"
#7567415125
1#
#7570416375
0"
#7570416437
0#
#7608300000
0!
#7613200000
1!
#7617412000
1"
#7617412125
1#
#7620413562
0"
#7620413625
0#
#7658000000
0!
#7662900000
1!
#7667007062
1"
#7667007187
1#
#7670008500
0"
#7670008562
0#
#7707300000
0!
#7712200000
1!
#7716202000
1"
#7716202125
1#
#7719203375
0"
#7719203437
0#
#7756300000
0!
#7761200000
1!
#7765123000
1"
#7765123125
1#
#7768124500
0"
#7768124562
0#
#7805000000
0!
#7809900000
1!
#7813744000
1"
#7813744125
1#
#7816745437
0"
#7816745500
0#
#7853400000
0!
#7858200000
1!
#7862065875
1"
#7862066000
1#
#7865067312
0"
#7865067375
0#
#7901400000
0!
#7906200000
1!
#7909961062
1"
#7909961187
1#
#7912962375
0"
#7912962437
0#
#7949200000
0!
#7953900000
1!
#7957706625
1"
#7957706750
1#
#7960707875
0"
#7960707937
0#
#7996600000
0!
#8001300000
1!
#8005004000
1"
#8005004124
1#
#8008005437
0"
#8008005499
0#
#8043699999
0!
#8048400000
1!
#8052025812
1"
#8052025937
1#
#8055026874
0"
#8055026937
0#
#8090500000
0!
#8095200000
1!
#8098747437
1"
#8098747562
1#
#8101748375
0"
#8101748437
0#
#8137100000
0!
#8141700000
1!
#8145293000
1"
#8145293125
1#
#8148294375
0"
#8148294437
0#
#8183299999
0!
#8187900000
1!
#8191390500
1"
#8191390625
1#
#8194391937
0"
#8194392000
0#
#8229300000
0!
#8233800000
1!
#8237336500
1"
#8237336624
1#
#8240337875
0"
#8240337937
0#
#8274900000
0!
#8279400000
1!
#8282834500
1"
#8282834625
1#
#8285836124
0"
#8285836187
0#
#8320300000
0!
#8324800000
1!
#8328180750
1"
#8328180874
1#
#8331181937
0"
#8331182000
0#
#8365399999
0!
#8369899999
1!
#8373202687
1"
#8373202812
1#
#8376203875
0"
#8376203937
0#
#8410299999
0!
#8414800000
1!
#8418049125
1"
#8418049249
1#
#8421050375
0"
#8421050437
0#
#8455000000
0!
#8459400000
1!
#8462695000
1"
#8462695125
1#
#8465696437
0"
#8465696500
0#
#8499300000
0!
#8503700000
1!
#8506893500
1"
#8506893625
1#
#8509895187
0"
#8509895250
0#
#8543400000
0!
#8547800000
1!
#8550939625
1"
#8550939749
1#
#8553941000
0"
#8553941062
0#
#8587300000
0!
#8591600000
1!
#8594786437
1"
#8594786562
1#
#8597787875
0"
#8597787937
0#
#8630900000
0!
#8635200000
1!
#8638309250
1"
#8638309375
1#
#8641310437
0"
#8641310500
0#
#8674300000
0!
#8678600000
1!
#8681655062
1"
#8681655187
1#
#8684656375
0"
#8684656437
0#
#8717400000
0!
#8721700000
1!
#8724678437
1"
#8724678562
1#
#8727679375
0"
#8727679437
0#
#8760300000
0!
#8764600000
1!
#8767524562
1"
#8767524687
1#
#8770526437
0"
#8770526500
0#
#8803000000
0!
#8807300000
1!
#8810171500
1"
#8810171625
1#
#8813172875
0"
#8813172937
0#
#8845500000
0!
#8849800000
1!
#8852619312
1"
#8852619437
1#
#8855620500
0"
#8855620562
0#
#8887800000
0!
#8892000000
1!
#8894866187
1"
#8894866312
1#
#8897867500
0"
#8897867562
0#
#8929800000
0!
#8934000000
1!
#8936789000
1"
#8936789125
1#
#8939790500
0"
#8939790562
0#
#8971700000
0!
#8975800000
1!
#8978661062
1"
#8978661187
1#
#8981662437
0"
#8981662500
0#
#9013300000
0!
#9017400000
1!
#9020184000
1"
#9020184125
1#
#9023185375
0"
#9023185437
0#
#9054700000
0!
#9058800000
1!
#9061531000
1"
#9061531125
1#
#9064532375
0"
#9064532437
0#
#9095900000
0!
#9100000000
1!
#9102678062
1"
#9102678187
1#
#9105679375
0"
#9105679437
0#
#9136900000
0!
#9141000000
1!
#9143626500
1"
#9143626625
1#
#9146627875
0"
#9146627937
0#
#9177700000
0!
#9181800000
1!
#9184374000
1"
#9184374125
1#
#9187375375
0"
#9187375437
0#
#9218400000
0!
#9222400000
1!
#9225046000
1"
#9225046125
1#
#9228047375
0"
#9228047437
0#
#9258800000
0!
#9262800000
1!
#9265369500
1"
#9265369625
1#
#9268371500
0"
#9268371562
0#
#9299000000
0!
#9303000000
1!
#9305517062
1"
#9305517187
1#
#9308518812
0"
#9308518875
0#
#9339100000
0!
#9343000000
1!
#9345589312
1"
#9345589437
1#
#9348590750
0"
#9348590812
0#
#9378900000
0!
#9382900000
1!
#9385313250
1"
#9385313375
1#
#9388314375
0"
#9388314437
0#
#9418600000
0!
#9422600000
1!
#9424985500
1"
#9424985625
1#
#9427986937
0"
#9427987000
0#
#9458200000
0!
#9462100000
1!
#9464557562
1"
#9464557687
1#
#9467558875
0"
#9467558937
0#
#9497500000
0!
#9501400000
1!
#9503781562
1"
#9503781687
1#
#9506783000
0"
#9506783062
0#
#9536700000
0!
#9540500000
1!
#9542954500
1"
#9542954625
1#
#9545955937
0"
#9545956000
0#
#9575600000
0!
#9579500000
1!
#9581778000
1"
#9581778125
1#
#9584779375
0"
#9584779437
0#
#9614400000
0!
#9618300000
1!
#9620551125
1"
#9620551250
1#
#9623552375
0"
#9623552437
0#
#9653100000
0!
#9656900000
1!
#9659223125
1"
#9659223250
1#
#9662224500
0"
#9662224562
0#
#9691500000
0!
#9695400000
1!
#9697547562
1"
#9697547687
1#
#9700548875
0"
#9700548937
0#
#9729900000
0!
#9733700000
1!
#9735943500
1"
#9735943625
1#
#9738945000
0"
#9738945062
0#
#9768100000
0!
#9771800000
1!
#9774092750
1"
#9774092875
1#
#9777093875
0"
#9777093937
0#
#9806000000
0!
#9809800000
1!
#9811917000
1"
#9811917125
1#
#9814918375
0"
#9814918437
0#
#9843900000
0!
#9847600000
1!
#9849813000
1"
#9849813125
1#
#9852814375
0"
#9852814437
0#
#9881500000
0!
#9885300000
1!
#9887338062
1"
#9887338187
1#
#9890338937
0"
#9890339000
0#
#9919100000
0!
#9922800000
1!
#9924934000
1"
#9924934125
1#
#9927935375
0"
#9927935437
0#
#9956500000
0!
#9960200000
1!
#9962283062
1"
#9962283187
1#
#9965284437
0"
#9965284500
0#
#9993700000
0!
#9997400000
1!
#9999432562
1"
#9999432687
1#
#10002433875
0"
#10002433937
0#
#10030800000
0!
#10034500000
1!
#10036505562
1"
#10036505687
1#
#10039507312
0"
#10039507375
0#
#10067800000
0!
#10071400000
1!
#10073478000
1"
#10073478125
1#
#10076479375
0"
#10076479437
0#
#10104500000
0!
#10108200000
1!
#10110103062
1"
#10110103187
1#
#10113104375
0"
#10113104437
0#
#10141200000
0!
#10144800000
1!
#10146799500
1"
#10146799625
1#
#10149800875
0"
#10149800937
0#
#10177700000
0!
#10181300000
1!
#10183249000
1"
#10183249125
1#
#10186250687
0"
#10186250750
0#
#10214000000
0!
#10217700000
1!
#10219497062
1"
#10219497187
1#
#10222498437
0"
#10222498500
0#
#10250300000
0!
#10253900000
1!
#10255793500
1"
#10255793625
1#
#10258794875
0"
#10258794937
0#
#10286400000
0!
#10290000000
1!
#10291843000
1"
#10291843125
1#
#10294844375
0"
#10294844437
0#
#10322400000
0!
#10326000000
1!
#10327816000
1"
#10327816125
1#
#10330817437
0"
#10330817500
0#
#10358300000
0!
#10361800000
1!
#10363689062
1"
#10363689187
1#
#10366690375
0"
#10366690437
0#
#10393900000
0!
#10397500000
1!
#10399214500
1"
#10399214625
1#
#10402215875
0"
#10402215937
0#
#10429500000
0!
#10433100000
1!
#10434811000
1"
#10434811125
1#
#10437812375
0"
#10437812437
0#
#10465000000
0!
#10468500000
1!
#10470284625
1"
#10470284750
1#
#10473286000
0"
#10473286062
0#
#10500300000
0!
#10503800000
1!
#10505533562
1"
#10505533687
1#
#10508534937
0"
#10508535000
0#
#10535500000
0!
#10539000000
1!
#10540707062
1"
#10540707187
1#
#10543708437
0"
#10543708500
0#
#10570600000
0!
#10574100000
1!
#10575780000
1"
#10575780125
1#
#10578781375
0"
#10578781437
0#
#10605600000
0!
#10609000000
1!
#10610753562
1"
#10610753687
1#
#10613754875
0"
#10613754937
0#
#10640300000
0!
#10643800000
1!
#10645379000
1"
#10645379125
1#
#10648381000
0"
#10648381062
0#
#10675000000
0!
#10678500000
1!
#10680075625
1"
#10680075750
1#
#10683077000
0"
#10683077062
0#
#10709600000
0!
#10713100000
1!
#10714648562
1"
#10714648687
1#
#10717649937
0"
#10717650000
0#
#10744100000
0!
#10747600000
1!
#10749123687
1"
#10749123812
1#
#10752124937
0"
#10752125000
0#
#10778500000
0!
#10781900000
1!
#10783496687
1"
#10783496812
1#
#10786497875
0"
#10786497937
0#
#10812700000
0!
#10816100000
1!
#10817647000
1"
#10817647125
1#
#10820648437
0"
#10820648500
0#
#10846800000
0!
#10850200000
1!
#10851720562
1"
#10851720687
1#
#10854721375
0"
#10854721437
0#
#10880800000
0!
#10884200000
1!
#10885693562
1"
#10885693687
1#
#10888694875
0"
#10888694937
0#
#10914700000
0!
#10918100000
1!
#10919566562
1"
#10919566687
1#
#10922567937
0"
#10922568000
0#
#10948500000
0!
#10951900000
1!
#10953340062
1"
#10953340187
1#
#10956341375
0"
#10956341437
0#
#10982200000
0!
#10985600000
1!
#10987014000
1"
#10987014125
1#
#10990015375
0"
#10990015437
0#
#11015800000
0!
#11019100000
1!
#11020588125
1"
#11020588250
1#
#11023589500
0"
#11023589562
0#
#11049200000
0!
#11052500000
1!
#11053938500
1"
#11053938625
1#
#11056939875
0"
#11056939937
0#
#11082500000
0!
#11085800000
1!
#11087212062
1"
#11087212187
1#
#11090213500
0"
#11090213562
0#
#11115700000
0!
#11119000000
1!
#11120385625
1"
#11120385750
1#
#11123386937
0"
#11123387000
0#
#11148800000
0!
#11152100000
1!
#11153459000
1"
#11153459125
1#
#11156460375
0"
#11156460437
0#
#11181800000
0!
#11185100000
1!
#11186432750
1"
#11186432875
1#
#11189433937
0"
#11189434000
0#
#11214700000
0!
#11218000000
1!
#11219306062
1"
#11219306187
1#
#11222307375
0"
#11222307437
0#
#11247500000
0!
#11250800000
1!
#11252080000
1"
#11252080125
1#
#11255081375
0"
#11255081437
0#
#11280300000
0!
#11283500000
1!
#11284877687
1"
#11284877812
1#
#11287879062
0"
#11287879125
0#
#11312900000
0!
#11316100000
1!
#11317428062
1"
#11317428187
1#
#11320429562
0"
#11320429625
0#
#11345400000
0!
#11348600000
1!
#11349902000
1"
#11349902125
1#
#11352903375
0"
#11352903437
0#
#11377800000
0!
#11381000000
1!
#11382275500
1"
#11382275625
1#
#11385276875
0"
#11385276937
0#
#11410100000
0!
#11413300000
1!
#11414549562
1"
#11414549687
1#
#11417550875
0"
#11417550937
0#
#11442300000
0!
#11445500000
1!
#11446723375
1"
#11446723500
1#
#11449724375
0"
#11449724437
0#
#11474400000
0!
#11477600000
1!
#11478796500
1"
#11478796625
1#
#11481797875
0"
#11481797937
0#
#11506400000
0!
#11509600000
1!
#11510770562
1"
#11510770687
1#
#11513771937
0"
#11513772000
0#
#11538400000
0!
#11541500000
1!
#11542768500
1"
#11542768625
1#
#11545769875
0"
#11545769937
0#
#11570200000
0!
#11573300000
1!
#11574519125
1"
#11574519250
1#
#11577520562
0"
#11577520625
0#
#11601900000
0!
#11605000000
1!
#11606193062
1"
#11606193187
1#
#11609194375
0"
#11609194437
0#
#11633500000
0!
#11636700000
1!
#11637767437
1"
#11637767562
1#
#11640768375
0"
#11640768437
0#
#11665100000
0!
#11668300000
1!
#11669364500
1"
#11669364625
1#
#11672365875
0"
#11672365937
0#
#11696600000
0!
#11699800000
1!
#11700838500
1"
#11700838625
1#
#11703839875
0"
#11703839937
0#
#11728100000
0!
#11731200000
1!
#11732336562
1"
#11732336687
1#
#11735337875
0"
#11735337937
0#
#11759400000
0!
#11762500000
1!
#11763587625
1"
#11763587750
1#
#11766588875
0"
#11766588937
0#
#11790600000
0!
#11793700000
1!
#11794761625
1"
#11794761750
1#
#11797762875
0"
#11797762937
0#
#11821700000
0!
#11824800000
1!
#11825835500
1"
#11825835625
1#
#11828837500
0"
#11828837562
0#
#11852700000
0!
#11855800000
1!
#11856809500
1"
#11856809625
1#
#11859811562
0"
#11859811625
0#
#11883700000
0!
#11886700000
1!
#11887807000
1"
#11887807125
1#
#11890808437
0"
#11890808500
0#
#11914500000
0!
#11917600000
1!
#11918558500
1"
#11918558625
1#
#11921559875
0"
#11921559937
0#
#11945300000
0!
#11948400000
1!
#11949355000
1"
#11949355125
1#
#11952356375
0"
#11952356437
0#
#11976000000
0!
#11979100000
1!
#11980029500
1"
#11980029625
1#
#11983030875
0"
#11983030937
0#
#12006700000
0!
#12009700000
1!
#12010727125
1"
#12010727250
1#
#12013732375
0"
#12013732437
0#
#12037200000
0!
#12040200000
1!
#12041179000
1"
#12041179125
1#
#12044180437
0"
#12044180500
0#
#12067600000
0!
#12070600000
1!
#12071552500
1"
#12071552625
1#
#12074553875
0"
#12074553937
0#
#12097900000
0!
#12101000000
1!
#12101827062
1"
#12101827187
1#
#12104828437
0"
#12104828500
0#
#12128300000
0!
#12131300000
1!
#12132248500
1"
#12132248625
1#
#12135249875
0"
#12135249937
0#
#12158500000
0!
#12161500000
1!
#12162400500
1"
#12162400625
1#
#12165401875
0"
#12165401937
0#
#12188600000
0!
#12191600000
1!
#12192474000
1"
#12192474125
1#
#12195475875
0"
#12195475937
0#
#12218700000
0!
#12221600000
1!
#12222572000
1"
#12222572125
1#
#12225573437
0"
#12225573500
0#
#12248600000
0!
#12251600000
1!
#12252423500
1"
#12252423625
1#
#12255424875
0"
#12255424937
0#
#12278500000
0!
#12281500000
1!
#12282320687
1"
#12282320812
1#
#12285321875
0"
#12285321937
0#
#12308300000
0!
#12311300000
1!
#12312095187
1"
#12312095312
1#
#12315096562
0"
#12315096625
0#
#12338100000
0!
#12341000000
1!
#12341892687
1"
#12341892812
1#
#12344894062
0"
#12344894125
0#
#12367700000
0!
#12370700000
1!
#12371444500
1"
#12371444625
1#
#12374445875
0"
#12374445937
0#
#12397300000
0!
#12400300000
1!
#12401042000
1"
#12401042125
1#
#12404043375
0"
#12404043437
0#
#12426900000
0!
#12429800000
1!
#12430640625
1"
#12430640750
1#
#12433642375
0"
#12433642437
0#
#12456300000
0!
#12459200000
1!
#12459991687
1"
#12459991812
1#
#12462992875
0"
#12462992937
0#
#12485600000
0!
#12488600000
1!
#12489266000
1"
#12489266125
1#
#12492267375
0"
#12492267437
0#
#12515000000
0!
#12517900000
1!
#12518686500
1"
#12518686625
1#
#12521687875
0"
#12521687937
0#
#12544200000
0!
#12547100000
1!
#12547838500
1"
#12547838625
1#
#12550839875
0"
#12550839937
0#
#12573400000
0!
#12576300000
1!
#12577036500
1"
#12577036625
1#
#12580038000
0"
#12580038062
0#
#12602500000
0!
#12605400000
1!
#12606111500
1"
#12606111625
1#
#12609112937
0"
#12609113000
0#
#12631500000
0!
#12634400000
1!
#12635086000
1"
#12635086125
1#
#12638087437
0"
#12638087500
0#
#12660500000
0!
#12663300000
1!
#12664084125
1"
#12664084250
1#
#12667085375
0"
#12667085437
0#
#12689300000
0!
#12692200000
1!
#12692836000
1"
#12692836125
1#
#12695837375
0"
#12695837437
0#
#12718100000
0!
#12721000000
1!
#12721633437
1"
#12721633562
1#
#12724634375
0"
#12724634437
0#
#12746900000
0!
#12749700000
1!
#12750431000
1"
#12750431125
1#
#12753432437
0"
#12753432500
0#
#12775500000
0!
#12778400000
1!
#12778983062
1"
#12778983187
1#
#12781984687
0"
#12781984750
0#
#12804200000
0!
#12807000000
1!
#12807703500
1"
#12807703625
1#
#12810704875
0"
#12810704937
0#
#12832700000
0!
#12835500000
1!
#12836155500
1"
#12836155625
1#
#12839156875
0"
#12839156937
0#
#12861100000
0!
#12864000000
1!
#12864530062
1"
#12864530187
1#
#12867531437
0"
#12867531500
0#
#12889600000
0!
#12892400000
1!
#12893051625
1"
#12893051750
1#
#12896052875
0"
#12896052937
0#
#12917900000
0!
#12920700000
1!
#12921303500
1"
#12921303625
1#
#12924304875
0"
#12924304937
0#
#12946200000
0!
#12949000000
1!
#12949602125
1"
#12949602250
1#
#12952603437
0"
#12952603500
0#
#12974400000
0!
#12977200000
1!
#12977776562
1"
#12977776687
1#
#12980778062
0"
#12980778125
0#
#13002500000
0!
#13005300000
1!
#13005851000
1"
#13005851125
1#
#13008852562
0"
#13008852625
0#
#13030600000
0!
#13033400000
1!
#13033949625
1"
#13033949750
1#
#13036951062
0"
#13036951125
0#
#13058600000
0!
#13061400000
1!
#13061923562
1"
#13061923687
1#
#13064925000
0"
#13064925062
0#
#13086600000
0!
#13089300000
1!
#13089922000
1"
#13089922125
1#
#13092923375
0"
#13092923437
0#
#13114400000
0!
#13117200000
1!
#13117674187
1"
#13117674312
1#
#13120676312
0"
#13120676375
0#
#13142300000
0!
#13145000000
1!
#13145595000
1"
#13145595125
1#
#13148596750
0"
#13148596812
0#
#13170000000
0!
#13172800000
1!
#13173246500
1"
#13173246625
1#
#13176248000
0"
#13176248062
0#
#13197700000
0!
#13200500000
1!
#13200945187
1"
#13200945312
1#
#13203946437
0"
#13203946500
0#
#13225400000
0!
#13228100000
1!
#13228643000
1"
#13228643125
1#
#13231645062
0"
#13231645125
0#
#13252900000
0!
#13255700000
1!
#13256095062
1"
#13256095187
1#
#13259096937
0"
#13259097000
0#
#13280500000
0!
#13283200000
1!
#13283717312
1"
#13283717437
1#
#13286718375
0"
#13286718437
0#
#13307900000
0!
#13310700000
1!
#13311069125
1"
#13311069250
1#
#13314070437
0"
#13314070500
0#
#13335400000
0!
#13338100000
1!
#13338590625
1"
#13338590750
1#
#13341592375
0"
#13341592437
0#
#13362700000
0!
#13365400000
1!
#13365843000
1"
#13365843125
1#
#13368844625
0"
#13368844687
0#
#13390000000
0!
#13392700000
1!
#13393141250
1"
#13393141375
1#
#13396142687
0"
#13396142750
0#
#13417200000
0!
#13419900000
1!
#13420316562
1"
#13420316687
1#
#13423317375
0"
#13423317437
0#
#13444400000
0!
#13447100000
1!
#13447514000
1"
#13447514125
1#
#13450515375
0"
#13450515437
0#
#13471500000
0!
#13474200000
1!
#13474589000
1"
#13474589125
1#
#13477591000
0"
#13477591062
0#
#13498600000
0!
#13501300000
1!
#13501687000
1"
#13501687125
1#
#13504688437
0"
#13504688500
0#
#13525600000
0!
#13528300000
1!
#13528662375
1"
#13528662500
1#
#13531663375
0"
#13531663437
0#
#13552600000
0!
#13555200000
1!
#13555660187
1"
#13555660312
1#
#13558661375
0"
#13558661437
0#
#13579400000
0!
#13582100000
1!
#13582412500
1"
#13582412625
1#
#13585413875
0"
#13585413937
0#
#13606300000
0!
#13608900000
1!
#13609333250
1"
#13609333375
1#
#13612334375
0"
#13612334437
0#
#13633000000
0!
#13635700000
1!
#13635985500
1"
#13635985625
1#
#13638986875
0"
#13638986937
0#
#13659800000
0!
#13662400000
1!
#13662807000
1"
#13662807125
1#
#13665809000
0"
#13665809062
0#
#13686400000
0!
#13689100000
1!
#13689360000
1"
#13689360125
1#
#13692361375
0"
#13692361437
0#
#13713100000
0!
#13715700000
1!
#13716081500
1"
#13716081625
1#
#13719082875
0"
#13719082937
0#
#13739600000
0!
#13742300000
1!
#13742534125
1"
#13742534250
1#
#13745535500
0"
#13745535562
0#
#13766200000
0!
#13768800000
1!
#13769155500
1"
#13769155625
1#
#13772156875
0"
#13772156937
0#
#13792600000
0!
#13795200000
1!
#13795508000
1"
#13795508125
1#
#13798509750
0"
#13798509812
0#
#13819000000
0!
#13821600000
1!
#13821905500
1"
#13821905625
1#
#13824906937
0"
#13824907000
0#
#13845300000
0!
#13847900000
1!
#13848180562
1"
#13848180687
1#
#13851181875
0"
#13851181937
0#
#13871600000
0!
#13874200000
1!
#13874478562
1"
#13874478687
1#
#13877480312
0"
#13877480375
0#
#13897800000
0!
#13900400000
1!
#13900653625
1"
#13900653750
1#
#13903654875
0"
#13903654937
0#
#13924000000
0!
#13926600000
1!
#13926852000
1"
#13926852125
1#
#13929853437
0"
#13929853500
0#
#13950100000
0!
#13952700000
1!
#13952927187
1"
#13952927312
1#
#13955928375
0"
#13955928437
0#
#13976200000
0!
#13978800000
1!
#13979025062
1"
#13979025187
1#
#13982026375
0"
#13982026437
0#
#14002200000
0!
#14004800000
1!
#14005001500
1"
#14005001625
1#
#14008002875
0"
#14008002937
0#
#14028200000
0!
#14030800000
1!
#14030999500
1"
#14030999625
1#
#14034000875
0"
#14034000937
0#
#14054100000
0!
#14056700000
1!
#14056874562
1"
#14056874687
1#
#14059875875
0"
#14059875937
0#
#14080000000
0!
#14082600000
1!
#14082773000
1"
#14082773125
1#
#14085774375
0"
#14085774437
0#
#14105900000
0!
#14108400000
1!
#14108672000
1"
#14108672125
1#
#14111673375
0"
#14111673437
0#
#14131600000
0!
#14134200000
1!
#14134325000
1"
#14134325125
1#
#14137326375
0"
#14137326437
0#
#14157400000
0!
#14159900000
1!
#14160146500
1"
#14160146625
1#
#14163148250
0"
#14163148312
0#
#14183000000
0!
#14185600000
1!
#14185699062
1"
#14185699187
1#
#14188700437
0"
#14188700500
0#
#14208700000
0!
#14211200000
1!
#14211419687
1"
#14211419812
1#
#14214420875
0"
#14214420937
0#
#14234200000
0!
#14236800000
1!
#14236872500
1"
#14236872625
1#
#14239874062
0"
#14239874125
0#
#14259800000
0!
#14262300000
1!
#14262494000
1"
#14262494125
1#
#14265495375
0"
#14265495437
0#
#14285200000
0!
#14287800000
1!
#14287846000
1"
#14287846125
1#
#14290847375
0"
#14290847437
0#
#14310700000
0!
#14313200000
1!
#14313367500
1"
#14313367625
1#
#14316369062
0"
#14316369125
0#
#14336100000
0!
#14338600000
1!
#14338743500
1"
#14338743625
1#
#14341744875
0"
#14341744937
0#
#14361400000
0!
#14363900000
1!
#14364019000
1"
#14364019125
1#
#14367020375
0"
#14367020437
0#
#14386700000
0!
#14389200000
1!
#14389317500
1"
#14389317625
1#
#14392319125
0"
#14392319187
0#
#14411900000
0!
#14414492500
1"
#14414492625
1#
