wokwi/wokwi-logic.vcd
$version Generated by Wokwi.com $end
$date Sun, 24 Aug 2025 07:06:50 GMT $end
$timescale 1ns $end
$scope module logic $end
$var wire 1 ! D2 $end
$var wire 1 " D3 $end
$upscope $end
$enddefinitions $end
#0
0!
#0
0"
#0
1!
#3321100000
0!
#3321600000
1!
#3358600000
0!
#3359100000
1!
#3396100000
0!
#3396600000
1!
#3433600000
0!
#3434100000
1!
#3471100000
0!
#3471600000
1!
#3508600000
0!
#3509100000
1!
#3546100000
0!
#3546600000
1!
#3583600000
0!
#3584100000
1!
#3621100000
0!
#3621600000
1!
#3658600000
0!
#3659100000
1!
#3696100000
0!
#3696600000
1!
#3733600000
0!
#3734100000
1!
#3739653750
1"
#3742654875
0"
#3771100000
0!
#3771600000
1!
#3776895500
1"
#3779896875
0"
#3808600000
0!
#3809100000
1!
#3814395000
1"
#3817396375
0"
#3846100000
0!
#3846600000
1!
#3851895000
1"
#3854896375
0"
#3883600000
0!
#3884100000
1!
#3889395000
1"
#3892398187
0"
#3921100000
0!
#3921600000
1!
#3926895000
1"
#3929896937
0"
#3958600000
0!
#3959100000
1!
#3964648312
1"
#3967653000
0"
#3996100000
0!
#3996600000
1!
#4002162687
1"
#4005163812
0"
#4033600000
0!
#4034099999
1!
#4039395062
1"
#4042396437
0"
#4071100000
0!
#4071600000
1!
#4076895562
1"
#4079896875
0"
#4108600000
0!
#4109099999
1!
#4114395062
1"
#4117396375
0"
#4146099999
0!
#4146600000
1!
#4151895374
1"
#4154896375
0"
#4183600000
0!
#4184100000
1!
#4189395687
1"
#4192397562
0"
#4221100000
0!
#4221599999
1!
#4227151562
1"
#4230155937
0"
#4258600000
0!
#4259100000
1!
#4264651687
1"
#4267653437
0"
#4296100000
0!
#4296600000
1!
#4301895000
1"
#4304896437
0"
#4333600000
0!
#4334100000
1!
#4339395000
1"
#4342396437
0"
#4371100000
0!
#4371600000
1!
#4376895062
1"
#4379896437
0"
#4408600000
0!
#4409100000
1!
#4414395000
1"
#4417396375
0"
#4446100000
0!
#4446600000
1!
#4451895062
1"
#4454896437
0"
#4483600000
0!
#4484100000
1!
#4489649375
1"
#4492650500
0"
#4521100000
0!
#4521600000
1!
#4527153875
1"
#4530155000
0"
#4558600000
0!
#4559100000
1!
#4564395062
1"
#4567396437
0"
#4596100000
0!
#4596600000
1!
#4601895000
1"
#4604896437
0"
#4633600000
0!
#4634100000
1!
#4639395062
1"
#4642396375
0"
#4671100000
0!
#4671600000
1!
#4676895000
1"
#4679896375
0"
#4708600000
0!
#4709100000
1!
#4714395000
1"
#4717396750
0"
#4746100000
0!
#4746600000
1!
#4752152000
1"
#4755153125
0"
#4783600000
0!
#4784100000
1!
#4789662500
1"
#4792663625
0"
#4821100000
0!
#4821600000
1!
#4826895812
1"
#4829896937
0"
#4858600000
0!
#4859100000
1!
#4864395062
1"
#4867396375
0"
#4896100000
0!
#4896600000
1!
#4901895187
1"
#4904896437
0"
#4933600000
0!
#4934100000
1!
#4939395125
1"
#4942396500
0"
#4971100000
0!
#4971600000
1!
#4976895187
1"
#4979896562
0"
#5008600000
0!
#5009100000
1!
#5014683437
1"
#5017684562
0"
#5046100000
0!
#5046600000
1!
#5052152687
1"
#5055154125
0"
#5083600000
0!
#5084100000
1!
#5089396000
1"
#5092397437
0"
#5121100000
0!
#5121600000
1!
#5126896000
1"
#5129897437
0"
#5158600000
0!
#5159100000
1!
#5164397000
1"
#5167398562
0"
#5188700000
0!
#5189200000
1!
#5192662500
1"
#5195664312
0"
#5218800000
0!
#5219300000
1!
#5222713500
1"
#5225714875
0"
#5248900000
0!
#5249400000
1!
#5252801625
1"
#5255802875
0"
#5279000000
0!
#5279500000
1!
#5282892500
1"
#5285893875
0"
#5309100000
0!
#5309600000
1!
#5312985562
1"
#5315986875
0"
#5339200000
0!
#5339700000
1!
#5343351625
1"
#5346352750
0"
#5369300000
0!
#5369800000
1!
#5373432687
1"
#5376437375
0"
#5399400000
0!
#5399900000
1!
#5403273500
1"
#5406274875
0"
#5429500000
0!
#5430000000
1!
#5433371500
1"
#5436372875
0"
#5459600000
0!
#5460100000
1!
#5463469500
1"
#5466471562
0"
#5489700000
0!
#5490200000
1!
#5493569187
1"
#5496569875
0"
#5519800000
0!
#5520300000
1!
#5523667562
1"
#5526668875
0"
#5549900000
0!
#5550400000
1!
#5553766500
1"
#5556767875
0"
#5580000000
0!
#5580500000
1!
#5583867062
1"
#5586868375
0"
#5610100000
0!
#5610600000
1!
#5613966500
1"
#5616967875
0"
#5640200000
0!
#5640700000
1!
#5644066562
1"
#5647067875
0"
#5666100000
0!
#5666600000
1!
#5669204500
1"
#5672205937
0"
#5691200000
0!
#5691700000
1!
#5693807687
1"
#5696808875
0"
#5716300000
0!
#5716800000
1!
#5718882625
1"
#5721883875
0"
#5741400000
0!
#5741900000
1!
#5743976500
1"
#5746977875
0"
#5766500000
0!
#5767000000
1!
#5769335437
1"
#5772336562
0"
#5791600000
0!
#5792100000
1!
#5794169187
1"
#5797170500
0"
#5816700000
0!
#5817200000
1!
#5819266625
1"
#5822268187
0"
#5841800000
0!
#5842300000
1!
#5844365562
1"
#5847366875
0"
#5866900000
0!
#5867400000
1!
#5869463000
1"
#5872464375
0"
#5888400000
0!
#5888900000
1!
#5890055500
1"
#5893056875
0"
#5909900000
0!
#5910400000
1!
#5911536000
1"
#5914537375
0"
#5931400000
0!
#5931900000
1!
#5933031625
1"
#5936032875
0"
#5952900000
0!
#5953400000
1!
#5954528500
1"
#5957529875
0"
#5974400000
0!
#5974900000
1!
#5976026000
1"
#5979027375
0"
#5995900000
0!
#5996400000
1!
#5997777750
1"
#6000791625
0"
#6017400000
0!
#6017900000
1!
#6019022500
1"
#6022024312
0"
#6038900000
0!
#6039400000
1!
#6040521500
1"
#6043522875
0"
#6060400000
0!
#6060900000
1!
#6062287000
1"
#6065282125
0"
#6081900000
0!
#6082400000
1!
#6083520562
1"
#6086521937
0"
#6103400000
0!
#6103900000
1!
#6105020000
1"
#6108021437
0"
#6124900000
0!
#6125400000
1!
#6126769125
1"
#6129786250
0"
#6146400000
0!
#6146900000
1!
#6148019562
1"
#6151020875
0"
#6165200000
0!
#6165700000
1!
#6166145187
1"
#6169146375
0"
#6184000000
0!
#6184500000
1!
#6184929062
1"
#6187930375
0"
#6202800000
0!
#6203300000
1!
#6203725437
1"
#6206726375
0"
#6221600000
0!
#6222100000
1!
#6222522000
1"
#6225523375
0"
#6240400000
0!
#6240900000
1!
#6241320000
1"
#6244321375
0"
#6259200000
0!
#6259700000
1!
#6260118375
1"
#6263119562
0"
#6278000000
0!
#6278500000
1!
#6278917000
1"
#6281918937
0"
#6294700000
0!
#6295093500
1"
#6295200000
1!
#6298094875
0"
#6311400000
0!
#6311778500
1"
#6311900000
1!
#6314779875
0"
#6328100000
0!
#6328475312
1"
#6328600000
1!
#6331476500
0"
#6344800000
0!
#6345173000
1"
#6345300000
1!
#6348174375
0"
#6361500000
0!
#6361870562
1"
#6362000000
1!
#6364871875
0"
#6378200000
0!
#6378569000
1"
#6378700000
1!
#6381570375
0"
#6394900000
0!
#6395268125
1"
#6395400000
1!
#6398269375
0"
#6411600000
0!
#6411968000
1"
#6412100000
1!
#6414969375
0"
#6428300000
0!
#6428667562
1"
#6428800000
1!
#6431669000
0"
#6445000000
0!
#6445366062
1"
#6445500000
1!
#6448367437
0"
#6461700000
0!
#6462065500
1"
#6462200000
1!
#6465066875
0"
#6478400000
0!
#6478766875
1"
#6478900000
1!
#6481767875
0"
#6495100000
0!
#6495465500
1"
#6495600000
1!
#6498466937
0"
#6511800000
0!
#6512165625
1"
#6512300000
1!
#6515166875
0"
#6528500000
0!
#6528865687
1"
#6529000000
1!
#6531866937
0"
#6545200000
0!
#6545565562
1"
#6545700000
1!
#6548567312
0"
#6561900000
0!
#6562265500
1"
#6562400000
1!
#6565266937
0"
#6578600000
0!
#6578965562
1"
#6579100000
1!
#6581966875
0"
#6595300000
0!
#6595665812
1"
#6595800000
1!
#6598666937
0"
#6612000000
0!
#6612365500
1"
#6612500000
1!
#6615367250
0"
#6628700000
0!
#6629066062
1"
#6629200000
1!
#6632067187
0"
#6645400000
0!
#6645765562
1"
#6645900000
1!
#6648766875
0"
#6662100000
0!
#6662466500
1"
#6662600000
1!
#6665467875
0"
#6678800000
0!
#6679165875
1"
#6679300000
1!
#6682167000
0"
#6695500000
0!
#6695865500
1"
#6696000000
1!
#6698866875
0"
#6712200000
0!
#6712566500
1"
#6712700000
1!
#6715567875
0"
#6728900000
0!
#6729265500
1"
#6729400000
1!
#6732266875
0"
#6745600000
0!
#6745965625
1"
#6746100000
1!
#6748967000
0"
#6762300000
0!
#6762668875
1"
#6762800000
1!
#6765666875
0"
#6779000000
0!
#6779365562
1"
#6779500000
1!
#6782366875
0"
#6795700000
0!
#6796065500
1"
#6796200000
1!
#6799066937
0"
#6812400000
0!
#6812765625
1"
#6812900000
1!
#6815766875
0"
#6829100000
0!
#6829465500
1"
#6829600000
1!
#6832466937
0"
#6845800000
0!
#6846300000
1!
#6846419062
1"
#6849423437
0"
#6862500000
0!
#6862865625
1"
#6863000000
1!
#6865867062
0"
#6879200000
0!
#6879700000
1!
#6879818875
1"
#6882823250
0"
#6895900000
0!
#6896265500
1"
#6896400000
1!
#6899266875
0"
#6912600000
0!
#6913100000
1!
#6913218687
1"
#6916217062
0"
#6929300000
0!
#6929665625
1"
#6929800000
1!
#6932666937
0"
#6946000000
0!
#6946500000
1!
#6946611812
1"
#6949616187
0"
#6962700000
0!
#6963065500
1"
#6963200000
1!
#6966066937
0"
#6979400000
0!
#6979900000
1!
#6980027812
1"
#6983028937
0"
#6996100000
0!
#6996466562
1"
#6996600000
1!
#6999467875
0"
#7012800000
0!
#7013165562
1"
#7013300000
1!
#7016166875
0"
#7029500000
0!
#7029865687
1"
#7030000000
1!
#7032866937
0"
#7046200000
0!
#7046565500
1"
#7046700000
1!
#7049566937
0"
#7062900000
0!
#7063265500
1"
#7063400000
1!
#7066266875
0"
#7078000000
0!
#7078278187
1"
#7078500000
1!
#7081260562
0"
#7093100000
0!
#7093370250
1"
#7093600000
1!
#7096072687
0"
#7108200000
0!
#7108461750
1"
#7108700000
1!
#7111428625
0"
#7123300000
0!
#7123572937
1"
#7123800000
1!
#7126261875
0"
#7138400000
0!
#7138667375
1"
#7138900000
1!
#7141358375
0"
#7153500000
0!
#7153772687
1"
#7154000000
1!
#7156455875
0"
#7168600000
0!
#7168866812
1"
#7169100000
1!
#7171553875
0"
#7183700000
0!
#7183964062
1"
#7184200000
1!
#7186652437
0"
#7198800000
0!
#7199074000
1"
#7199300000
1!
#7201751437
0"
#7213900000
0!
#7214166062
1"
#7214400000
1!
#7216850937
0"
#7229000000
0!
#7229260875
1"
#7229500000
1!
#7231950875
0"
#7244100000
0!
#7244374500
1"
#7244600000
1!
#7247049875
0"
#7259200000
0!
#7259470062
1"
#7259700000
1!
#7262149437
0"
#7274300000
0!
#7274570312
1"
#7274800000
1!
#7277518750
0"
#7289400000
0!
#7289663625
1"
#7289900000
1!
#7292349687
0"
#7304500000
0!
#7304773250
1"
#7305000000
1!
#7307449437
0"
#7319600000
0!
#7319871750
1"
#7320100000
1!
#7322549875
0"
#7334700000
0!
#7334961000
1"
#7335200000
1!
#7337649875
0"
#7349800000
0!
#7350075000
1"
#7350300000
1!
#7352749562
0"
#7364900000
0!
#7365170250
1"
#7365400000
1!
#7367854125
0"
#7380000000
0!
#7380268750
1"
#7380500000
1!
#7382949375
0"
#7395100000
0!
#7395372375
1"
#7395600000
1!
#7398049375
0"
#7410200000
0!
#7410470875
1"
#7410700000
1!
#7413149625
0"
#7425300000
0!
#7425566437
1"
#7425800000
1!
#7428249437
0"
#7440400000
0!
#7440679000
1"
#7440900000
1!
#7443349937
0"
#7455500000
0!
#7455769375
1"
#7456000000
1!
#7458449375
0"
#7470600000
0!
#7470861875
1"
#7471100000
1!
#7473810312
0"
#7485700000
0!
#7485968125
1"
#7486200000
1!
#7488649375
0"
#7500800000
0!
#7501077437
1"
#7501300000
1!
#7503749375
0"
#7515900000
0!
#7516170250
1"
#7516400000
1!
#7518849375
0"
#7531000000
0!
#7531265500
1"
#7531500000
1!
#7533949875
0"
#7546100000
0!
#7546365125
1"
#7546600000
1!
#7549049375
0"
#7561200000
0!
#7561474750
1"
#7561700000
1!
#7564149812
0"
#7576300000
0!
#7576567250
1"
#7576800000
1!
#7579249375
0"
#7591400000
0!
#7591662500
1"
#7591900000
1!
#7594349375
0"
#7606500000
0!
#7606761312
1"
#7607000000
1!
#7609450437
0"
#7621600000
0!
#7621871750
1"
#7622100000
1!
#7624549562
0"
#7636700000
0!
#7636964250
1"
#7637200000
1!
#7639649437
0"
#7650500000
0!
#7650777562
1"
#7651000000
1!
#7653169875
0"
#7664200000
0!
#7664469312
1"
#7664700000
1!
#7666838375
0"
#7677900000
0!
#7678170312
1"
#7678400000
1!
#7680531875
0"
#7691600000
0!
#7691860625
1"
#7692100000
1!
#7694230375
0"
#7705300000
0!
#7705567875
1"
#7705800000
1!
#7707928875
0"
#7719000000
0!
#7719280187
1"
#7719500000
1!
#7721629500
0"
#7732700000
0!
#7732967562
1"
#7733200000
1!
#7735596937
0"
#7746400000
0!
#7746673187
1"
#7746900000
1!
#7749026875
0"
#7760100000
0!
#7760370875
1"
#7760600000
1!
#7762726875
0"
#7773800000
0!
#7774066125
1"
#7774300000
1!
#7776430125
0"
#7787500000
0!
#7787777812
1"
#7788000000
1!
#7790126375
0"
#7801200000
0!
#7801473062
1"
#7801700000
1!
#7803825875
0"
#7814900000
0!
#7815165375
1"
#7815400000
1!
#7817525937
0"
#7828600000
0!
#7828877437
1"
#7829100000
1!
#7831225937
0"
#7842300000
0!
#7842572687
1"
#7842800000
1!
#7844925875
0"
#7856000000
0!
#7856265000
1"
#7856500000
1!
#7858625875
0"
#7869700000
0!
#7869966250
1"
#7870200000
1!
#7872325937
0"
#7883400000
0!
#7883672312
1"
#7883900000
1!
#7886025875
0"
#7897100000
0!
#7897370812
1"
#7897600000
1!
#7899990937
0"
#7910800000
0!
#7911074937
1"
#7911300000
1!
#7913425875
0"
#7924500000
0!
#7924766937
1"
#7925000000
1!
#7927125875
0"
#7938200000
0!
#7938468500
1"
#7938700000
1!
#7940825875
0"
#7951900000
0!
#7952174562
1"
#7952400000
1!
#7954526187
0"
#7965600000
0!
#7965875812
1"
#7966100000
1!
#7968227437
0"
#7979300000
0!
#7979568875
1"
#7979800000
1!
#7981925875
0"
#7993000000
0!
#7993271875
1"
#7993500000
1!
#7995901250
0"
#8006700000
0!
#8006971187
1"
#8007199999
1!
#8009325875
0"
#8020400000
0!
#8020663187
1"
#8020899999
1!
#8023025875
0"
#8034100000
0!
#8034372812
1"
#8034599999
1!
#8036725937
0"
#8047800000
0!
#8048070812
1"
#8048299999
1!
#8050425875
0"
#8061500000
0!
#8061766062
1"
#8061999999
1!
#8064126874
0"
#8075200000
0!
#8075479187
1"
#8075699999
1!
#8077825937
0"
#8088900000
0!
#8089171187
1"
#8089399999
1!
#8091525875
0"
#8102600000
0!
#8102866437
1"
#8103100000
1!
#8105226875
0"
#8116300000
0!
#8116579562
1"
#8116800000
1!
#8118925875
0"
#8130000000
0!
#8130274812
1"
#8130500000
1!
#8132626437
0"
#8143700000
0!
#8143966812
1"
#8144200000
1!
#8146325875
0"
#8157400000
0!
#8157662062
1"
#8157900000
1!
#8160285437
0"
#8171099999
0!
#8171369437
1"
#8171600000
1!
#8173726062
0"
#8184799999
0!
#8185067437
1"
#8185300000
1!
#8187426374
0"
#8198499999
0!
#8198763000
1"
#8199000000
1!
#8201126374
0"
#8211100000
0!
#8211365125
1"
#8211600000
1!
#8213495562
0"
#8223699999
0!
#8223972500
1"
#8224200000
1!
#8226352125
0"
#8236300000
0!
#8236573687
1"
#8236800000
1!
#8238682437
0"
#8248900000
0!
#8249161750
1"
#8249400000
1!
#8251280937
0"
#8261500000
0!
#8261769749
1"
#8262000000
1!
#8263879500
0"
#8274100000
0!
#8274365687
1"
#8274599999
1!
#8276478937
0"
#8286700000
0!
#8286971125
1"
#8287200000
1!
#8289077437
0"
#8299300000
0!
#8299564562
1"
#8299799999
1!
#8301677124
0"
#8311900000
0!
#8312175187
1"
#8312400000
1!
#8314276437
0"
#8324500000
0!
#8324769187
1"
#8324999999
1!
#8326875875
0"
#8337099999
0!
#8337370000
1"
#8337600000
1!
#8339476062
0"
#8349700000
0!
#8349979562
1"
#8350199999
1!
#8352076000
0"
#8362299999
0!
#8362571500
1"
#8362800000
1!
#8364675562
0"
#8374900000
0!
#8375174562
1"
#8375400000
1!
#8377275437
0"
#8387499999
0!
#8387766187
1"
#8388000000
1!
#8390127062
0"
#8400100000
0!
#8400374937
1"
#8400600000
1!
#8402475437
0"
#8412699999
0!
#8412963937
1"
#8413200000
1!
#8415075375
0"
#8425300000
0!
#8425569937
1"
#8425800000
1!
#8427675750
0"
#8437900000
0!
#8438178687
1"
#8438400000
1!
#8440275375
0"
#8450500000
0!
#8450767687
1"
#8451000000
1!
#8452875375
0"
#8463100000
0!
#8463373687
1"
#8463600000
1!
#8465475375
0"
#8475700000
0!
#8475968375
1"
#8476200000
1!
#8478075375
0"
#8488300000
0!
#8488574375
1"
#8488799999
1!
#8490675375
0"
#8500900000
0!
#8501163375
1"
#8501400000
1!
#8503275937
0"
#8513500000
0!
#8513772500
1"
#8513999999
1!
#8515876000
0"
#8526100000
0!
#8526364437
1"
#8526600000
1!
#8528475875
0"
#8538700000
0!
#8538968187
1"
#8539199999
1!
#8541075437
0"
#8551299999
0!
#8551567812
1"
#8551800000
1!
#8553934687
0"
#8563900000
0!
#8564168437
1"
#8564399999
1!
#8566275875
0"
#8576499999
0!
#8576772187
1"
#8577000000
1!
#8578875687
0"
#8589100000
0!
#8589364062
1"
#8589600000
1!
#8591475375
0"
#8601700000
0!
#8601972750
1"
#8602200000
1!
#8604075562
0"
#8614300000
0!
#8614561375
1"
#8614800000
1!
#8616675937
0"
#8626900000
0!
#8627168375
1"
#8627400000
1!
#8629275375
0"
#8639500000
0!
#8639777062
1"
#8640000000
1!
#8641875562
0"
#8652100000
0!
#8652368937
1"
#8652600000
1!
#8654475375
0"
#8664700000
0!
#8664971937
1"
#8665200000
1!
#8667075437
0"
#8677300000
0!
#8677580625
1"
#8677800000
1!
#8679675375
0"
#8689900000
0!
#8690172500
1"
#8690400000
1!
#8692275375
0"
#8702500000
0!
#8702761125
1"
#8703000000
1!
#8704875875
0"
#8715100000
0!
#8715361812
1"
#8715600000
1!
#8717728687
0"
#8727700000
0!
#8727976500
1"
#8728200000
1!
#8730075375
0"
#8739300000
0!
#8739576500
1"
#8739800000
1!
#8741457312
0"
#8750900000
0!
#8751164937
1"
#8751400000
1!
#8753051875
0"
#8762500000
0!
#8762769437
1"
#8763000000
1!
#8764650875
0"
#8774100000
0!
#8774368437
1"
#8774600000
1!
#8776249875
0"
#8785700000
0!
#8785970875
1"
#8786200000
1!
#8787849375
0"
#8797300000
0!
#8797577312
1"
#8797800000
1!
#8799448875
0"
#8808900000
0!
#8809161750
1"
#8809400000
1!
#8811049312
0"
#8820500000
0!
#8820766187
1"
#8821000000
1!
#8822647875
0"
#8832100000
0!
#8832370562
1"
#8832600000
1!
#8834247875
0"
#8843700000
0!
#8843970937
1"
#8844200000
1!
#8845848375
0"
#8855300000
0!
#8855575375
1"
#8855800000
1!
#8857447375
0"
#8866900000
0!
#8867181812
1"
#8867400000
1!
#8869047375
0"
#8878500000
0!
#8878765437
1"
#8879000000
1!
#8880901437
0"
#8890100000
0!
#8890372000
1"
#8890600000
1!
#8892247375
0"
#8901700000
0!
#8901978437
1"
#8902200000
1!
#8903847375
0"
#8913300000
0!
#8913568062
1"
#8913800000
1!
#8915447937
0"
#8924900000
0!
#8925169562
1"
#8925400000
1!
#8927047375
0"
#8936500000
0!
#8936776000
1"
#8937000000
1!
#8938647375
0"
#8948100000
0!
#8948365625
1"
#8948600000
1!
#8950247375
0"
#8959700000
0!
#8959966062
1"
#8960200000
1!
#8961847437
0"
#8971300000
0!
#8971572812
1"
#8971800000
1!
#8973447625
0"
#8982900000
0!
#8983176500
1"
#8983400000
1!
#8985047687
0"
#8994500000
0!
#8994776937
1"
#8995000000
1!
#8996647375
0"
#9006100000
0!
#9006369625
1"
#9006600000
1!
#9008247875
0"
#9017700000
0!
#9017974062
1"
#9018200000
1!
#9019847562
0"
#9029300000
0!
#9029574500
1"
#9029800000
1!
#9031447375
0"
#9040900000
0!
#9041180937
1"
#9041400000
1!
#9043047375
0"
#9052500000
0!
#9052770875
1"
#9053000000
1!
#9054647437
0"
#9064100000
0!
#9064371312
1"
#9064600000
1!
#9066247562
0"
#9075700000
0!
#9075974687
1"
#9076200000
1!
#9078110562
0"
#9087300000
0!
#9087567062
1"
#9087800000
1!
#9089447500
0"
#9098900000
0!
#9099167812
1"
#9099400000
1!
#9101047375
0"
#9109700000
0!
#9109965187
1"
#9110200000
1!
#9111947812
0"
#9120500000
0!
#9120765187
1"
#9121000000
1!
#9122473375
0"
#9131300000
0!
#9131564312
1"
#9131800000
1!
#9133271437
0"
#9142100000
0!
#9142368187
1"
#9142600000
1!
#9144335312
0"
#9152900000
0!
#9153172500
1"
#9153400000
1!
#9154868437
0"
#9163700000
0!
#9163970375
1"
#9164200000
1!
#9165667875
0"
#9174500000
0!
#9174759250
1"
#9175000000
1!
#9176726375
0"
#9185300000
0!
#9185576875
1"
#9185800000
1!
#9187266562
0"
#9196100000
0!
#9196368875
1"
#9196600000
1!
#9198065937
0"
#9206900000
0!
#9207178062
1"
#9207400000
1!
#9209145187
0"
#9217700000
0!
#9217962625
1"
#9218200000
1!
#9219665875
0"
#9228500000
0!
#9228775875
1"
#9229000000
1!
#9230465937
0"
#9239300000
0!
#9239567250
1"
#9239800000
1!
#9241534375
0"
#9250100000
0!
#9250372187
1"
#9250600000
1!
#9252065375
0"
#9260900000
0!
#9261165437
1"
#9261400000
1!
#9262865375
0"
#9271700000
0!
#9271961312
1"
#9272200000
1!
#9273909687
0"
#9282500000
0!
#9282775625
1"
#9283000000
1!
#9284465562
0"
#9293300000
0!
#9293568562
1"
#9293800000
1!
#9295265375
0"
#9304100000
0!
#9304381875
1"
#9304600000
1!
#9306065437
0"
#9314900000
0!
#9315164375
1"
#9315400000
1!
#9316866000
0"
#9325700000
0!
#9325977687
1"
#9326200000
1!
#9327664875
0"
#9336500000
0!
#9336769812
1"
#9337000000
1!
#9338465875
0"
#9347300000
0!
#9347572625
1"
#9347800000
1!
#9349264875
0"
#9358100000
0!
#9358364375
1"
#9358600000
1!
#9360065375
0"
#9368200000
0!
#9368468375
1"
#9368700000
1!
#9370022375
0"
#9378300000
0!
#9378575312
1"
#9378800000
1!
#9380114062
0"
#9388400000
0!
#9388665875
1"
#9388900000
1!
#9390211375
0"
#9398500000
0!
#9398769625
1"
#9399000000
1!
#9400309875
0"
#9408600000
0!
#9408877250
1"
#9409100000
1!
#9410409375
0"
#9418700000
0!
#9418980687
1"
#9419200000
1!
#9420508375
0"
#9428800000
0!
#9429066500
1"
#9429300000
1!
#9430607812
0"
#9438900000
0!
#9439174187
1"
#9439400000
1!
#9440706875
0"
#9449000000
0!
#9449263500
1"
#9449500000
1!
#9450807062
0"
#9459100000
0!
#9459368062
1"
#9459600000
1!
#9460910125
0"
#9469200000
0!
#9469469000
1"
#9469700000
1!
#9471267375
0"
#9479300000
0!
#9479580750
1"
#9479800000
1!
#9481105875
0"
#9489400000
0!
#9489671000
1"
#9489900000
1!
#9491206000
0"
#9499500000
0!
#9499769312
1"
#9500000000
1!
#9501305875
0"
#9509600000
0!
#9509876875
1"
#9510100000
1!
#9511406125
0"
#9519700000
0!
#9519967437
1"
#9520200000
1!
#9521505875
0"
#9529800000
0!
#9530071750
1"
#9530300000
1!
#9531605875
0"
#9539900000
0!
#9540165250
1"
#9540400000
1!
#9541706000
0"
#9550000000
0!
#9550269562
1"
#9550500000
1!
#9551805937
0"
#9560100000
0!
#9560374187
1"
#9560600000
1!
#9561905875
0"
#9570200000
0!
#9570481750
1"
#9570700000
1!
#9572005875
0"
#9580300000
0!
#9580566000
1"
#9580800000
1!
#9582105875
0"
#9590400000
0!
#9590670312
1"
#9590900000
1!
#9592206312
0"
#9600500000
0!
#9600771875
1"
#9601000000
1!
#9602570250
0"
#9609900000
0!
#9610164000
1"
#9610400000
1!
#9611576375
0"
#9619300000
0!
#9619564812
1"
#9619800000
1!
#9620975937
0"
#9628700000
0!
#9628971187
1"
#9629200000
1!
#9630375875
0"
#9638100000
0!
#9638360562
1"
#9638600000
1!
#9639776000
0"
#9647500000
0!
#9647761625
1"
#9648000000
1!
#9649176000
0"
#9656900000
0!
#9657162000
1"
#9657400000
1!
#9658576437
0"
#9666300000
0!
#9666560437
1"
#9666800000
1!
#9668227562
0"
#9675700000
0!
#9675968312
1"
#9676200000
1!
#9677376750
0"
#9685100000
0!
#9685369625
1"
#9685600000
1!
#9686775875
0"
#9694500000
0!
#9694757375
1"
#9695000000
1!
#9696175937
0"
#9703900000
0!
#9704159687
1"
#9704400000
1!
#9705575875
0"
#9713300000
0!
#9713558750
1"
#9713800000
1!
#9714975875
0"
#9722700000
0!
#9722957812
1"
#9723200000
1!
#9724376000
0"
#9732100000
0!
#9732363375
1"
#9732600000
1!
#9734040000
0"
#9741500000
0!
#9741765187
1"
#9742000000
1!
#9743175937
0"
#9750700000
0!
#9750967062
1"
#9751200000
1!
#9752340437
0"
#9759600000
0!
#9759855812
1"
#9760100000
1!
#9761187500
0"
#9768500000
0!
#9768769937
1"
#9769000000
1!
#9770087375
0"
#9777400000
0!
#9777668125
1"
#9777900000
1!
#9778987187
0"
#9786300000
0!
#9786563750
1"
#9786800000
1!
#9787886875
0"
#9795200000
0!
#9795468937
1"
#9795700000
1!
#9796787250
0"
#9804100000
0!
#9804368937
1"
#9804600000
1!
#9805686875
0"
#9813000000
0!
#9813265875
1"
#9813500000
1!
#9814586937
0"
#9821900000
0!
#9822170812
1"
#9822400000
1!
#9823487062
0"
#9830800000
0!
#9831070437
1"
#9831300000
1!
#9832387187
0"
#9839700000
0!
#9839967000
1"
#9840200000
1!
#9841286875
0"
#9848600000
0!
#9848857187
1"
#9849100000
1!
#9850187250
0"
#9857500000
0!
#9857768687
1"
#9858000000
1!
#9859087062
0"
#9866400000
0!
#9866669062
1"
#9866900000
1!
#9867986875
0"
#9875300000
0!
#9875560187
1"
#9875800000
1!
#9876886937
0"
#9884200000
0!
#9884471375
1"
#9884700000
1!
#9885786875
0"
#9893100000
0!
#9893368500
1"
#9893600000
1!
#9894686875
0"
#9902000000
0!
#9902269187
1"
#9902500000
1!
#9903586937
0"
#9910900000
0!
#9911160312
1"
#9911400000
1!
#9912486937
0"
#9919800000
0!
#9920071500
1"
#9920300000
1!
#9921386875
0"
#9928700000
0!
#9928968812
1"
#9929200000
1!
#9930551687
0"
#9937600000
0!
#9937868125
1"
#9938100000
1!
#9939186937
0"
#9946500000
0!
#9946765375
1"
#9947000000
1!
#9948086875
0"
#9954900000
0!
#9955162625
1"
#9955400000
1!
#9956397875
0"
#9963300000
0!
#9963563187
1"
#9963800000
1!
#9964797875
0"
#9971700000
0!
#9971966437
1"
#9972200000
1!
#9973198000
0"
#9980100000
0!
#9980363312
1"
#9980600000
1!
#9981598000
0"
#9988500000
0!
#9988761812
1"
#9989000000
1!
#9989997875
0"
#9996900000
0!
#9997163437
1"
#9997400000
1!
#9998398125
0"
#10005300000
0!
#10005560312
1"
#10005800000
1!
#10006798687
0"
#10013700000
0!
#10014200000
1!
#10022100000
0!
#10022362125
1"
#10022600000
1!
#10023597875
0"
#10030500000
0!
#10030762937
1"
#10031000000
1!
#10031997875
0"
#10038900000
0!
#10039160375
1"
#10039400000
1!
#10040397875
0"
#10047300000
0!
#10047557812
1"
#10047800000
1!
#10048797875
0"
#10055700000
0!
#10055975312
1"
#10056200000
1!
#10057197937
0"
#10064100000
0!
#10064361937
1"
#10064600000
1!
#10065597875
0"
#10072500000
0!
#10072759312
1"
#10073000000
1!
#10073998375
0"
#10080900000
0!
#10081156750
1"
#10081400000
1!
#10082398750
0"
#10089300000
0!
#10089569375
1"
#10089800000
1!
#10090797875
0"
#10097700000
0!
#10097976062
1"
#10098200000
1!
#10099197875
0"
#10106100000
0!
#10106359437
1"
#10106600000
1!
#10107597937
0"
#10114500000
0!
#10114757000
1"
#10115000000
1!
#10115999375
0"
#10122900000
0!
#10123169625
1"
#10123400000
1!
#10124398437
0"
#10131300000
0!
#10131557375
1"
#10131800000
1!
#10132798062
0"
#10139700000
0!
#10139974875
1"
#10140200000
1!
#10141197875
0"
#10148100000
0!
#10148358250
1"
#10148600000
1!
#10149597937
0"
#10156500000
0!
#10156770062
1"
#10157000000
1!
#10157998000
0"
#10164900000
0!
#10165156312
1"
#10165400000
1!
#10166398562
0"
#10173300000
0!
#10173568937
1"
#10173800000
1!
#10174797937
0"
#10181700000
0!
#10181972375
1"
#10182200000
1!
#10183198000
0"
#10190100000
0!
#10190366750
1"
#10190600000
1!
#10191859125
0"
#10198500000
0!
#10198765812
1"
#10199000000
1!
#10199998187
0"
#10206400000
0!
#10206657000
1"
#10206900000
1!
#10207810062
0"
#10214300000
0!
#10214556687
1"
#10214800000
1!
#10215708875
0"
#10222200000
0!
#10222461187
1"
#10222700000
1!
#10223609187
0"
#10230100000
0!
#10230368937
1"
#10230600000
1!
#10231509000
0"
#10238000000
0!
#10238273250
1"
#10238500000
1!
#10239409875
0"
#10245900000
0!
#10246159500
1"
#10246400000
1!
#10247308875
0"
#10253800000
0!
#10254064937
1"
#10254300000
1!
#10255208875
0"
#10261700000
0!
#10261959750
1"
