analysis/wokwi-logic.vcd
$version Generated by Wokwi.com $end
$date Tue, 16 Sep 2025 14:02:32 GMT $end
$timescale 1ns $end
$scope module logic $end
$var wire 1 ! D2 $end
$var wire 1 " D3 $end
$var wire 1 # D4 $end
$upscope $end
$enddefinitions $end
#0
0!
#0
0"
#0
0#
#0
1!
#13119250
1"
#13119250
0!
#14119250
1!
#1015238000
1#
#1035238000
0!
#1035903999
1!
#1055904000
0!
#1056570000
1!
#1076570000
0!
#1077236000
1!
#1097236000
0!
#1097902000
1!
#1098606062
0"
#1101607875
1"
#1117902000
0!
#1118568000
1!
#1119272625
0"
#1122274375
1"
#1138568000
0!
#1139234000
1!
#1139939062
0"
#1142940875
1"
#1159234000
0!
#1159900000
1!
#1160604062
0"
#1163605812
1"
#1179900000
0!
#1180566000
1!
#1181271062
0"
#1184272812
1"
#1184272812
0!
#1185272812
1!
#1200566000
0!
#1201232000
1!
#1201937187
0"
#1204938812
1"
#1221232000
0!
#1221898000
1!
#1222602125
0"
#1225603875
1"
#1225603875
0!
#1226603875
1!
#1241898000
0!
#1242564000
1!
#1243269062
0"
#1246270812
1"
#1262564000
0!
#1263230000
1!
#1263935625
0"
#1266937312
1"
#1283230000
0!
#1283896000
1!
#1284601062
0"
#1287602812
1"
#1303896000
0!
#1304562000
1!
#1305267250
0"
#1308268812
1"
#1324562000
0!
#1325228000
1!
#1325932125
0"
#1328933812
1"
#1345228000
0!
#1345894000
1!
#1346599250
0"
#1349600812
1"
#1365894000
0!
#1366560000
1!
#1367264125
0"
#1370265812
1"
#1386560000
0!
#1387226000
1!
#1387931250
0"
#1390932812
1"
#1407226000
0!
#1407892000
1!
#1408596062
0"
#1411597812
1"
#1411597812
0!
#1412597812
1!
#1427892000
0!
#1428558000
1!
#1429262562
0"
#1432264312
1"
#1448558000
0!
#1449224000
1!
#1449928812
0"
#1452930375
1"
#1469224000
0!
#1469890000
1!
#1470594562
0"
#1473596312
1"
#1489890000
0!
#1490556000
1!
#1491260812
0"
#1494262312
1"
#1510556000
0!
#1511222000
1!
#1511926562
0"
#1514928312
1"
#1531222000
0!
#1531888000
1!
#1532592562
0"
#1535594312
1"
#1551888000
0!
#1552554000
1!
#1553258562
0"
#1556260750
1"
#1572554000
0!
#1573220000
1!
#1573924562
0"
#1576926312
1"
#1593220000
0!
#1593886000
1!
#1594590562
0"
#1597592750
1"
#1613886000
0!
#1614552000
1!
#1615256562
0"
#1618258312
1"
#1634552000
0!
#1635218000
1!
#1635922687
0"
#1638924375
1"
#1655218000
0!
#1655884000
1!
#1656588625
0"
#1659590375
1"
#1675884000
0!
#1676550000
1!
#1677255625
0"
#1680257312
1"
#1696550000
0!
#1697216000
1!
#1697920062
0"
#1700921812
1"
#1717216000
0!
#1717882000
1!
#1718587562
0"
#1721589312
1"
#1737882000
0!
#1738548000
1!
#1739252062
0"
#1742253875
1"
#1758548000
0!
#1759214000
1!
#1759919125
0"
#1762920875
1"
#1779214000
0!
#1779880000
1!
#1780584062
0"
#1783585937
1"
#1799880000
0!
#1800546000
1!
#1801251125
0"
#1804252875
1"
#1820546000
0!
#1821212000
1!
#1821916062
0"
#1824917937
1"
#1824917937
0!
#1825917937
1!
#1841212000
0!
#1841878000
1!
#1842582562
0"
#1845584312
1"
#1861878000
0!
#1862544000
1!
#1863248562
0"
#1866250312
1"
#1882544000
0!
#1883210000
1!
#1883914562
0"
#1886916750
1"
#1903210000
0!
#1903876000
1!
#1904580562
0"
#1907582312
1"
#1923876000
0!
#1924542000
1!
#1925246562
0"
#1928248750
1"
#1944542000
0!
#1945208000
1!
#1945912562
0"
#1948914312
1"
#1948914312
0!
#1949914312
1!
#1965208000
0!
#1965874000
1!
#1966579062
0"
#1969580812
1"
#1985874000
0!
#1986540000
1!
#1987245125
0"
#1990246812
1"
#2006540000
0!
#2007206000
1!
#2007910312
0"
#2010911812
1"
#2027206000
0!
#2027872000
1!
#2028577125
0"
#2031578812
1"
#2047872000
0!
#2048538000
1!
#2049243062
0"
#2052244812
1"
#2068538000
0!
#2069204000
1!
#2069909125
0"
#2072910812
1"
#2089204000
0!
#2089870000
1!
#2090575125
0"
#2093576812
1"
#2109870000
0!
#2110536000
1!
#2111241187
0"
#2114242812
1"
#2130536000
0!
#2131202000
1!
#2131906125
0"
#2134907812
1"
#2151202000
0!
#2151868000
1!
#2152573187
0"
#2155574812
1"
#2171868000
0!
#2172534000
1!
#2173238125
0"
#2176239875
1"
#2192534000
0!
#2193200000
1!
#2193905062
0"
#2196906812
1"
#2213200000
0!
#2213866000
1!
#2214570062
0"
#2217571875
1"
#2233866000
0!
#2234532000
1!
#2235236562
0"
#2238238375
1"
#2254532000
0!
#2255198000
1!
#2255902625
0"
#2258904812
1"
#2275198000
0!
#2275864000
1!
#2276568562
0"
#2279570375
1"
#2295864000
0!
#2296530000
1!
#2297234625
0"
#2300236812
1"
#2316530000
0!
#2317196000
1!
#2317900562
0"
#2320902312
1"
#2337196000
0!
#2337862000
1!
#2338566750
0"
#2341568437
1"
#2357862000
0!
#2358528000
1!
#2359232562
0"
#2362234312
1"
#2378528000
0!
#2379194000
1!
#2379898750
0"
#2382900437
1"
#2399194000
0!
#2399860000
1!
#2400564562
0"
#2403566312
1"
#2419860000
0!
#2420526000
1!
#2421230812
0"
#2424232437
1"
#2440526000
0!
#2441192000
1!
#2441896562
0"
#2444898312
1"
#2461192000
0!
#2461858000
1!
#2462562812
0"
#2465564312
1"
#2481858000
0!
#2482524000
1!
#2483228562
0"
#2486230312
1"
#2486230312
0!
#2487230312
1!
#2502524000
0!
#2503190000
1!
#2503894625
0"
#2506896375
1"
#2523190000
0!
#2523856000
1!
#2524561562
0"
#2527563375
1"
#2543856000
0!
#2544522000
1!
#2545226062
0"
#2548227812
1"
#2564522000
0!
#2565188000
1!
#2565893187
0"
#2568894812
1"
#2585188000
0!
#2585854000
1!
#2586559062
0"
#2589561187
1"
#2605854000
0!
#2606520000
1!
#2607225187
0"
#2610226812
1"
#2626520000
0!
#2627186000
1!
#2627891062
0"
#2630893187
1"
#2647186000
0!
#2647852000
1!
#2648557062
0"
#2651558812
1"
#2667852000
0!
#2668518000
1!
#2669223125
0"
#2672224812
1"
#2688518000
0!
#2689184000
1!
#2689888312
0"
#2692889812
1"
#2709184000
0!
#2709850000
1!
#2710555125
0"
#2713556812
1"
#2729850000
0!
#2730516000
1!
#2731221062
0"
#2734222812
1"
#2750516000
0!
#2751182000
1!
#2751887125
0"
#2754888812
1"
#2771182000
0!
#2771848000
1!
#2772553125
0"
#2775554812
1"
#2791848000
0!
#2792514000
1!
#2793219187
0"
#2796220812
1"
#2796220812
0!
#2797220812
1!
#2812514000
0!
#2813180000
1!
#2813885625
0"
#2816887312
1"
#2833180000
0!
#2833846000
1!
#2834551062
0"
#2837552812
1"
#2853846000
0!
#2854512000
1!
#2855217625
0"
#2858219312
1"
#2874512000
0!
#2875178000
1!
#2875883062
0"
#2878884812
1"
#2895178000
0!
#2895844000
1!
#2896549250
0"
#2899550812
1"
#2915844000
0!
#2916510000
1!
#2917214125
0"
#2920215812
1"
#2936510000
0!
#2937176000
1!
#2937881250
0"
#2940882812
1"
#2957176000
0!
#2957842000
1!
#2958546125
0"
#2961547812
1"
#2977842000
0!
#2978508000
1!
#2979213250
0"
#2982214812
1"
#2998508000
0!
#2999174000
1!
#2999878062
0"
#3002879812
1"
#3002879812
0!
#3003879812
1!
#3019174000
0!
#3019840000
1!
#3020544562
0"
#3023546312
1"
#3039840000
0!
#3040506000
1!
#3041211125
0"
#3044212812
1"
#3060506000
0!
#3061172000
1!
#3061876062
0"
#3064877812
1"
#3081172000
0!
#3081838000
1!
#3082543125
0"
#3085544812
1"
#3101838000
0!
#3102504000
1!
#3103208062
0"
#3106209812
1"
#3122504000
0!
#3123170000
1!
#3123875125
0"
#3126876812
1"
#3143170000
0!
#3143836000
1!
#3144540062
0"
#3147541812
1"
#3163836000
0!
#3164502000
1!
#3165207125
0"
#3168208812
1"
#3184502000
0!
#3185168000
1!
#3185872062
0"
#3188873812
1"
#3205168000
0!
#3205834000
1!
#3206539125
0"
#3209540812
1"
#3225834000
0!
#3226500000
1!
#3227204125
0"
#3230206125
1"
#3246500000
0!
#3247166000
1!
#3247871062
0"
#3250872812
1"
#3250872812
0!
#3251872812
1!
#3267166000
0!
#3267832000
1!
#3268536312
0"
#3271537812
1"
#3271537812
0!
#3272537812
1!
#3287832000
0!
#3288498000
1!
#3289203062
0"
#3292204875
1"
#3308498000
0!
#3309164000
1!
#3309868125
0"
#3312869875
1"
#3312869875
0!
#3313869875
1!
#3329164000
0!
#3329830000
1!
#3330535125
0"
#3333536812
1"
#3349830000
0!
#3350496000
1!
#3351200187
0"
#3354201875
1"
#3370496000
0!
#3371162000
1!
#3371866562
0"
#3374868312
1"
#3391162000
0!
#3391828000
1!
#3392533125
0"
#3395534812
1"
#3411828000
0!
#3412494000
1!
#3413198125
0"
#3416199875
1"
#3432494000
0!
#3433160000
1!
#3433865125
0"
#3436866812
1"
#3453160000
0!
#3453826000
1!
#3454530062
0"
#3457531875
1"
#3473826000
0!
#3474492000
1!
#3475197125
0"
#3478198875
1"
#3494492000
0!
#3495158000
1!
#3495862062
0"
#3498863812
1"
#3515158000
0!
#3515824000
1!
#3516529125
0"
#3519530875
1"
#3535824000
0!
#3536490000
1!
#3537194062
0"
#3540195812
1"
#3556490000
0!
#3557156000
1!
#3557861062
0"
#3560862875
1"
#3577156000
0!
#3577822000
1!
#3578526062
0"
#3581527875
1"
#3597822000
0!
#3598488000
1!
#3599192562
0"
#3602194312
1"
#3618488000
0!
#3619154000
1!
#3619859125
0"
#3622860812
1"
#3622860812
0!
#3623860812
1!
#3639154000
0!
#3639820000
1!
#3640524062
0"
#3643525937
1"
#3659820000
0!
#3660486000
1!
#3661190562
0"
#3664192312
1"
#3680486000
0!
#3681152000
1!
#3681856562
0"
#3684858375
1"
#3701152000
0!
#3701818000
1!
#3702522562
0"
#3705524312
1"
#3721818000
0!
#3722484000
1!
#3723189250
0"
#3726190875
1"
#3742484000
0!
#3743150000
1!
#3743854062
0"
#3746855812
1"
#3763150000
0!
#3763816000
1!
#3764521250
0"
#3767522875
1"
#3783816000
0!
#3784482000
1!
#3785186062
0"
#3788187812
1"
#3804482000
0!
#3805148000
1!
#3805853125
0"
#3808854812
1"
#3825148000
0!
#3825814000
1!
#3826519062
0"
#3829520875
1"
#3845814000
0!
#3846480000
1!
#3847185125
0"
#3850186812
1"
#3866480000
0!
#3867146000
1!
#3867851062
0"
#3870852875
1"
#3887146000
0!
#3887812000
1!
#3888517125
0"
#3891518812
1"
#3907812000
0!
#3908478000
1!
#3909183500
0"
#3912185312
1"
#3928478000
0!
#3929144000
1!
#3929849062
0"
#3932850812
1"
#3949144000
0!
#3949810000
1!
#3950514062
0"
#3953516250
1"
#3969810000
0!
#3970476000
1!
#3971181062
0"
#3974182812
1"
#3990476000
0!
#3991142000
1!
#3991846062
0"
#3994848250
1"
#4011142000
0!
#4011808000
1!
#4012512562
0"
#4015514312
1"
#4031808000
0!
#4032473999
1!
#4033178875
0"
#4036180375
1"
#4052474000
0!
#4053140000
1!
#4053844562
0"
#4056846312
1"
#4073140000
0!
#4073806000
1!
#4074511125
0"
#4077512812
1"
#4093806000
0!
#4094471999
1!
#4095176125
0"
#4098177875
1"
#4114472000
0!
#4115138000
1!
#4115843124
0"
#4118844812
1"
#4134842000
0!
#4135493999
1!
#4136139062
0"
#4139140875
1"
#4139140875
0!
#4140140875
1!
#4154965000
0!
#4155610000
1!
#4156199124
0"
#4159200812
1"
#4174856000
0!
#4175493000
1!
#4176029562
0"
#4179031312
1"
#4194522000
0!
#4195152000
1!
#4195638062
0"
#4198640250
1"
#4213971000
0!
#4214594000
1!
#4215030562
0"
#4218032312
1"
#4233209999
0!
#4233827000
1!
#4234215062
0"
#4237216812
1"
#4252246000
0!
#4252856000
1!
#4253199250
0"
#4256200875
1"
#4271084000
0!
#4271688000
1!
#4271984562
0"
#4274986312
1"
#4289730999
0!
#4290329000
1!
#4290582562
0"
#4293584312
1"
#4308193000
0!
#4308785000
1!
#4308996500
0"
#4311998312
1"
#4311998312
0!
#4312998312
1!
#4326475000
0!
#4327061000
1!
#4327230062
0"
#4330231875
1"
#4344581000
0!
#4345162000
1!
#4345291062
0"
#4348293000
1"
#4362518000
0!
#4363093000
1!
#4363183062
0"
#4366184875
1"
#4380289000
0!
#4380850875
0"
#4380859000
1!
#4383918312
1"
#4397900000
0!
#4398459937
0"
#4398465000
1!
#4401488250
1"
#4401488250
0!
#4402488250
1!
#4415354000
0!
#4415914000
1!
#4415914437
0"
#4418899687
1"
#4432656000
0!
#4433211000
1!
#4433214937
0"
#4436161812
1"
#4449809000
0!
#4450360000
1!
#4450367187
0"
#4453274812
1"
#4466818000
0!
#4467364000
1!
#4467377625
0"
#4470245312
1"
#4483686000
0!
#4484227000
1!
#4484246687
0"
#4487075375
1"
#4500416000
0!
#4500953000
1!
#4500974062
0"
#4503768875
1"
#4517012000
0!
#4517545000
1!
#4517570687
0"
#4520337812
1"
#4533477000
0!
#4534005000
1!
#4534036312
0"
#4536767812
1"
#4549813000
0!
#4550337000
1!
#4550371812
0"
#4553068812
1"
#4566024000
0!
#4566545000
1!
#4566584062
0"
#4569245437
1"
#4582114000
0!
#4582631000
1!
#4582674812
0"
#4585312375
1"
#4598084000
0!
#4598597000
1!
#4598643437
0"
#4601248812
1"
#4613937000
0!
#4614446000
1!
#4614496750
0"
#4617069875
1"
#4629675000
0!
#4630180000
1!
#4630232625
0"
#4632786312
1"
#4645301000
0!
#4645803000
1!
#4645859562
0"
#4648383750
1"
#4660818000
0!
#4661316000
1!
#4661376062
0"
#4663867312
1"
#4676227000
0!
#4676722000
1!
#4676786187
0"
#4679256375
1"
#4691531000
0!
#4692022000
1!
#4692090125
0"
#4694529937
1"
#4694529937
0!
#4695529937
1!
#4706708562
0"
#4706731000
0!
#4707219000
1!
#4709701812
1"
#4721790062
0"
#4721831000
0!
#4722316000
1!
#4724782375
1"
#4736764625
0"
#4736832000
0!
#4737314000
1!
#4739755812
1"
#4751641625
0"
#4751736000
0!
#4752215000
1!
#4754632312
1"
#4766431125
0"
#4766545000
0!
#4767021000
1!
#4769423312
1"
#4781119062
0"
#4781261000
0!
#4781734000
1!
#4784112625
1"
#4795715562
0"
#4795885000
0!
#4796355000
1!
#4798710312
1"
#4810229062
0"
#4810419000
0!
#4810886000
1!
#4813228250
1"
#4824655062
0"
#4824864000
0!
#4825328000
1!
#4827646812
1"
#4838992562
0"
#4839223000
0!
#4839684000
1!
#4841989875
1"
#4853246062
0"
#4853496000
0!
#4853955000
1!
#4856237812
1"
#4867422062
0"
#4867686000
0!
#4868142000
1!
#4870412312
1"
#4881509125
0"
#4881793000
0!
#4882246000
1!
#4884503437
1"
#4895513562
0"
#4895819000
0!
#4896270000
1!
#4898505875
1"
#4909438937
0"
#4909766000
0!
#4910214000
1!
#4912429875
1"
#4923286062
0"
#4923635000
0!
#4924081000
1!
#4926284875
1"
#4937057125
0"
#4937428000
0!
#4937871000
1!
#4940054812
1"
#4950758562
0"
#4951145000
0!
#4951586000
1!
#4953757375
1"
#4964379562
0"
#4964788000
0!
#4965226000
1!
#4967380375
1"
#4977942562
0"
#4978357000
0!
#4978793000
1!
#4980933812
1"
#4991415812
0"
#4991854000
0!
#4992288000
1!
#4994410312
1"
#5004827125
0"
#5005281000
0!
#5005713000
1!
#5007824375
1"
#5018176062
0"
#5018638000
0!
#5019067000
1!
#5021167312
1"
#5021167312
0!
#5022167312
1!
#5031440125
0"
#5031926000
0!
#5032353000
1!
#5034435500
1"
#5044652562
0"
#5045146000
0!
#5045571000
1!
#5047642875
1"
#5057782062
0"
#5058300000
0!
#5058723000
1!
#5060776812
1"
#5070861562
0"
#5071389000
0!
#5071810000
1!
#5073853812
1"
#5083862125
0"
#5084413000
0!
#5084832000
1!
#5086857812
1"
#5096812062
0"
#5097373000
0!
#5097790000
1!
#5099806500
1"
#5109699625
0"
#5110271000
0!
#5110686000
1!
#5112692875
1"
#5122518125
0"
#5123107000
0!
#5123520000
1!
#5125510062
1"
#5135276562
0"
#5135882000
0!
#5136293000
1!
#5138273312
1"
#5147974062
0"
#5148597000
0!
#5149006000
1!
#5150969875
1"
#5160618562
0"
#5161252000
0!
#5161659000
1!
#5163613312
1"
#5173197062
0"
#5173849000
0!
#5174254000
1!
#5176192812
1"
#5176192812
0!
#5177192812
1!
#5185725062
0"
#5186388000
0!
#5186791000
1!
#5188720812
1"
#5198196125
0"
#5198870000
0!
#5199271000
1!
#5201192812
1"
#5210604750
0"
#5211296000
0!
#5211696000
1!
#5213601875
1"
#5222963812
0"
#5223667000
0!
#5224065000
1!
#5225961875
1"
#5235261062
0"
#5235983000
0!
#5236379000
1!
#5238261500
1"
#5247517625
0"
#5248245000
0!
#5248639000
1!
#5250512812
1"
#5259720062
0"
#5260454000
0!
#5260846000
1!
#5262712625
1"
#5271858125
0"
#5272610000
0!
#5273001000
1!
#5274851812
1"
#5283955937
0"
#5284715000
0!
#5285104000
1!
#5286947312
1"
#5295997062
0"
#5296768000
0!
#5297156000
1!
#5298990875
1"
#5307987562
0"
#5308771000
0!
#5309157000
1!
#5310984312
1"
#5319927125
0"
#5320724000
0!
#5321108000
1!
#5322922375
1"
#5331824562
0"
#5332628000
0!
#5333011000
1!
#5334816812
1"
#5343667062
0"
#5344483000
0!
#5344864000
1!
#5346663312
1"
#5355461062
0"
#5356290000
0!
#5356670000
1!
#5358454812
1"
#5358454812
0!
#5359454812
1!
#5367213062
0"
#5368050000
0!
#5368428000
1!
#5370205812
1"
#5378912750
0"
#5379762000
0!
#5380139000
1!
#5381909250
1"
#5390570562
0"
#5391429000
0!
#5391804000
1!
#5393568312
1"
#5402178062
0"
#5403049000
0!
#5403423000
1!
#5405173250
1"
#5413745125
0"
#5414624000
0!
#5414996000
1!
#5416739312
1"
#5425267562
0"
#5426154000
0!
#5426525000
1!
#5428262125
1"
#5436745250
0"
#5437640000
0!
#5438009000
1!
#5439739312
1"
#5439739312
0!
#5440739312
1!
#5448173062
0"
#5449082000
0!
#5449450000
1!
#5451166812
1"
#5459563562
0"
#5460481000
0!
#5460847000
1!
#5462558875
1"
#5470911625
0"
#5471837000
0!
#5472202000
1!
#5473906312
1"
#5482221562
0"
#5483151000
0!
#5483515000
1!
#5485213375
1"
#5493479562
0"
#5494423000
0!
#5494785000
1!
#5496471312
1"
#5504701562
0"
#5505653000
0!
#5506014000
1!
#5507693312
1"
#5515882062
0"
#5516842000
0!
#5517202000
1!
#5518874875
1"
#5527021625
0"
#5527992000
0!
#5528351000
1!
#5530018500
1"
#5538117375
0"
#5539102000
0!
#5539459000
1!
#5541114812
1"
#5549183562
0"
#5550171000
0!
#5550527000
1!
#5552175875
1"
#5560203687
0"
#5561202000
0!
#5561557000
1!
#5563199875
1"
#5571192062
0"
#5572194000
0!
#5572548000
1!
#5574184812
1"
#5574184812
0!
#5575184812
1!
#5582136562
0"
#5583148000
0!
#5583500000
1!
#5585132312
1"
#5593042625
0"
#5594063000
0!
#5594414000
1!
#5596035000
1"
#5603910562
0"
#5604941000
0!
#5605291000
1!
#5606905375
1"
#5614746500
0"
#5615782000
0!
#5616131000
1!
#5617740375
1"
#5625541562
0"
#5626586000
0!
#5626933000
1!
#5628537562
1"
#5636298562
0"
#5637353000
0!
#5637699000
1!
#5639292000
1"
#5647020125
0"
#5648084000
0!
#5648429000
1!
#5650015875
1"
#5650015875
0!
#5651015875
1!
#5657710562
0"
#5658780000
0!
#5659124000
1!
#5660706312
1"
#5668366062
0"
#5669440000
0!
#5669783000
1!
#5671359875
1"
#5678975562
0"
#5680065000
0!
#5680407000
1!
#5681971812
1"
#5689560562
0"
#5690656000
0!
#5690997000
1!
#5692556812
1"
#5700112062
0"
#5701213000
0!
#5701552000
1!
#5703108312
1"
#5710630062
0"
#5711735000
0!
#5712073000
1!
#5713624375
1"
#5721109062
0"
#5722223000
0!
#5722560000
1!
#5724105812
1"
#5731558187
0"
#5732678000
0!
#5733014000
1!
#5734554312
1"
#5741973625
0"
#5743100000
0!
#5743435000
1!
#5744970875
1"
#5744970875
0!
#5745970875
1!
#5752357562
0"
#5753489000
0!
#5753823000
1!
#5755354625
1"
#5755354625
0!
#5756354625
1!
#5762709062
0"
#5763846000
0!
#5764179000
1!
#5765705187
1"
#5773022250
0"
#5774171000
0!
#5774503000
1!
#5776019625
1"
#5783310187
0"
#5784464000
0!
#5784795000
1!
#5786306375
1"
#5793564750
0"
#5794726000
0!
#5795056000
1!
#5796562812
1"
#5803790062
0"
#5804956000
0!
#5805285000
1!
#5806786812
1"
#5813987062
0"
#5815155000
0!
#5815483000
1!
#5816980875
1"
#5824149562
0"
#5825324000
0!
#5825651000
1!
#5827143875
1"
#5834281562
0"
#5835462000
0!
#5835788000
1!
#5837276875
1"
#5844384125
0"
#5845570000
0!
#5845895000
1!
#5847379687
1"
#5854456125
0"
#5855649000
0!
#5855973000
1!
#5857453312
1"
#5864497562
0"
#5865698000
0!
#5866021000
1!
#5867491875
1"
#5874511500
0"
#5875717000
0!
#5876039000
1!
#5877504312
1"
#5884494062
0"
#5885707000
0!
#5886028000
1!
#5887489812
1"
#5894453562
0"
#5895668000
0!
#5895988000
1!
#5897445812
1"
#5904379562
0"
#5905601000
0!
#5905921000
1!
#5907373375
1"
#5914277562
0"
#5915506000
0!
#5915825000
1!
#5917273375
1"
#5924151062
0"
#5925383000
0!
#5925701000
1!
#5927145312
1"
#5927145312
0!
#5928145312
1!
#5933994062
0"
#5935232000
0!
#5935549000
1!
#5936989812
1"
#5943813125
0"
#5945053000
0!
#5945369000
1!
#5946805312
1"
#5953594562
0"
#5954847000
0!
#5955162000
1!
#5956590187
1"
#5963358062
0"
#5964614000
0!
#5964928000
1!
#5966351312
1"
#5973091062
0"
#5974353000
0!
#5974666000
1!
#5976086250
1"
#5982797812
0"
#5984066000
0!
#5984378000
1!
#5985793812
1"
#5985793812
0!
#5986793812
1!
#5992480062
0"
#5993752000
0!
#5994064000
1!
#5995474812
1"
#6002133125
0"
#6003412000
0!
#6003723000
1!
#6005130312
1"
#6011764687
0"
#6013046000
0!
#6013356000
1!
#6014759875
1"
#6021369062
0"
#6022655000
0!
#6022964000
1!
#6024364437
1"
#6030945625
0"
#6032238000
0!
#6032546000
1!
#6033943312
1"
#6040500062
0"
#6041795000
0!
#6042102000
1!
#6043495312
1"
#6050019812
0"
#6051326000
0!
#6051633000
1!
#6053016812
1"
#6059522625
0"
#6060833000
0!
#6061139000
1!
#6062519312
1"
#6062519312
0!
#6063519312
1!
#6069001062
0"
#6070315000
0!
#6070620000
1!
#6071996937
1"
#6078455125
0"
#6079772000
0!
#6080076000
1!
#6081449312
1"
#6087880062
0"
#6089205000
0!
#6089508000
1!
#6090878875
1"
#6097285625
0"
#6098613000
0!
#6098916000
1!
#6100281812
1"
#6106666062
0"
#6107998000
0!
#6108300000
1!
#6109662812
1"
#6109662812
0!
#6110662812
1!
#6116023375
0"
#6117359000
0!
#6117660000
1!
#6119018875
1"
#6125356250
0"
#6126696000
0!
#6126996000
1!
#6128351812
1"
#6134662562
0"
#6136009000
0!
#6136309000
1!
#6137661312
1"
#6143949062
0"
#6145299000
0!
#6145598000
1!
#6146946312
1"
#6153211687
0"
#6154566000
0!
#6154864000
1!
#6156210375
1"
#6162451937
0"
#6163810000
0!
#6164107000
1!
#6165449812
1"
#6171669062
0"
#6173030000
0!
#6173327000
1!
#6174665312
1"
#6180862062
0"
#6182228000
0!
#6182524000
1!
#6183859312
1"
#6190034062
0"
#6191404000
0!
#6191699000
1!
#6193031312
1"
#6199183562
0"
#6200557000
0!
#6200851000
1!
#6202180312
1"
#6208310062
0"
#6209688000
0!
#6209982000
1!
#6211307812
1"
#6217419125
0"
#6218797000
0!
#6219090000
1!
#6220413375
1"
#6226501562
0"
#6227884000
0!
#6228176000
1!
#6229496375
1"
#6235562812
0"
#6236949000
0!
#6237241000
1!
#6238557375
1"
#6244602562
0"
#6245993000
0!
#6246284000
1!
#6247598125
1"
#6253620625
0"
#6255016000
0!
#6255306000
1!
#6256616812
1"
#6262618562
0"
#6264017000
0!
#6264307000
1!
#6265613375
1"
#6271588562
0"
#6272998000
0!
#6273287000
1!
#6274586375
1"
#6280544562
0"
#6281957000
0!
#6282245000
1!
#6283540812
1"
#6289480562
0"
#6290895000
0!
#6291182000
1!
#6292475312
1"
#6298394562
0"
#6299812000
0!
#6300099000
1!
#6301389375
1"
#6307286062
0"
#6308709000
0!
#6308995000
1!
#6310282375
1"
#6316158062
0"
#6317586000
0!
#6317872000
1!
#6319156312
1"
#6325014937
0"
#6326443000
0!
#6326728000
1!
#6328009250
1"
#6333846125
0"
#6335280000
0!
#6335564000
1!
#6336843812
1"
#6342662125
0"
#6344096000
0!
#6344379000
1!
#6345655375
1"
#6351450625
0"
#6352892000
0!
#6353175000
1!
#6354447375
1"
#6360225125
0"
#6361669000
0!
#6361951000
1!
#6363221812
1"
#6368981562
0"
#6370426000
0!
#6370708000
1!
#6371974875
1"
#6377714562
0"
#6379165000
0!
#6379446000
1!
#6380710937
1"
#6386432125
0"
#6387884000
0!
#6388165000
1!
#6389426187
1"
#6395127125
0"
#6396584000
0!
#6396864000
1!
#6398122875
1"
#6403803625
0"
#6405265000
0!
#6405544000
1!
#6406800812
1"
#6412464562
0"
#6413926000
0!
#6414205000
1!
#6415458375
1"
#6415458375
0!
#6416458375
1!
#6421102062
0"
#6422569000
0!
#6422847000
1!
#6424097937
1"
#6429721562
0"
#6431193000
0!
#6431470000
1!
#6432719000
1"
#6432719000
0!
#6433719000
1!
#6438325062
0"
#6439798000
0!
#6440075000
1!
#6441319812
1"
#6441319812
0!
#6442319812
1!
#6446906562
0"
#6448385000
0!
#6448661000
1!
#6449903937
1"
#6455473250
0"
#6456954000
0!
#6457229000
1!
#6458469375
1"
#6458469375
0!
#6459469375
1!
#6464022125
0"
#6465504000
0!
#6465779000
1!
#6467016375
1"
#6472549062
0"
#6474036000
0!
#6474310000
1!
#6475545312
1"
#6481061562
0"
#6482550000
0!
#6482824000
1!
#6484056312
1"
#6489553125
0"
#6491047000
0!
#6491320000
1!
#6492549812
1"
#6498029625
0"
#6499526000
0!
#6499799000
1!
#6501025375
1"
#6506491062
0"
#6507988000
0!
#6508260000
1!
#6509489500
1"
#6514933375
0"
#6516432000
0!
#6516703000
1!
#6517930937
1"
#6523358125
0"
#6524858000
0!
#6525129000
1!
#6526353312
1"
#6526353312
0!
#6527353312
1!
#6531762062
0"
#6533267000
0!
#6533537000
1!
#6534758937
1"
#6534758937
0!
#6535758937
1!
#6540151125
0"
#6541658000
0!
#6541928000
1!
#6543147562
1"
#6548520562
0"
#6550033000
0!
#6550302000
1!
#6551519125
1"
#6556875562
0"
#6558390000
0!
#6558659000
1!
#6559873375
1"
#6565214812
0"
#6566731000
0!
#6566999000
1!
#6568211312
1"
#6573536125
0"
#6575054000
0!
#6575322000
1!
#6576531812
1"
#6581837062
0"
#6583362000
0!
#6583629000
1!
#6584836312
1"
#6590129625
0"
#6591652000
0!
#6591919000
1!
#6593123375
1"
#6598397562
0"
#6599926000
0!
#6600192000
1!
#6601393875
1"
#6606650062
0"
#6608183000
0!
#6608449000
1!
#6609647875
1"
#6614888125
0"
#6616425000
0!
#6616690000
1!
#6617887875
1"
#6623114562
0"
#6624650000
0!
#6624915000
1!
#6626109437
1"
#6631318125
0"
#6632859000
0!
#6633123000
1!
#6634315875
1"
#6639508062
0"
#6641052000
0!
#6641316000
1!
#6642506312
1"
#6647683562
0"
#6649230000
0!
#6649493000
1!
#6650681812
1"
#6655843125
0"
#6657391000
0!
#6657653000
1!
#6658840000
1"
#6663983562
0"
#6665536000
0!
#6665798000
1!
#6666981312
1"
#6672110375
0"
#6673666000
0!
#6673927000
1!
#6675109312
1"
#6680224562
0"
#6681780000
0!
#6682041000
1!
#6683220312
1"
#6688321187
0"
#6689879000
0!
#6690140000
1!
#6691316812
1"
#6696399062
0"
#6697963000
0!
#6698223000
1!
#6699397312
1"
#6704465062
0"
#6706031000
0!
#6706291000
1!
#6707462875
1"
#6712515062
0"
#6714085000
0!
#6714344000
1!
#6715514687
1"
#6720553562
0"
#6722123000
0!
#6722381000
1!
#6723549812
1"
#6728574937
0"
#6730145000
0!
#6730403000
1!
#6731569000
1"
#6731569000
0!
#6732569000
1!
#6736576937
0"
#6738153000
0!
#6738411000
1!
#6739574375
1"
#6744566562
0"
#6746146000
0!
#6746403000
1!
#6747564812
1"
#6752542062
0"
#6754124000
0!
#6754381000
1!
#6755540500
1"
#6760502562
0"
#6762088000
0!
#6762344000
1!
#6763501312
1"
#6768449125
0"
#6770037000
0!
#6770293000
1!
#6771448437
1"
#6776388125
0"
#6777972000
0!
#6778228000
1!
#6779385625
1"
#6784307625
0"
#6785893000
0!
#6786148000
1!
#6787303000
1"
#6787303000
0!
#6788303000
1!
#6792211062
0"
#6793799000
0!
#6794053000
1!
#6795206312
1"
#6800100125
0"
#6801690000
0!
#6801944000
1!
#6803095125
1"
#6807974062
0"
#6809567000
0!
#6809820000
1!
#6810969312
1"
#6815834062
0"
#6817429000
0!
#6817682000
1!
#6818829187
1"
#6823679125
0"
#6825278000
0!
#6825530000
1!
#6826675375
1"
#6831511062
0"
#6833112000
0!
#6833364000
1!
#6834506812
1"
#6839328625
0"
#6840933000
0!
#6841184000
1!
#6842325312
1"
#6847132625
0"
#6848739000
0!
#6848990000
1!
#6850128812
1"
#6854922062
0"
#6856532000
0!
#6856783000
1!
#6857919812
1"
#6862699062
0"
#6864312000
0!
#6864562000
1!
#6865697812
1"
#6870465875
0"
#6872077000
0!
