analysis/wokwi-logic.vcd
$version Generated by Wokwi.com $end
$date Fri, 12 Sep 2025 21:37:17 GMT $end
$timescale 1ns $end
$scope module logic $end
$var wire 1 ! D2 $end
$var wire 1 " D3 $end
$var wire 1 # D4 $end
$upscope $end
$enddefinitions $end
#0
0!
#0
0"
#0
0#
#0
1!
#7352875
1"
#7352875
0!
#8352874
1!
#1009789937
1#
#1029789937
0!
#1030455937
1!
#1050455937
0!
#1051121937
1!
#1071121937
0!
#1071787937
1!
#1091787937
0!
#1092453937
1!
#1112453937
0!
#1113119937
1!
#1113824812
0"
#1116827062
1"
#1133119937
0!
#1133785937
1!
#1134490750
0"
#1137492625
1"
#1153785937
0!
#1154451937
1!
#1155156750
0"
#1158158625
1"
#1174451937
0!
#1175117937
1!
#1175823250
0"
#1178825125
1"
#1195117937
0!
#1195783937
1!
#1196488250
0"
#1199490125
1"
#1199490125
0!
#1200490125
1!
#1215783937
0!
#1216449937
1!
#1217155000
0"
#1220156625
1"
#1236449937
0!
#1237115937
1!
#1237820750
0"
#1240822625
1"
#1240822625
0!
#1241822625
1!
#1257115937
0!
#1257781937
1!
#1258487000
0"
#1261488625
1"
#1277781937
0!
#1278447937
1!
#1279152750
0"
#1282154625
1"
#1298447937
0!
#1299113937
1!
#1299818750
0"
#1302820687
1"
#1319113937
0!
#1319779937
1!
#1320484812
0"
#1323487062
1"
#1339779937
0!
#1340445937
1!
#1341150750
0"
#1344152625
1"
#1360445937
0!
#1361111937
1!
#1361817250
0"
#1364819125
1"
#1381111937
0!
#1381777937
1!
#1382482250
0"
#1385484187
1"
#1401777937
0!
#1402443937
1!
#1403148750
0"
#1406150625
1"
#1422443937
0!
#1423109937
1!
#1423814750
0"
#1426816812
1"
#1426816812
0!
#1427816812
1!
#1443109937
0!
#1443775937
1!
#1444480750
0"
#1447482625
1"
#1463775937
0!
#1464441937
1!
#1465146750
0"
#1468148812
1"
#1484441937
0!
#1485107937
1!
#1485812750
0"
#1488814687
1"
#1505107937
0!
#1505773937
1!
#1506479312
0"
#1509481125
1"
#1525773937
0!
#1526439937
1!
#1527144250
0"
#1530146125
1"
#1546439937
0!
#1547105937
1!
#1547810812
0"
#1550812625
1"
#1567105937
0!
#1567771937
1!
#1568477312
0"
#1571479187
1"
#1587771937
0!
#1588437937
1!
#1589142750
0"
#1592144625
1"
#1608437937
0!
#1609103937
1!
#1609809250
0"
#1612811125
1"
#1627141937
0!
#1627713937
1!
#1628015250
0"
#1631017125
1"
#1644165937
0!
#1644659375
0"
#1644691937
1!
#1647595812
1"
#1659913937
0!
#1660402937
1!
#1660408500
0"
#1663026187
1"
#1674635937
0!
#1675095937
1!
#1688510937
0!
#1688945937
1!
#1690419437
0"
#1693421187
1"
#1701668937
0!
#1702081937
1!
#1714210937
0!
#1714605937
1!
#1714874750
0"
#1717876687
1"
#1726216937
0!
#1726595937
1!
#1737581312
0"
#1737749937
0!
#1738113937
1!
#1739857937
1"
#1748398250
0"
#1748860937
0!
#1749211937
1!
#1750880125
1"
#1758899750
0"
#1759592937
0!
#1759932937
1!
#1761524625
1"
#1769092812
0"
#1769983937
0!
#1770312937
1!
#1771849625
1"
#1779028250
0"
#1780062937
0!
#1780382937
1!
#1781867187
1"
#1788701312
0"
#1789857937
0!
#1790168937
1!
#1791600125
1"
#1791600125
0!
#1792600125
1!
#1798134250
0"
#1799390937
0!
#1799693937
1!
#1801081125
1"
#1807341000
0"
#1808681937
0!
#1808976937
1!
#1810330187
1"
#1816341750
0"
#1817747937
0!
#1818035937
1!
#1819355625
1"
#1825136250
0"
#1826604937
0!
#1826886937
1!
#1828171125
1"
#1833751250
0"
#1835266937
0!
#1835542937
1!
#1836798625
1"
#1842192812
0"
#1843745937
0!
#1844015937
1!
#1845245125
1"
#1845245125
0!
#1846245125
1!
#1850464750
0"
#1852052937
0!
#1852317937
1!
#1853527125
1"
#1858577750
0"
#1860198937
0!
#1860458937
1!
#1861644687
1"
#1866546750
0"
#1868192937
0!
#1868447937
1!
#1869611687
1"
#1874371312
0"
#1876041937
0!
#1876291937
1!
#1877439187
1"
#1882059250
0"
#1883753937
0!
#1883999937
1!
#1885126625
1"
#1889623250
0"
#1891335937
0!
#1891577937
1!
#1892690125
1"
#1897103750
0"
#1898794937
0!
#1899032937
1!
#1900127125
1"
#1904471812
0"
#1906135937
0!
#1906369937
1!
#1907451562
1"
#1911725062
0"
#1913363937
0!
#1913594937
1!
#1914659562
1"
#1918888750
0"
#1920485937
0!
#1920713937
1!
#1921766125
1"
#1925936250
0"
#1927504937
0!
#1927728937
1!
#1928766625
1"
#1932862750
0"
#1934424937
0!
#1934645937
1!
#1935673250
1"
#1939717750
0"
#1941250937
0!
#1941468937
1!
#1942485625
1"
#1946480250
0"
#1947986937
0!
#1948201937
1!
#1949205625
1"
#1953158750
0"
#1954634937
0!
#1954847937
1!
#1955841625
1"
#1959733750
0"
#1961199937
0!
#1961409937
1!
#1962392187
1"
#1966245750
0"
#1967683937
0!
#1967890937
1!
#1968865125
1"
#1972684250
0"
#1974089937
0!
#1974294937
1!
#1975260437
1"
#1979023250
0"
#1980421937
0!
#1980624937
1!
#1981578625
1"
#1985295875
0"
#1986681937
0!
#1986881937
1!
#1987829062
1"
#1991518812
0"
#1992870937
0!
#1993068937
1!
#1994005187
1"
#1997648750
0"
#1998991937
0!
#1999187937
1!
#2000117187
1"
#2003716312
0"
#2005047937
0!
#2005241937
1!
#2006165187
1"
#2009740812
0"
#2011040937
0!
#2011232937
1!
#2012145625
1"
#2015684375
0"
#2016971937
0!
#2017161937
1!
#2018065625
1"
#2021567312
0"
#2022842937
0!
#2023030937
1!
#2023928687
1"
#2023928687
0!
#2024928687
1!
#2027392750
0"
#2028655937
0!
#2028841937
1!
#2029740625
1"
#2033169812
0"
#2034412937
0!
#2034596937
1!
#2035480124
1"
#2038875749
0"
#2040114937
0!
#2040297937
1!
#2041176687
1"
#2044537937
0"
#2045764937
0!
#2045945937
1!
#2046816187
1"
#2050150937
0"
#2051362937
0!
#2051541937
1!
#2052407624
1"
#2055710250
0"
#2056909937
0!
#2057087937
1!
#2057945625
1"
#2061222312
0"
#2062408937
0!
#2062584937
1!
#2063435687
1"
#2066686250
0"
#2067859937
0!
#2068034937
1!
#2068880875
1"
#2072105750
0"
#2073264937
0!
#2073437937
1!
#2074280125
1"
#2077478250
0"
#2078623937
0!
#2078795937
1!
#2079630687
1"
#2082804750
0"
#2083938937
0!
#2084108937
1!
#2084937375
1"
#2088092750
0"
#2089210937
0!
#2089379937
1!
#2090204625
1"
#2093339312
0"
#2094440937
0!
#2094608937
1!
#2095426125
1"
#2098520812
0"
#2099629937
0!
#2099795937
1!
#2100610624
1"
#2103682812
0"
#2104777937
0!
#2104943937
1!
#2105750625
1"
#2105750625
0!
#2106750625
1!
#2108806312
0"
#2109924937
0!
#2110090937
1!
#2110897625
1"
#2113928249
0"
#2115071937
0!
#2115237937
1!
#2116044687
1"
#2119082312
0"
#2120218937
0!
#2120384937
1!
#2121192124
1"
#2124226250
0"
#2125365937
0!
#2125531937
1!
#2126338750
1"
#2129374374
0"
#2130512937
0!
#2130678937
1!
#2131485624
1"
#2134526250
0"
#2135659937
0!
#2135825937
1!
#2136632687
1"
#2139659749
0"
#2140806937
0!
#2140972937
1!
#2141779999
1"
#2144815625
0"
#2145953937
0!
#2146119937
1!
#2146926624
1"
#2149969687
0"
#2151100937
0!
#2151266937
1!
#2152073687
1"
#2155123375
0"
#2156247937
0!
#2156413937
1!
#2157220625
1"
#2157220625
0!
#2158220625
1!
#2160277250
0"
#2161394937
0!
#2161560937
1!
#2162367687
1"
#2165430250
0"
#2166541937
0!
#2166707937
1!
#2167514812
1"
#2170582750
0"
#2171688937
0!
#2171854937
1!
#2172661687
1"
#2175735312
0"
#2176835937
0!
#2177001937
1!
#2177809000
1"
#2180886812
0"
#2181982937
0!
#2182148937
1!
#2182955875
1"
#2186035312
0"
#2187129937
0!
#2187295937
1!
#2188102625
1"
#2191165750
0"
#2192276937
0!
#2192442937
1!
#2193249625
1"
#2196316812
0"
#2197423937
0!
#2197589937
1!
#2198396625
1"
#2201465812
0"
#2202570937
0!
#2202736937
1!
#2203543625
1"
#2206615750
0"
#2207736937
0!
#2207902937
1!
#2208713125
1"
#2211793312
0"
#2212902937
0!
#2213068937
1!
#2213879125
1"
#2216967750
0"
#2218068937
0!
#2218234937
1!
#2219045187
1"
#2219045187
0!
#2220045187
1!
#2222139750
0"
#2223234937
0!
#2223400937
1!
#2224211125
1"
#2224211125
0!
#2225211125
1!
#2227309250
0"
#2228400937
0!
#2228566937
1!
#2229377687
1"
#2232478812
0"
#2233566937
0!
#2233732937
1!
#2234543125
1"
#2234543125
0!
#2235543125
1!
#2237646750
0"
#2238732937
0!
#2238898937
1!
#2239709375
1"
#2242813750
0"
#2243898937
0!
#2244064937
1!
#2244875562
1"
#2247980312
0"
#2249064937
0!
#2249230937
1!
#2250041187
1"
#2253148125
0"
#2254230937
0!
#2254396937
1!
#2255207125
1"
#2258313812
0"
#2259396937
0!
#2259562937
1!
#2260373125
1"
#2263479812
0"
#2264562937
0!
#2264728937
1!
#2265539125
1"
#2268646750
0"
#2269728937
0!
#2269894937
1!
#2270705187
1"
#2273813312
0"
#2274894937
0!
#2275060937
1!
#2275871125
1"
#2278978812
0"
#2280060937
0!
#2280226937
1!
#2281037187
1"
#2284144750
0"
#2285226937
0!
#2285392937
1!
#2286203500
1"
#2289310750
0"
#2290392937
0!
#2290558937
1!
#2291369125
1"
#2294476812
0"
#2295558937
0!
#2295724937
1!
#2296535125
1"
#2299642875
0"
#2300724937
0!
#2300890937
1!
#2301701125
1"
#2304809187
0"
#2305890937
0!
#2306056937
1!
#2306867187
1"
#2309975125
0"
#2311056937
0!
#2311222937
1!
#2312033187
1"
#2312033187
0!
#2313033187
1!
#2315140812
0"
#2316222937
0!
#2316388937
1!
#2317199125
1"
#2320306750
0"
#2321388937
0!
#2321554937
1!
#2322365625
1"
#2325472750
0"
#2326554937
0!
#2326720937
1!
#2327531125
1"
#2330638812
0"
#2331720937
0!
#2331886937
1!
#2332697125
1"
#2335804750
0"
#2336886937
0!
#2337052937
1!
#2337863187
1"
#2340970750
0"
#2342052937
0!
#2342218937
1!
#2343031312
1"
#2346136875
0"
#2347218937
0!
#2347384937
1!
#2348195125
1"
#2351302812
0"
#2352384937
0!
#2352550937
1!
#2353361125
1"
#2356468750
0"
#2357550937
0!
#2357716937
1!
#2358527625
1"
#2361636250
0"
#2362716937
0!
#2362882937
1!
#2363693187
1"
#2366801750
0"
#2367882937
0!
#2368048937
1!
#2368859125
1"
#2371967750
0"
#2373048937
0!
#2373214937
1!
#2374025125
1"
#2377133750
0"
#2378214937
0!
#2378380937
1!
#2379191125
1"
#2382299750
0"
#2383380937
0!
#2383546937
1!
#2384357125
1"
#2387465750
0"
#2388546937
0!
#2388712937
1!
#2389523125
1"
#2392630812
0"
#2393712937
0!
#2393878937
1!
#2394689687
1"
#2397798250
0"
#2398878937
0!
#2399044937
1!
#2399855500
1"
#2402964250
0"
#2404044937
0!
#2404210937
1!
#2405021125
1"
#2408129812
0"
#2409210937
0!
#2409376937
1!
#2410187125
1"
#2413295750
0"
#2414376937
0!
#2414542937
1!
#2415353125
1"
#2418461812
0"
#2419542937
0!
#2419708937
1!
#2420519187
1"
#2423627812
0"
#2424708937
0!
#2424874937
1!
#2425685125
1"
#2428792750
0"
#2429874937
0!
#2430040937
1!
#2430851125
1"
#2433958812
0"
#2435040937
0!
#2435206937
1!
#2436017125
1"
#2439124750
0"
#2440206937
0!
#2440372937
1!
#2441183625
1"
#2441183625
0!
#2442183625
1!
#2444292375
0"
#2445372937
0!
#2445538937
1!
#2446349125
1"
#2449457750
0"
#2450538937
0!
#2450704937
1!
#2451515187
1"
#2454623812
0"
#2455704937
0!
#2455870937
1!
#2456681125
1"
#2459789750
0"
#2460870937
0!
#2461036937
1!
#2461847687
1"
#2464956312
0"
#2466036937
0!
#2466202937
1!
#2467013125
1"
#2470121750
0"
#2471202937
0!
#2471368937
1!
#2472179125
1"
#2475287750
0"
#2476368937
0!
#2476534937
1!
#2477345125
1"
#2480453750
0"
#2481534937
0!
#2481700937
1!
#2482511125
1"
#2485619812
0"
#2486700937
0!
#2486866937
1!
#2487677125
1"
#2487677125
0!
#2488677125
1!
#2490785750
0"
#2491866937
0!
#2492032937
1!
#2492843687
1"
#2495952250
0"
#2497032937
0!
#2497198937
1!
#2498009125
1"
#2501117750
0"
#2502198937
0!
#2502364937
1!
#2503175625
1"
#2506284250
0"
#2507364937
0!
#2507530937
1!
#2508341125
1"
#2511449750
0"
#2512530937
0!
#2512696937
1!
#2513507125
1"
#2513507125
0!
#2514507125
1!
#2516615937
0"
#2517696937
0!
#2517862937
1!
#2518673125
1"
#2521781750
0"
#2522862937
0!
#2523028937
1!
#2523839625
1"
#2526947750
0"
#2528028937
0!
#2528194937
1!
#2529005687
1"
#2532113750
0"
#2533194937
0!
#2533360937
1!
#2534171125
1"
#2537278812
0"
#2538360937
0!
#2538526937
1!
#2539337125
1"
#2542445250
0"
#2543526937
0!
#2543692937
1!
#2544503187
1"
#2547610750
0"
#2548692937
0!
#2548858937
1!
#2549669250
1"
#2552776812
0"
#2553858937
0!
#2554024937
1!
#2554835125
1"
#2557942812
0"
#2559024937
0!
#2559190937
1!
#2560001125
1"
#2563108750
0"
#2564190937
0!
#2564356937
1!
#2565167125
1"
#2568274750
0"
#2569356937
0!
#2569522937
1!
#2570333125
1"
#2573440812
0"
#2574522937
0!
#2574688937
1!
#2575499125
1"
#2578606750
0"
#2579688937
0!
#2579854937
1!
#2580665625
1"
#2583774312
0"
#2584854937
0!
#2585020937
1!
#2585831125
1"
#2588939750
0"
#2590020937
0!
#2590186937
1!
#2590997687
1"
#2594106312
0"
#2595186937
0!
#2595352937
1!
#2596163187
1"
#2599271750
0"
#2600352937
0!
#2600518937
1!
#2601329187
1"
#2604437750
0"
#2605518937
0!
#2605684937
1!
#2606495125
1"
#2606495125
0!
#2607495125
1!
#2609603812
0"
#2610684937
0!
#2610850937
1!
#2611661687
1"
#2614769750
0"
#2615850937
0!
#2616016937
1!
#2616827312
1"
#2619936062
0"
#2621016937
0!
#2621182937
1!
#2621993187
1"
#2625101937
0"
#2626182937
0!
#2626348937
1!
#2627159125
1"
#2630266750
0"
#2631348937
0!
#2631514937
1!
#2632325125
1"
#2635433187
0"
#2636514937
0!
#2636680937
1!
#2637491125
1"
#2640598750
0"
#2641680937
0!
#2641846937
1!
#2642657125
1"
#2645764812
0"
#2646846937
0!
#2647012937
1!
#2647823187
1"
#2650931125
0"
#2652012937
0!
#2652178937
1!
#2652989125
1"
#2656096750
0"
#2657178937
0!
#2657344937
1!
#2658155625
1"
#2661264375
0"
#2662344937
0!
#2662510937
1!
#2663321375
1"
#2666430125
0"
#2667510937
0!
#2667676937
1!
#2668487125
1"
#2671595875
0"
#2672676937
0!
#2672842937
1!
#2673653125
1"
#2676761750
0"
#2677842937
0!
#2678008937
1!
#2678819312
1"
#2681928062
0"
#2683008937
0!
#2683174937
1!
#2683985125
1"
#2687096875
0"
#2688174937
0!
#2688340937
1!
#2689151562
1"
#2692260312
0"
#2693340937
0!
#2693506937
1!
#2694317125
1"
#2697424812
0"
#2698506937
0!
#2698672937
1!
#2699483125
1"
#2702590750
0"
#2703672937
0!
#2703838937
1!
#2704649687
1"
#2707758312
0"
#2708902937
0!
#2709071937
1!
#2709889125
1"
#2713001312
0"
#2714190937
0!
#2714361937
1!
#2715187125
1"
#2718317250
0"
#2719536937
0!
#2719709937
1!
#2720541187
1"
#2723706750
0"
#2724942937
0!
#2725117937
1!
#2725958125
1"
#2725958125
0!
#2726958125
1!
#2729162750
0"
#2730411937
0!
#2730588937
1!
#2731436250
1"
#2734688437
0"
#2735944937
0!
#2736123937
1!
#2736977625
1"
#2740264750
0"
#2741544937
0!
#2741725937
1!
#2742590125
1"
#2745929750
0"
#2747213937
0!
#2747397937
1!
#2748269125
1"
#2751647750
0"
#2752954937
0!
#2753140937
1!
#2754020625
1"
#2757461937
0"
#2758770937
0!
#2758958937
1!
#2759852812
1"
#2763339250
0"
#2764663937
0!
#2764854937
1!
#2765753125
1"
#2769286812
0"
#2770637937
0!
#2770831937
1!
#2771739125
1"
#2775322750
0"
#2776696937
0!
#2776892937
1!
#2777814437
1"
#2781470812
0"
#2782842937
0!
#2783041937
1!
#2783972625
1"
#2787685750
0"
#2789080937
0!
#2789282937
1!
#2790223687
1"
#2793995750
0"
#2795414937
0!
#2795620937
1!
#2796572625
1"
#2796572625
0!
#2797572625
1!
#2800409250
0"
#2801850937
0!
#2802059937
1!
#2803026125
1"
#2806908250
0"
#2808391937
0!
#2808603937
1!
#2809582625
1"
#2813538312
0"
#2815043937
0!
#2815259937
1!
#2816251250
1"
#2820285687
0"
#2821812937
0!
#2822032937
1!
#2823038500
1"
#2827141250
0"
#2828705937
0!
#2828929937
1!
#2829949125
1"
#2834140750
0"
#2835728937
0!
#2835956937
1!
#2836991625
1"
#2841261750
0"
#2842889937
0!
#2843122937
1!
#2844177375
1"
#2848530250
0"
#2850197937
0!
#2850435937
1!
#2851508125
1"
#2855955312
0"
#2857661937
0!
#2857904937
1!
#2858995125
1"
#2863569750
0"
#2865291937
0!
#2865540937
1!
#2866650125
1"
#2871399312
0"
#2873100937
0!
#2873355937
1!
#2874491125
1"
#2879427250
0"
#2881100937
0!
#2881361937
1!
#2882520625
1"
#2887656750
0"
#2889305937
0!
#2889573937
1!
#2890761687
1"
#2896113750
0"
#2897733937
0!
#2898008937
1!
#2899229125
1"
#2904808312
0"
#2906403937
0!
#2906686937
1!
#2907937125
1"
#2907937125
0!
#2908937125
1!
#2913773812
0"
#2915336937
0!
#2915628937
1!
#2916775625
1"
#2924559937
0!
#2924861937
1!
#2934102937
0!
#2934415937
1!
#2944001937
0!
#2944326937
1!
#2954298937
0!
#2954637937
1!
#2962673250
0"
#2965046937
0!
#2965400937
1!
#2966981625
1"
#2974394750
0"
#2976310937
0!
#2976682937
1!
#2978357125
1"
#2986629312
0"
#2988172937
0!
#2988565937
1!
#2990353687
1"
#2999495750
0"
#3000739937
0!
#3001157937
1!
#3003078125
1"
#3013153000
0"
#3014154937
0!
#3014602937
1!
#3016695187
1"
#3027805812
0"
#3028616937
0!
#3029102937
1!
#3031403125
1"
#3031403125
0!
#3032403125
1!
#3043730750
0"
#3044416937
0!
#3044952937
1!
#3047543312
1"
#3062015937
0!
#3062602250
0"
#3062620937
1!
#3065604125
1"
#3082215937
0!
#3082924937
1!
#3083476750
0"
#3086478687
1"
#3106690937
0!
#3107587937
1!
#3109070312
0"
#3112072125
1"
#3140501937
0!
#3141918937
1!
#5158521875
1#
