analysis/wokwi-logic.vcd
$version Generated by Wokwi.com $end
$date Mon, 08 Sep 2025 17:16:58 GMT $end
$timescale 1ns $end
$scope module logic $end
$var wire 1 ! D2 $end
$var wire 1 " D3 $end
$var wire 1 # D4 $end
$upscope $end
$enddefinitions $end
#0
0!
#0
0"
#0
0#
#0
1!
#5037750
1"
#5037750
0!
#6037750
1!
#1006807187
1#
#1026807187
0!
#1027473187
1!
#1047473187
0!
#1048139187
1!
#1068139187
0!
#1068805187
1!
#1088805187
0!
#1089471187
1!
#1109471187
0!
#1110137187
1!
#1110840625
0"
#1113842687
1"
#1130137187
0!
#1130803187
1!
#1131507187
0"
#1134509375
1"
#1150803187
0!
#1151469187
1!
#1152173125
0"
#1155174875
1"
#1171469187
0!
#1172135187
1!
#1172839625
0"
#1175841812
1"
#1192135187
0!
#1192801187
1!
#1193505312
0"
#1196506937
1"
#1196506937
0!
#1197506937
1!
#1212801187
0!
#1213467187
1!
#1214171687
0"
#1217173375
1"
#1233467187
0!
#1234133187
1!
#1234836687
0"
#1237838875
1"
#1237838875
0!
#1238838875
1!
#1254133187
0!
#1254799187
1!
#1255503187
0"
#1258504937
1"
#1274799187
0!
#1275465187
1!
#1276169250
0"
#1279170875
1"
#1295465187
0!
#1296131187
1!
#1296835250
0"
#1299837437
1"
#1316131187
0!
#1316797187
1!
#1317501125
0"
#1320502937
1"
#1336797187
0!
#1337463187
1!
#1338167312
0"
#1341168875
1"
#1357463187
0!
#1358129187
1!
#1358833125
0"
#1361834875
1"
#1378129187
0!
#1378795187
1!
#1379499125
0"
#1382500937
1"
#1398795187
0!
#1399461187
1!
#1400165125
0"
#1403166875
1"
#1419461187
0!
#1420127187
1!
#1420831250
0"
#1423833437
1"
#1423833437
0!
#1424833437
1!
#1440127187
0!
#1440793187
1!
#1441497375
0"
#1444498875
1"
#1460793187
0!
#1461459187
1!
#1462163187
0"
#1465164937
1"
#1481459187
0!
#1482125187
1!
#1482829125
0"
#1485830875
1"
#1502125187
0!
#1502791187
1!
#1503495250
0"
#1506496875
1"
#1522791187
0!
#1523457187
1!
#1524161125
0"
#1527163187
1"
#1543457187
0!
#1544123187
1!
#1544827187
0"
#1547828875
1"
#1564123187
0!
#1564789187
1!
#1565493187
0"
#1568495000
1"
#1584789187
0!
#1585455187
1!
#1586159125
0"
#1589160875
1"
#1605455187
0!
#1606121187
1!
#1606825187
0"
#1609827375
1"
#1626121187
0!
#1626787187
1!
#1627491687
0"
#1630493437
1"
#1646787187
0!
#1647453187
1!
#1648156625
0"
#1651158562
1"
#1667453187
0!
#1668119187
1!
#1668823187
0"
#1671825125
1"
#1688119187
0!
#1688785187
1!
#1689489187
0"
#1692490937
1"
#1708785187
0!
#1709451187
1!
#1710155187
0"
#1713157125
1"
#1729451187
0!
#1730117187
1!
#1730821687
0"
#1733823437
1"
#1750117187
0!
#1750783187
1!
#1751487687
0"
#1754489875
1"
#1770783187
0!
#1771449187
1!
#1772153375
0"
#1775154875
1"
#1791449187
0!
#1792115187
1!
#1792819625
0"
#1795821375
1"
#1812115187
0!
#1812781187
1!
#1813485125
0"
#1816487312
1"
#1832781187
0!
#1833447187
1!
#1834151125
0"
#1837153062
1"
#1837153062
0!
#1838153062
1!
#1853447187
0!
#1854113187
1!
#1854817625
0"
#1857819812
1"
#1874113187
0!
#1874779187
1!
#1875483125
0"
#1878484937
1"
#1894779187
0!
#1895445187
1!
#1896149125
0"
#1899150937
1"
#1915445187
0!
#1916111187
1!
#1916815125
0"
#1919816937
1"
#1936111187
0!
#1936777187
1!
#1937481562
0"
#1940482875
1"
#1956777187
0!
#1957443187
1!
#1958147875
0"
#1961149500
1"
#1961149500
0!
#1962149500
1!
#1977443187
0!
#1978109187
1!
#1978813625
0"
#1981815687
1"
#1998109187
0!
#1998775187
1!
#1999479625
0"
#2002481687
1"
#2018775187
0!
#2019441187
1!
#2020144687
0"
#2023146750
1"
#2039441187
0!
#2040107187
1!
#2040811375
0"
#2043812875
1"
#2060107187
0!
#2060773187
1!
#2061477375
0"
#2064478874
1"
#2080773187
0!
#2081439187
1!
#2082143750
0"
#2085145937
1"
#2101439187
0!
#2102105187
1!
#2102809687
0"
#2105811375
1"
#2121961187
0!
#2122618187
1!
#2123300687
0"
#2126302374
1"
#2142236187
0!
#2142886187
1!
#2143512562
0"
#2146513875
1"
#2162274187
0!
#2162916187
1!
#2163489125
0"
#2166491312
1"
#2182082187
0!
#2182717187
1!
#2183226687
0"
#2186228750
1"
#2201668187
0!
#2202296187
1!
#2202756187
0"
#2205758375
1"
#2221040187
0!
#2221661187
1!
#2222083687
0"
#2225085500
1"
#2240204187
0!
#2240818187
1!
#2241192625
0"
#2244194375
1"
#2259166187
0!
#2259774187
1!
#2260102625
0"
#2263104625
1"
#2277934187
0!
#2278536187
1!
#2278819687
0"
#2281821437
1"
#2296513187
0!
#2297109187
1!
#2297349687
0"
#2300351375
1"
#2314908187
0!
#2315498187
1!
#2315696187
0"
#2318697937
1"
#2333125187
0!
#2333709187
1!
#2333866625
0"
#2336868562
1"
#2351169187
0!
#2351748187
1!
#2351865625
0"
#2354867375
1"
#2369045187
0!
#2369619187
1!
#2369696625
0"
#2372698437
1"
#2386758187
0!
#2387326187
1!
#2387366625
0"
#2390368750
1"
#2404311187
0!
#2404874187
1!
#2404887125
0"
#2407888875
1"
#2421709187
0!
#2422244125
0"
#2422267187
1!
#2425245875
1"
#2438956187
0!
#2439451187
0"
#2439509187
1!
#2442453375
1"
#2456056187
0!
#2456502687
0"
#2456605187
1!
#2459504875
1"
#2459504875
0!
#2460504875
1!
#2473013187
0!
#2473430187
0"
#2473557187
1!
#2476431937
1"
#2489830187
0!
#2490210187
0"
#2490370187
1!
#2493212375
1"
#2506511187
0!
#2506874375
0"
#2507046187
1!
#2509853812
1"
#2523058187
0!
#2523424937
0"
#2523589187
1!
#2526364937
1"
#2539475187
0!
#2539841375
0"
#2540002187
1!
#2542755937
1"
#2555765187
0!
#2556128625
0"
#2556288187
1!
#2559011375
1"
#2571931187
0!
#2572293312
0"
#2572450187
1!
#2575144187
1"
#2587976187
0!
#2588337875
0"
#2588491187
1!
#2591164875
1"
#2603902187
0!
#2604263437
0"
#2604413187
1!
#2607058437
1"
#2619712187
0!
#2620075062
0"
#2620220187
1!
#2622836687
1"
#2635409187
0!
#2635773187
0"
#2635913187
1!
#2638502375
1"
#2650995187
0!
#2651357562
0"
#2651495187
1!
#2654066937
1"
#2666471187
0!
#2666833937
0"
#2666968187
1!
#2669512937
1"
#2681841187
0!
#2682205500
0"
#2682335187
1!
#2684852875
1"
#2697107187
0!
#2697597187
1!
#2712167937
0"
#2712270187
0!
#2712757187
1!
#2715169375
1"
#2715169375
0!
#2716169375
1!
#2727203187
0"
#2727334187
0!
#2727818187
1!
#2730204937
1"
#2742144125
0"
#2742299187
0!
#2742780187
1!
#2745146312
1"
#2756994687
0"
#2757168187
0!
#2757646187
1!
#2759996875
1"
#2771744625
0"
#2771943187
0!
#2772418187
1!
#2774746437
1"
#2786403187
0"
#2786625187
0!
#2787097187
1!
#2789404875
1"
#2800977125
0"
#2801216187
0!
#2801685187
1!
#2803979062
1"
#2815455187
0"
#2815717187
0!
#2816183187
1!
#2818456937
1"
#2829853187
0"
#2830131187
0!
#2830594187
1!
#2832854937
1"
#2844158125
0"
#2844458187
0!
#2844918187
1!
#2847159875
1"
#2858385625
0"
#2858700187
0!
#2859158187
1!
#2861387562
1"
#2861387562
0!
#2862387562
1!
#2872521937
0"
#2872860187
0!
#2873315187
1!
#2875523375
1"
#2886587312
0"
#2886938187
0!
#2887390187
1!
#2889588875
1"
#2900564000
0"
#2900935187
0!
#2901385187
1!
#2903565375
1"
#2914466687
0"
#2914854187
0!
#2915301187
1!
#2917468812
1"
#2928287125
0"
#2928695187
0!
#2929140187
1!
#2931288875
1"
#2942039625
0"
#2942460187
0!
#2942902187
1!
#2945041375
1"
#2955708875
0"
#2956149187
0!
#2956589187
1!
#2958710375
1"
#2969302625
0"
#2969764187
0!
#2970202187
1!
#2972304625
1"
#2982832125
0"
#2983307187
0!
#2983742187
1!
#2985833937
1"
#2996292125
0"
#2996778187
0!
#2997211187
1!
#2999294062
1"
#3009672812
0"
#3010179187
0!
#3010610187
1!
#3012674500
1"
#3022992625
0"
#3023511187
0!
#3023939187
1!
#3025994375
1"
#3025994375
0!
#3026994375
1!
#3036238687
0"
#3036774187
0!
#3037200187
1!
#3039240687
1"
#3039240687
0!
#3040240687
1!
#3049422625
0"
#3049970187
0!
#3050394187
1!
#3052424375
1"
#3062533125
0"
#3063100187
0!
#3063522187
1!
#3065534937
1"
#3065534937
0!
#3066534937
1!
#3075586125
0"
#3076164187
0!
#3076584187
1!
#3078588187
1"
#3088574875
0"
#3089164187
0!
#3089582187
1!
#3091576625
1"
#3101493687
0"
#3102101187
0!
#3102517187
1!
#3104495437
1"
#3114357625
0"
#3114976187
0!
#3115390187
1!
#3117359562
1"
#3127154125
0"
#3127789187
0!
#3128201187
1!
#3130155875
1"
#3139895437
0"
#3140541187
0!
#3140951187
1!
#3142897125
1"
#3152570625
0"
#3153234187
0!
#3153642187
1!
#3155572375
1"
#3165193687
0"
#3165868187
0!
#3166274187
1!
#3168195812
1"
#3177760125
0"
#3178443187
0!
#3178847187
1!
#3180761937
1"
#3190260625
0"
#3190961187
0!
#3191363187
1!
#3193262750
1"
#3202712125
0"
#3203422187
0!
#3203823187
1!
#3205714312
1"
#3215107625
0"
#3215828187
0!
#3216227187
1!
#3218109937
1"
#3227442312
0"
#3228179187
0!
#3228576187
1!
#3230443875
1"
#3239730937
0"
#3240475187
0!
#3240870187
1!
#3242732562
1"
#3251956625
0"
#3252717187
0!
#3253111187
1!
#3254958375
1"
#3254958375
0!
#3255958375
1!
#3264136562
0"
#3264907187
0!
#3265299187
1!
#3267137875
1"
#3276258187
0"
#3277045187
0!
#3277435187
1!
#3279259875
1"
#3288335625
0"
#3289131187
0!
#3289519187
1!
#3291337375
1"
#3300362750
0"
#3301165187
0!
#3301552187
1!
#3303364375
1"
#3312336187
0"
#3313150187
0!
#3313535187
1!
#3315337875
1"
#3324258000
0"
#3325085187
0!
#3325469187
1!
#3327259375
1"
#3336134625
0"
#3336971187
0!
#3337353187
1!
#3339136625
1"
#3347963312
0"
#3348808187
0!
#3349189187
1!
#3350964937
1"
#3359744187
0"
#3360598187
0!
#3360977187
1!
#3362745875
1"
#3371472375
0"
#3372340187
0!
#3372717187
1!
#3374473875
1"
#3383159125
0"
#3384035187
0!
#3384411187
1!
#3386160937
1"
#3394799625
0"
#3395684187
0!
#3396059187
1!
#3397801750
1"
#3406396437
0"
#3407288187
0!
#3407661187
1!
#3409397875
1"
#3417940187
0"
#3418846187
0!
#3419218187
1!
#3420941875
1"
#3429445625
0"
#3430360187
0!
#3430730187
1!
#3432447500
1"
#3440908187
0"
#3441830187
0!
#3442199187
1!
#3443909937
1"
#3452326687
0"
#3453257187
0!
#3453624187
1!
#3455328437
1"
#3463697312
0"
#3464640187
0!
#3465006187
1!
#3466698937
1"
#3475030687
0"
#3475981187
0!
#3476346187
1!
#3478032812
1"
#3486322437
0"
#3487280187
0!
#3487643187
1!
#3489323875
1"
#3497572625
0"
#3498537187
0!
#3498899187
1!
#3500574437
1"
#3508775125
0"
#3509753187
0!
#3510113187
1!
#3511776875
1"
#3519943625
0"
#3520927187
0!
#3521286187
1!
#3522945375
1"
#3531069250
0"
#3532061187
0!
#3532419187
1!
#3534070937
1"
#3542156187
0"
#3543156187
0!
#3543513187
1!
#3545157875
1"
#3545157875
0!
#3546157875
1!
#3553200125
0"
#3554212187
0!
#3554567187
1!
#3556202437
1"
#3564209312
0"
#3565228187
0!
#3565582187
1!
#3567210875
1"
#3575180125
0"
#3576205187
0!
#3576558187
1!
#3578181875
1"
#3586112125
0"
#3587145187
0!
#3587497187
1!
#3589114000
1"
#3597001625
0"
#3598047187
0!
#3598398187
1!
#3600003375
1"
#3607860125
0"
#3608912187
0!
#3609261187
1!
#3610862312
1"
#3618682187
0"
#3619739187
0!
#3620087187
1!
#3621683875
1"
#3629466125
0"
#3630529187
0!
#3630876187
1!
#3632468000
1"
#3640207187
0"
#3641283187
0!
#3641629187
1!
#3643208875
1"
#3643208875
0!
#3644208875
1!
#3650918625
0"
#3652001187
0!
#3652346187
1!
#3653920437
1"
#3661594687
0"
#3662684187
0!
#3663027187
1!
#3664596375
1"
#3672237125
0"
#3673331187
0!
#3673673187
1!
#3675238875
1"
#3682842750
0"
#3683943187
0!
#3684284187
1!
#3685844437
1"
#3693408125
0"
#3694521187
0!
#3694861187
1!
#3696410437
1"
#3696410437
0!
#3697410437
1!
#3703946125
0"
#3705065187
0!
#3705404187
1!
#3706947875
1"
#3714450687
0"
#3715575187
0!
#3715913187
1!
#3717452375
1"
#3724922187
0"
#3726051187
0!
#3726388187
1!
#3727924375
1"
#3735358187
0"
#3736494187
0!
#3736830187
1!
#3738359875
1"
#3745762125
0"
#3746904187
0!
#3747239187
1!
#3748763875
1"
#3756134187
0"
#3757282187
0!
#3757616187
1!
#3759135875
1"
#3766474625
0"
#3767628187
0!
#3767961187
1!
#3769476875
1"
#3776783125
0"
#3777942187
0!
#3778274187
1!
#3779784875
1"
#3787054187
0"
#3788224187
0!
#3788554187
1!
#3790055875
1"
#3797299937
0"
#3798474187
0!
#3798804187
1!
#3800301875
1"
#3807513625
0"
#3808694187
0!
#3809023187
1!
#3810515375
1"
#3817696687
0"
#3818883187
0!
#3819211187
1!
#3820698437
1"
#3827850187
0"
#3829041187
0!
#3829368187
1!
#3830852062
1"
#3837972187
0"
#3839169187
0!
#3839495187
1!
#3840974187
1"
#3848065687
0"
#3849267187
0!
#3849592187
1!
#3851067375
1"
#3858128687
0"
#3859335187
0!
#3859659187
1!
#3861130375
1"
#3868162125
0"
#3869373187
0!
#3869696187
1!
#3871163937
1"
#3878159625
0"
#3879382187
0!
#3879704187
1!
#3881161437
1"
#3881161437
0!
#3882161437
1!
#3888134687
0"
#3889362187
0!
#3889683187
1!
#3891136875
1"
#3898081187
0"
#3899313187
0!
#3899633187
1!
#3901082937
1"
#3907998687
0"
#3909236187
0!
#3909555187
1!
#3911000937
1"
#3917888625
0"
#3919130187
0!
#3919448187
1!
#3920890812
1"
#3927748687
0"
#3928996187
0!
#3929313187
1!
#3930750375
1"
#3937582687
0"
#3938834187
0!
#3939150187
1!
#3940584937
1"
#3947387687
0"
#3948645187
0!
#3948961187
1!
#3950389375
1"
#3957166687
0"
#3958429187
0!
#3958744187
1!
#3960168375
1"
#3966914187
0"
#3968186187
0!
#3968500187
1!
#3969915875
1"
#3976639187
0"
#3977916187
0!
#3978229187
1!
#3979641312
1"
#3986338437
0"
#3987619187
0!
#3987931187
1!
#3989339875
1"
#3996011187
0"
#3997296187
0!
#3997607187
1!
#3999013187
1"
#4005656187
0"
#4006946187
0!
#4007257187
1!
#4008657937
1"
#4015275625
0"
#4016571187
0!
#4016880187
1!
#4018277437
1"
#4024870687
0"
#4026169187
0!
#4026478187
1!
#4027872375
1"
#4034438125
0"
#4035743187
0!
#4036051187
1!
#4037439937
1"
#4043986687
0"
#4045291187
0!
#4045598187
1!
#4046988437
1"
#4053496687
0"
#4054814187
0!
#4055120187
1!
#4056498750
1"
#4062990187
0"
#4064311187
0!
#4064616187
1!
#4065991937
1"
#4072457625
0"
#4073783187
0!
#4074088187
1!
#4075459500
1"
#4081901625
0"
#4083232187
0!
#4083536187
1!
#4084903374
1"
#4091321312
0"
#4092656187
0!
#4092959187
1!
#4094322874
1"
#4100716624
0"
#4102056187
0!
#4102358187
1!
#4103718374
1"
#4103718374
0!
#4104718375
1!
#4110089125
0"
#4111431187
0!
#4111733187
1!
#4113090937
1"
#4119435187
0"
#4120783187
0!
#4121084187
1!
#4122436875
1"
#4128761437
0"
#4130111187
0!
#4130411187
1!
#4131763437
1"
#4138060125
0"
#4139416187
0!
#4139715187
1!
#4141061875
1"
#4147338125
0"
#4148697187
0!
#4148996187
1!
#4150339875
1"
#4156592125
0"
#4157956187
0!
#4158254187
1!
#4159593874
1"
#4165824187
0"
#4167192187
0!
#4167489187
1!
#4168825874
1"
#4175033625
0"
#4176405187
0!
#4176701187
1!
#4178035437
1"
#4184220625
0"
#4185594187
0!
#4185890187
1!
#4187222812
1"
#4193382125
0"
#4194762187
0!
#4195057187
1!
#4196383937
1"
#4202524624
0"
#4203907187
0!
#4204201187
1!
#4205526437
1"
#4211644125
0"
#4213030187
0!
#4213324187
1!
#4214645875
1"
#4214645875
0!
#4215645875
1!
#4220740125
0"
#4222132187
0!
#4222425187
1!
#4223741875
1"
#4229817625
0"
#4231211187
0!
#4231503187
1!
#4232819375
1"
#4238870624
0"
#4240268187
0!
#4240559187
1!
#4241872375
1"
#4247902125
0"
#4249304187
0!
#4249595187
1!
#4250903937
1"
#4256913562
0"
#4258319187
0!
#4258609187
1!
#4259914875
1"
#4265903125
0"
#4267313187
0!
#4267602187
1!
#4268905250
1"
#4274873125
0"
#4276285187
0!
#4276574187
1!
#4277874875
1"
#4283814625
0"
#4285237187
0!
#4285525187
1!
#4286816875
1"
#4292743125
0"
#4294168187
0!
#4294455187
1!
#4295744875
1"
#4301649687
0"
#4303078187
0!
#4303365187
1!
#4304651375
1"
#4310535625
0"
#4311968187
0!
#4312254187
1!
#4313537375
1"
#4319402125
0"
#4320837187
0!
#4321122187
1!
#4322403875
1"
#4328246625
0"
#4329686187
0!
#4329971187
1!
#4331248437
1"
#4337072937
0"
#4338515187
0!
#4338799187
1!
#4340074375
1"
#4345878187
0"
#4347324187
0!
#4347607187
1!
#4348880437
1"
#4348880437
0!
#4349880437
1!
#4354663187
0"
#4356113187
0!
#4356396187
1!
#4357664937
1"
#4363429750
0"
#4364883187
0!
#4365165187
1!
#4366431875
1"
#4372177687
0"
#4373633187
0!
#4373915187
1!
#4375179687
1"
#4382364187
0!
#4382645187
1!
#4391076187
0!
#4391356187
1!
#4399768187
0!
#4400048187
1!
#4408442187
0!
#4408721187
1!
#4415674125
0"
#4417097187
0!
#4417375187
1!
#4418676062
1"
#4424280625
0"
#4425732187
0!
#4426010187
1!
#4427282375
1"
#4432876625
0"
#4434349187
0!
#4434626187
1!
#4435878437
1"
#4441461187
0"
#4442948187
0!
#4443225187
1!
#4444462937
1"
#4444462937
0!
#4445462937
1!
#4450033125
0"
#4451529187
0!
#4451805187
1!
#4453034937
1"
#4458591062
0"
#4460091187
0!
#4460366187
1!
#4461592437
1"
#4467128625
0"
#4468634187
0!
#4468909187
1!
#4470130375
1"
#4475649625
0"
#4477160187
0!
#4477434187
1!
#4478651375
1"
#4484155625
0"
#4485668187
0!
#4485942187
1!
#4487157375
1"
#4492643500
0"
#4494158187
0!
#4494431187
1!
#4495645375
1"
#4501114187
0"
#4502630187
0!
#4502903187
1!
#4504116062
1"
#4509570187
0"
#4511085187
0!
#4511357187
1!
#4512571875
1"
#4518006437
0"
#4519522187
0!
#4519793187
1!
#4521007875
1"
#4526423625
0"
#4527941187
0!
#4528212187
1!
#4529425375
1"
#4534822625
0"
#4536344187
0!
#4536614187
1!
#4537824375
1"
#4543207125
0"
#4544729187
0!
#4544999187
1!
#4546209125
1"
#4546209125
0!
#4547209125
1!
#4551573000
0"
#4553097187
0!
#4553366187
1!
#4554574375
1"
#4559922125
0"
#4561448187
0!
#4561717187
1!
#4562923875
1"
#4568253312
0"
#4569783187
0!
#4570051187
1!
#4571254875
1"
#4576570062
0"
#4578101187
0!
#4578369187
1!
#4579571375
1"
#4584868625
0"
#4586402187
0!
#4586669187
1!
#4587870937
1"
#4593150625
0"
#4594686187
0!
#4594952187
1!
#4596152375
1"
#4601415125
0"
#4602954187
0!
#4603220187
1!
#4604417125
1"
#4604417125
0!
#4605417125
1!
#4609664625
0"
#4611206187
0!
#4611471187
1!
#4612666437
1"
#4617897687
0"
#4619441187
0!
#4619706187
1!
#4620899437
1"
#4626113625
0"
#4627660187
0!
#4627924187
1!
#4629115437
1"
#4634320625
0"
#4635863187
0!
#4636127187
1!
#4637322375
1"
#4642498125
0"
#4644050187
0!
#4644314187
1!
#4645500000
1"
#4650667187
0"
#4652222187
0!
#4652485187
1!
#4653669187
1"
#4658820625
0"
#4660378187
0!
#4660640187
1!
#4661822812
1"
#4666959187
0"
#4668517187
0!
#4668779187
1!
#4669960937
1"
#4675079500
0"
#4676641187
0!
#4676902187
1!
#4678080875
1"
#4678080875
0!
#4679080875
1!
#4683186125
0"
#4684749187
0!
#4685010187
1!
#4686187875
1"
#4686187875
0!
#4687187875
1!
#4691275125
0"
#4692842187
0!
#4693102187
1!
#4694276875
1"
#4699350687
0"
#4700919187
0!
#4701179187
1!
#4702352375
1"
#4707409187
0"
#4708982187
0!
#4709241187
1!
#4710410875
1"
#4715454187
0"
#4717029187
0!
#4717288187
1!
#4718455875
1"
#4723484000
0"
#4725061187
0!
#4725319187
1!
#4726485375
1"
#4731498125
0"
#4733078187
0!
#4733336187
1!
#4734499875
1"
#4739497687
0"
#4741081187
0!
#4741338187
1!
#4742499437
1"
#4747484062
0"
#4749068187
0!
#4749325187
1!
#4750485500
1"
#4755453187
0"
#4757041187
0!
#4757298187
1!
#4758454937
1"
#4763409562
0"
#4765000187
0!
#4765256187
1!
#4766410937
1"
#4771352187
0"
#4772944187
0!
#4773200187
1!
#4774354062
1"
#4779278687
0"
#4780873187
0!
#4781128187
1!
#4782280375
1"
#4787195125
0"
#4788787187
0!
#4789042187
1!
#4790196937
1"
#4795091187
0"
#4796688187
0!
#4796942187
1!
#4798093125
1"
#4802976187
0"
#4804574187
0!
#4804828187
1!
#4805977937
1"
#4810845125
0"
#4812446187
0!
#4812699187
1!
#4813846875
1"
#4818700625
0"
#4820303187
0!
#4820556187
1!
#4821702625
1"
#4821702625
0!
#4822702625
1!
#4826541187
0"
#4828147187
0!
#4828399187
1!
#4829543062
1"
#4834368687
0"
#4835976187
0!
#4836228187
1!
#4837370375
1"
#4842181625
0"
#4843792187
0!
#4844044187
1!
#4845183437
1"
#4849981187
0"
#4851594187
0!
#4851845187
1!
#4852982937
1"
#4857767125
0"
#4859382187
0!
#4859633187
1!
#4860768937
1"
#4865538750
0"
#4867157187
0!
#4867407187
1!
#4868540437
1"
#4868540437
0!
#4869540437
1!
#4873298125
0"
#4874918187
0!
#4875167187
1!
#4876299875
1"
#4881043687
0"
#4882665187
0!
#4882914187
1!
#4884045375
1"
#4888773625
0"
#4890398187
0!
#4890647187
1!
#4891775437
1"
#4896491625
0"
#4898119187
0!
#4898367187
1!
#4899493375
1"
#4904196875
0"
#4905826187
0!
#4906074187
1!
#4907198375
1"
#4911887625
0"
#4913520187
0!
#4913768187
1!
#4914889437
1"
#4919566625
0"
#4921201187
0!
#4921448187
1!
#4922568375
1"
#4927232187
0"
#4928868187
0!
#4929115187
1!
#4930233875
1"
#4930233875
0!
#4931233875
1!
#4934883625
0"
#4936523187
0!
#4936769187
1!
#4937885437
1"
#4942523625
0"
#4944164187
0!
#4944410187
1!
#4945525375
1"
#4950149125
0"
#4951793187
0!
#4952038187
1!
#4953150875
1"
#4957764187
0"
#4959408187
0!
#4959653187
1!
#4960765937
1"
#4965363062
0"
#4967011187
0!
#4967256187
1!
#4968364437
1"
#4968364437
0!
#4969364437
1!
#4972955125
0"
#4974602187
0!
#4974846187
1!
#4975956875
1"
#4980532125
0"
#4982179187
0!
#4982423187
1!
#4983534062
1"
#4988093625
0"
#4989744187
0!
#4989987187
1!
#4991095437
1"
#4995644625
0"
#4997296187
0!
#4997539187
1!
#4998646375
1"
#5003180750
0"
#5004836187
0!
#5005078187
1!
#5006182437
1"
#5010706625
0"
#5012363187
0!
#5012605187
1!
#5013714125
1"
#5018218812
0"
#5019878187
0!
#5020120187
1!
#5021220375
1"
#5025719375
0"
#5027381187
0!
#5027622187
1!
#5028720875
1"
#5033209187
0"
#5034871187
0!
#5035112187
1!
#5036210937
1"
#5040683187
0"
#5042350187
0!
#5042591187
1!
#5043684875
1"
#5048168937
0"
#5049817187
0!
#5050057187
1!
#5051150437
1"
#5055622000
0"
#5057271187
0!
#5057511187
1!
#5058603500
1"
#5063062625
0"
#5064713187
0!
#5064953187
1!
#5066044437
1"
#5070489187
0"
#5072144187
0!
#5072383187
1!
#5073470937
1"
#5077926687
0"
#5079562187
0!
#5079801187
1!
#5080888562
1"
#5085330625
0"
#5086969187
0!
#5087208187
1!
#5088292500
1"
#5092723687
0"
#5094365187
0!
#5094603187
1!
#5095685437
1"
#5100106625
0"
#5101748187
0!
#5101985187
1!
#5103068437
1"
#5107499687
0"
#5109119187
0!
#5109356187
1!
#5110441437
1"
#5114856187
0"
#5116479187
0!
#5116716187
1!
#5117798187
1"
#5122202625
0"
#5123827187
0!
#5124063187
1!
#5125144437
1"
#5129537312
0"
#5131164187
0!
#5131400187
1!
#5132478875
1"
#5136882000
0"
#5138489187
0!
#5138725187
1!
#5139803375
1"
#5144192187
0"
#5145803187
0!
#5146038187
1!
#5147113875
1"
#5151500687
0"
#5153105187
0!
#5153340187
1!
#5154422375
1"
#5158780625
0"
#5160396187
0!
#5160630187
1!
#5161702375
1"
#5166059625
0"
#5167676187
0!
#5167910187
1!
#5168981750
1"
#5173345625
0"
#5174945187
0!
#5175179187
1!
#5176247562
1"
#5180601812
0"
#5182203187
0!
#5182437187
1!
#5183503437
1"
#5187847250
0"
#5189450187
0!
#5189683187
1!
#5190749437
1"
#5195081187
0"
#5196686187
0!
#5196919187
1!
#5197982937
1"
#5202324625
0"
#5203911187
0!
#5204143187
1!
#5205206375
1"
#5209537125
0"
#5211124187
0!
#5211356187
1!
#5212419250
1"
#5216736125
0"
#5218327187
0!
#5218559187
1!
#5219618250
1"
#5219618250
0!
#5220618250
1!
#5223927187
0"
#5225519187
0!
#5225750187
1!
#5226808937
1"
#5231107187
0"
#5232700187
0!
#5232931187
1!
#5233988875
1"
#5233988875
0!
#5234988875
1!
#5238294125
0"
#5239871187
0!
#5240102187
1!
#5241156187
1"
#5241156187
0!
#5242156187
1!
#5245457625
0"
#5247031187
0!
#5247262187
1!
#5248319875
1"
#5252604125
0"
#5254181187
0!
#5254411187
1!
#5255465937
1"
#5255465937
0!
#5256465937
1!
#5259743187
0"
#5261319187
0!
#5261549187
1!
#5262605312
1"
#5266867625
0"
#5268447187
0!
#5268676187
1!
#5269729375
1"
#5274003312
0"
#5275564187
0!
#5275793187
1!
#5276844937
1"
#5281108000
0"
#5282671187
0!
#5282900187
1!
#5283949375
1"
#5288202687
0"
#5289768187
0!
#5289996187
1!
#5291044937
1"
#5295287625
0"
#5296854187
0!
#5297082187
1!
#5298129375
1"
#5302381625
0"
#5303930187
0!
#5304157187
1!
#5305203812
1"
#5309444687
0"
#5310995187
0!
#5311222187
1!
#5312266625
1"
#5312266625
0!
#5313266625
1!
#5316498937
0"
#5318050187
0!
#5318277187
1!
#5319320875
1"
#5319320875
0!
#5320320875
1!
#5323541125
0"
#5325095187
0!
#5325322187
1!
#5326362875
1"
#5330573187
0"
#5332131187
0!
#5332357187
1!
#5333394875
1"
#5337618437
0"
#5339156187
0!
#5339382187
1!
#5340419875
1"
#5344631125
0"
#5346171187
0!
#5346397187
1!
#5347432875
1"
#5351634687
0"
#5353176187
0!
#5353402187
1!
#5354436437
1"
#5358628687
0"
#5360172187
0!
#5360397187
1!
#5361430437
1"
#5365612625
0"
#5367157187
0!
#5367381187
1!
#5368414375
1"
#5372605625
0"
#5374132187
0!
#5374356187
1!
#5375387375
1"
#5379573625
0"
#5381097187
0!
#5381321187
1!
#5382355375
1"
#5386526562
0"
#5388053187
0!
#5388277187
1!
#5389308375
1"
#5393470625
0"
#5394999187
0!
#5395222187
1!
#5396252437
1"
#5400405625
0"
#5401935187
0!
#5402158187
1!
#5403187375
1"
#5407329687
0"
#5408861187
0!
#5409084187
1!
#5410111437
1"
#5414264625
0"
#5415778187
0!
#5416000187
1!
#5417026375
1"
#5421170125
0"
#5422685187
0!
#5422907187
1!
#5423931875
1"
#5428065625
0"
#5429583187
0!
#5429805187
1!
#5430827375
1"
#5434953625
0"
#5436472187
0!
#5436694187
1!
#5437715375
1"
#5441830687
0"
#5443351187
0!
#5443572187
1!
#5444592750
1"
#5448719125
0"
#5450220187
0!
#5450441187
1!
#5451460937
1"
#5455576187
0"
#5457080187
0!
#5457301187
1!
#5458318000
1"
#5462426062
0"
#5463931187
0!
#5464151187
1!
#5465167437
1"
#5469265625
0"
#5470772187
0!
#5470992187
1!
#5472007375
1"
#5476099125
0"
#5477604187
0!
#5477824187
1!
#5478841062
1"
#5482941562
0"
#5484427187
0!
#5484646187
1!
#5485662937
1"
#5485662937
0!
#5486662937
1!
#5489753875
0"
#5491240187
0!
#5491459187
1!
#5492475375
1"
#5496554625
0"
#5498045187
0!
#5498264187
1!
#5499276562
1"
#5503349187
0"
#5504840187
0!
#5505059187
1!
#5506071187
1"
#5510133625
0"
#5511626187
0!
#5511844187
1!
#5512855375
1"
#5516908687
0"
#5518403187
0!
#5518621187
1!
#5519630375
1"
#5523694625
0"
#5525171187
0!
#5525389187
1!
#5526396437
1"
#5530452625
0"
#5531930187
0!
#5532147187
1!
#5533154375
1"
#5533154375
0!
#5534154375
1!
#5537201687
0"
#5538680187
0!
#5538897187
1!
#5539903625
1"
#5543940687
0"
#5545421187
0!
#5545638187
1!
#5546642437
1"
#5550670625
0"
#5552154187
0!
#5552371187
1!
#5553372562
1"
#5557413625
0"
#5558878187
0!
#5559095187
1!
#5560095875
1"
#5564127625
0"
#5565594187
0!
#5565810187
1!
#5566809375
1"
#5570833750
0"
#5572300187
0!
#5572515187
1!
#5573515375
1"
#5577529125
0"
#5578997187
0!
#5579212187
1!
#5580210875
1"
#5584215625
0"
#5585685187
0!
