analysis/wokwi-logic.vcd
$version Generated by Wokwi.com $end
$date Fri, 05 Sep 2025 08:20:34 GMT $end
$timescale 1ns $end
$scope module logic $end
$var wire 1 ! D2 $end
$var wire 1 " D3 $end
$var wire 1 # D4 $end
$upscope $end
$enddefinitions $end
#0
0!
#0
0"
#0
0#
#0
1!
#5215562
1"
#1005962312
1#
#1025962312
0!
#1026628312
1!
#1046628312
0!
#1047294312
1!
#1067294312
0!
#1067960312
1!
#1087960312
0!
#1088626312
1!
#1108626312
0!
#1109292312
1!
#1109994937
0"
#1112994437
1"
#1129272312
0!
#1129938312
1!
#1130636250
0"
#1133635875
1"
#1149898312
0!
#1150562312
1!
#1151258687
0"
#1154257875
1"
#1170501312
0!
#1171165312
1!
#1171856312
0"
#1174855875
1"
#1191084312
0!
#1191748312
1!
#1192435750
0"
#1195435437
1"
#1211646312
0!
#1212307312
1!
#1212992750
0"
#1215992375
1"
#1232185312
0!
#1232846312
1!
#1233526812
0"
#1236526375
1"
#1252704312
0!
#1253365312
1!
#1254042312
0"
#1257041375
1"
#1273202312
0!
#1273863312
1!
#1274535250
0"
#1277534875
1"
#1293680312
0!
#1294339312
1!
#1295008750
0"
#1298008625
1"
#1314137312
0!
#1314796312
1!
#1315462500
0"
#1318462375
1"
#1334574312
0!
#1335233312
1!
#1335894250
0"
#1338893875
1"
#1354989312
0!
#1355648312
1!
#1356304750
0"
#1359304375
1"
#1375385312
0!
#1376042312
1!
#1376685750
0"
#1379685625
1"
#1395759312
0!
#1396416312
1!
#1397055250
0"
#1400054437
1"
#1416114312
0!
#1416769312
1!
#1417406312
0"
#1420405875
1"
#1436447312
0!
#1437102312
1!
#1437733750
0"
#1440733375
1"
#1456761312
0!
#1457416312
1!
#1458043750
0"
#1461043375
1"
#1477055312
0!
#1477710312
1!
#1478333750
0"
#1481333375
1"
#1497330312
0!
#1497983312
1!
#1498605000
0"
#1501604875
1"
#1517583312
0!
#1518236312
1!
#1518853625
0"
#1521852875
1"
#1537817312
0!
#1538470312
1!
#1539083250
0"
#1542082937
1"
#1558031312
0!
#1558682312
1!
#1559293187
0"
#1562292375
1"
#1578224312
0!
#1578875312
1!
#1579481312
0"
#1582480875
1"
#1598397312
0!
#1599048312
1!
#1599639250
0"
#1602638875
1"
#1618551312
0!
#1619202312
1!
#1619789250
0"
#1622788875
1"
#1638687312
0!
#1639335312
1!
#1639921312
0"
#1642920937
1"
#1658801312
0!
#1659449312
1!
#1660030812
0"
#1663030375
1"
#1678895312
0!
#1679541312
1!
#1680120312
0"
#1683119937
1"
#1698968312
0!
#1699614312
1!
#1700189250
0"
#1703188937
1"
#1719023312
0!
#1719669312
1!
#1720240562
0"
#1723240437
1"
#1739059312
0!
#1739705312
1!
#1740272250
0"
#1743272125
1"
#1759075312
0!
#1759719312
1!
#1760284250
0"
#1763283875
1"
#1779070312
0!
#1779714312
1!
#1780268312
0"
#1783267937
1"
#1799047312
0!
#1799691312
1!
#1800236750
0"
#1803236437
1"
#1819005312
0!
#1819647312
1!
#1820196812
0"
#1823196437
1"
#1838943312
0!
#1839585312
1!
#1840123750
0"
#1843123437
1"
#1858862312
0!
#1859504312
1!
#1860039812
0"
#1863044812
1"
#1878761312
0!
#1879403312
1!
#1879934250
0"
#1882933875
1"
#1898643312
0!
#1899283312
1!
#1899812812
0"
#1902812562
1"
#1918506312
0!
#1919146312
1!
#1919671750
0"
#1922671375
1"
#1938349312
0!
#1938989312
1!
#1939510750
0"
#1942510375
1"
#1958175312
0!
#1958815312
1!
#1959333250
0"
#1962332875
1"
#1977983312
0!
#1978621312
1!
#1979126312
0"
#1982125937
1"
#1997770312
0!
#1998408312
1!
#1998909812
0"
#2001908874
1"
#2017539312
0!
#2018177312
1!
#2018674250
0"
#2021673937
1"
#2037289312
0!
#2037924312
1!
#2038420250
0"
#2041419875
1"
#2057019312
0!
#2057654312
1!
#2058146250
0"
#2061145874
1"
#2076731312
0!
#2077366312
1!
#2077854562
0"
#2080854437
1"
#2096426312
0!
#2097061312
1!
#2097545750
0"
#2100545374
1"
#2116101312
0!
#2116734312
1!
#2117216812
0"
#2120216437
1"
#2135757312
0!
#2136390312
1!
#2136869250
0"
#2139868875
1"
#2155396312
0!
#2156029312
1!
#2156504437
0"
#2159504312
1"
#2175017312
0!
#2175650312
1!
#2176121250
0"
#2179120875
1"
#2194621312
0!
#2195252312
1!
#2195710750
0"
#2198710375
1"
#2214205312
0!
#2214836312
1!
#2215290750
0"
#2218290437
1"
#2233770312
0!
#2234401312
1!
#2234851750
0"
#2237851375
1"
#2253318312
0!
#2253949312
1!
#2254396750
0"
#2257396437
1"
#2272848312
0!
#2273477312
1!
#2273922250
0"
#2276921875
1"
#2292361312
0!
#2292990312
1!
#2293431750
0"
#2296431375
1"
#2311855312
0!
#2312482312
1!
#2312922250
0"
#2315921875
1"
#2331329312
0!
#2331956312
1!
#2332391750
0"
#2335391375
1"
#2350786312
0!
#2351413312
1!
#2351845250
0"
#2354844875
1"
#2370228312
0!
#2370855312
1!
#2371284312
0"
#2374283875
1"
#2389650312
0!
#2390277312
1!
#2390702250
0"
#2393701937
1"
#2409057312
0!
#2409682312
1!
#2410105812
0"
#2413105437
1"
#2428445312
0!
#2429070312
1!
#2429489812
0"
#2432489875
1"
#2447815312
0!
#2448440312
1!
#2448856250
0"
#2451855875
1"
#2467168312
0!
#2467790312
1!
#2468194750
0"
#2471194375
1"
#2486500312
0!
#2487122312
1!
#2487522812
0"
#2490522375
1"
#2505815312
0!
#2506437312
1!
#2506833750
0"
#2509833375
1"
#2525115312
0!
#2525737312
1!
#2526130750
0"
#2529130375
1"
#2544398312
0!
#2545018312
1!
#2545410250
0"
#2548409875
1"
#2563661312
0!
#2564281312
1!
#2564669312
0"
#2567669062
1"
#2582907312
0!
#2583527312
1!
#2583912312
0"
#2586911875
1"
#2602138312
0!
#2602758312
1!
#2603139250
0"
#2606138937
1"
#2621351312
0!
#2621969312
1!
#2622348750
0"
#2625348625
1"
#2640547312
0!
#2641165312
1!
#2641541312
0"
#2644540875
1"
#2659726312
0!
#2660344312
1!
#2660716812
0"
#2663716375
1"
#2678887312
0!
#2679505312
1!
#2679874812
0"
#2682874375
1"
#2698033312
0!
#2698649312
1!
#2699016750
0"
#2702016375
1"
#2717160312
0!
#2717776312
1!
#2718140812
0"
#2721140437
1"
#2736272312
0!
#2736888312
1!
#2737248812
0"
#2740248562
1"
#2755366312
0!
#2755982312
1!
#2756328250
0"
#2759327875
1"
#2774445312
0!
#2775061312
1!
#2775404312
0"
#2778403937
1"
#2793507312
0!
#2794121312
1!
#2794462812
0"
#2797462437
1"
#2812551312
0!
#2813165312
1!
#2813503312
0"
#2816502875
1"
#2831578312
0!
#2832192312
1!
#2832526750
0"
#2835526437
1"
#2850590312
0!
#2851201312
1!
#2851535562
0"
#2854535437
1"
#2869582312
0!
#2870193312
1!
#2870523250
0"
#2873522937
1"
#2888558312
0!
#2889169312
1!
#2889496750
0"
#2892496437
1"
#2907519312
0!
#2908130312
1!
#2908457312
0"
#2911457062
1"
#2926463312
0!
#2927072312
1!
#2927393812
0"
#2930393437
1"
#2945390312
0!
#2945999312
1!
#2946317750
0"
#2949317375
1"
#2964301312
0!
#2964910312
1!
#2965225750
0"
#2968225375
1"
#2983197312
0!
#2983806312
1!
#2984119312
0"
#2987118937
1"
#3002076312
0!
#3002685312
1!
#3002993812
0"
#3005993437
1"
#3020940312
0!
#3021547312
1!
#3021844250
0"
#3024843875
1"
#3039787312
0!
#3040394312
1!
#3040687750
0"
#3043687375
1"
#3058618312
0!
#3059225312
1!
#3059515312
0"
#3062514875
1"
#3077432312
0!
#3078039312
1!
#3078325812
0"
#3081325437
1"
#3096231312
0!
#3096836312
1!
#3097122312
0"
#3100121375
1"
#3115013312
0!
#3115618312
1!
#3115900250
0"
#3118899875
1"
#3133779312
0!
#3134384312
1!
#3134663812
0"
#3137663437
1"
#3152530312
0!
#3153135312
1!
#3153410812
0"
#3156410375
1"
#3171266312
0!
#3171871312
1!
#3172143750
0"
#3175143375
1"
#3189987312
0!
#3190590312
1!
#3190861750
0"
#3193861375
1"
#3208691312
0!
#3209294312
1!
#3209562250
0"
#3212562000
1"
#3227377312
0!
#3227978312
1!
#3228244750
0"
#3231244375
1"
#3246046312
0!
#3246649312
1!
#3246910250
0"
#3249909875
1"
#3264702312
0!
#3265303312
1!
#3265552812
0"
#3268552437
1"
#3283341312
0!
#3283942312
1!
#3284188437
0"
#3287187937
1"
#3301965312
0!
#3302566312
1!
#3302809750
0"
#3305809750
1"
#3320575312
0!
#3321173312
1!
#3321416812
0"
#3324415875
1"
#3339167312
0!
#3339765312
1!
#3340004750
0"
#3343004375
1"
#3357742312
0!
#3358340312
1!
#3358576250
0"
#3361575875
1"
#3376302312
0!
#3376900312
1!
#3377133250
0"
#3380132875
1"
#3394849312
0!
#3395447312
1!
#3395678250
0"
#3398678000
1"
#3413381312
0!
#3413977312
1!
#3414206250
0"
#3417205937
1"
#3431895312
0!
#3432491312
1!
#3432707250
0"
#3435706875
1"
#3450394312
0!
#3450990312
1!
#3451202312
0"
#3454202187
1"
#3468878312
0!
#3469474312
1!
#3469683250
0"
#3472682875
1"
#3487347312
0!
#3487943312
1!
#3488149250
0"
#3491148937
1"
#3505803312
0!
#3506397312
1!
#3506602625
0"
#3509601937
1"
#3524242312
0!
#3524836312
1!
#3525037812
0"
#3528037375
1"
#3542665312
0!
#3543259312
1!
#3543457750
0"
#3546457375
1"
#3561075312
0!
#3561669312
1!
#3561865312
0"
#3564864875
1"
#3579470312
0!
#3580062312
1!
#3580256812
0"
#3583256437
1"
#3597848312
0!
#3598440312
1!
#3598631312
0"
#3601630875
1"
#3616211312
0!
#3616803312
1!
#3616991312
0"
#3619990875
1"
#3634561312
0!
#3635153312
1!
#3635329750
0"
#3638329375
1"
#3652896312
0!
#3653486312
1!
#3653660312
0"
#3656659937
1"
#3671216312
0!
#3671806312
1!
#3671977250
0"
#3674976875
1"
#3689520312
0!
#3690110312
1!
#3690278250
0"
#3693277875
1"
#3707809312
0!
#3708399312
1!
#3708563750
0"
#3711563625
1"
#3726083312
0!
#3726673312
1!
#3726834750
0"
#3729834437
1"
#3744344312
0!
#3744932312
1!
#3745093312
0"
#3748092875
1"
#3762588312
0!
#3763176312
1!
#3763333750
0"
#3766333437
1"
#3780819312
0!
#3781407312
1!
#3781562687
0"
#3784561875
1"
#3799035312
0!
#3799623312
1!
#3799775250
0"
#3802774875
1"
#3817238312
0!
#3817826312
1!
#3817975687
0"
#3820974875
1"
#3835425312
0!
#3836010312
1!
#3836159250
0"
#3839158875
1"
#3853596312
0!
#3854181312
1!
#3854316812
0"
#3857316375
1"
#3871754312
0!
#3872339312
1!
#3872472312
0"
#3875471937
1"
#3889897312
0!
#3890480312
1!
#3890612750
0"
#3893612375
1"
#3908025312
0!
#3908608312
1!
#3908737312
0"
#3911736375
1"
#3926138312
0!
#3926721312
1!
#3926847312
0"
#3929846875
1"
#3944238312
0!
#3944821312
1!
#3944944812
0"
#3947944687
1"
#3962323312
0!
#3962906312
1!
#3963026250
0"
#3966025875
1"
#3980395312
0!
#3980976312
1!
#3981095250
0"
#3984094875
1"
#3998449312
0!
#3999030312
1!
#3999145750
0"
#4002145374
1"
#4016490312
0!
#4017071312
1!
#4017184312
0"
#4020183875
1"
#4034518312
0!
#4035099312
1!
#4035209312
0"
#4038208874
1"
#4052533312
0!
#4053114312
1!
#4053221749
0"
#4056221375
1"
#4070533312
0!
#4071114312
1!
#4071218750
0"
#4074218375
1"
#4088520312
0!
#4089099312
1!
#4089203375
0"
#4092203250
1"
#4106492312
0!
#4107071312
1!
#4107172750
0"
#4110172375
1"
#4124449312
0!
#4125028312
1!
#4125115812
0"
#4128115375
1"
#4142393312
0!
#4142972312
1!
#4143057250
0"
#4146056875
1"
#4160324312
0!
#4160901312
1!
#4160985812
0"
#4163985437
1"
#4178240312
0!
#4178817312
1!
#4178898812
0"
#4181898687
1"
#4196143312
0!
#4196720312
1!
#4196798750
0"
#4199798375
1"
#4214031312
0!
#4214608312
1!
#4214683750
0"
#4217683499
1"
#4231906312
0!
#4232483312
1!
#4232556250
0"
#4235555875
1"
#4249768312
0!
#4250343312
1!
#4250416000
0"
#4253415875
1"
#4267615312
0!
#4268190312
1!
#4268259750
0"
#4271259374
1"
#4285449312
0!
#4286024312
1!
#4286091124
0"
#4289090375
1"
#4303267312
0!
#4303842312
1!
#4303906312
0"
#4306905937
1"
#4321075312
0!
#4321650312
1!
#4321712312
0"
#4324711875
1"
#4338870312
0!
#4339442312
1!
#4339503750
0"
#4342503375
1"
#4356646312
0!
#4357218312
1!
#4357276250
0"
#4360275875
1"
#4374409312
0!
#4374981312
1!
#4375036312
0"
#4378036187
1"
#4392159312
0!
#4392731312
1!
#4392774750
0"
#4395774375
1"
#4409896312
0!
#4410468312
1!
#4410508250
0"
#4413507875
1"
#4427620312
0!
#4428190312
1!
#4428229750
0"
#4431229375
1"
#4445329312
0!
#4445899312
1!
#4445935812
0"
#4448935375
1"
#4463025312
0!
#4463595312
1!
#4463629312
0"
#4466628375
1"
#4480708312
0!
#4481278312
1!
#4481309750
0"
#4484308937
1"
#4498378312
0!
#4498948312
1!
#4498976750
0"
#4501976375
1"
#4516037312
0!
#4516605312
1!
#4516633250
0"
#4519632875
1"
#4533679312
0!
#4534247312
1!
#4534271750
0"
#4537271437
1"
#4551310312
0!
#4551878312
1!
#4551900750
0"
#4554900375
1"
#4568928312
0!
#4569496312
1!
#4569516250
0"
#4572515937
1"
#4586533312
0!
#4587101312
1!
#4587118250
0"
#4590117875
1"
#4604125312
0!
#4604693312
1!
#4604707750
0"
#4607707375
1"
#4621704312
0!
#4622270312
1!
#4622284750
0"
#4625284375
1"
#4639268312
0!
#4639834312
1!
#4639845000
0"
#4642844875
1"
#4656819312
0!
#4657385312
1!
#4657393250
0"
#4660392875
1"
#4674359312
0!
#4674921250
0"
#4674925312
1!
#4677920937
1"
#4691886312
0!
#4692445750
0"
#4692450312
1!
#4695445437
1"
#4709398312
0!
#4709954812
0"
#4709962312
1!
#4712954687
1"
#4726897312
0!
#4727451250
0"
#4727461312
1!
#4730450875
1"
#4744383312
0!
#4744935062
0"
#4744947312
1!
#4747934937
1"
#4761858312
0!
#4762407250
0"
#4762422312
1!
#4765406875
1"
#4779320312
0!
#4779866875
0"
#4779884312
1!
#4782866750
1"
#4796769312
0!
#4797313500
0"
#4797331312
1!
#4800313375
1"
#4814203312
0!
#4814743750
0"
#4814765312
1!
#4817743375
1"
#4831626312
0!
#4832164750
0"
#4832188312
1!
#4835164375
1"
#4849036312
0!
#4849572312
0"
#4849598312
1!
#4852571937
1"
#4866433312
0!
#4866967750
0"
#4866995312
1!
#4869967375
1"
#4883820312
0!
#4884351312
0"
#4884379312
1!
#4887350875
1"
#4901191312
0!
#4901709750
0"
#4901750312
1!
#4904709375
1"
#4918549312
0!
#4919064812
0"
#4919108312
1!
#4922064375
1"
#4935896312
0!
#4936410250
0"
#4936455312
1!
#4939409937
1"
#4953230312
0!
#4953740812
0"
#4953787312
1!
#4956740375
1"
#4970549312
0!
#4971057812
0"
#4971106312
1!
#4974057437
1"
#4987857312
0!
#4988362812
0"
#4988414312
1!
#4991364875
1"
#5005152312
0!
#5005709312
1!
#5022434312
0!
#5022991312
1!
#5038423312
0"
#5039705312
0!
#5040260312
1!
#5041422875
1"
#5055702812
0"
#5056963312
0!
#5057518312
1!
#5058702437
1"
#5072971312
0"
#5074208312
0!
#5074763312
1!
#5075970875
1"
#5090226750
0"
#5091442312
0!
#5091997312
1!
#5093226375
1"
#5107469250
0"
#5108663312
0!
#5109218312
1!
#5110468875
1"
#5124691250
0"
#5125871312
0!
#5126426312
1!
#5127690875
1"
#5141909812
0"
#5143068312
0!
#5143621312
1!
#5144909375
1"
#5159115312
0"
#5160250312
0!
#5160803312
1!
#5162114937
1"
#5176310250
0"
#5177421312
0!
#5177974312
1!
#5179309875
1"
#5193489312
0"
#5194582312
0!
#5195135312
1!
#5196488375
1"
#5210657750
0"
#5211730312
0!
#5212283312
1!
#5213657375
1"
#5227816750
0"
#5228867312
0!
#5229420312
1!
#5230816437
1"
#5244961750
0"
#5245991312
0!
#5246542312
1!
#5247961375
1"
#5262096750
0"
#5263102312
0!
#5263653312
1!
#5265096437
1"
#5279219125
0"
#5280200312
0!
#5280751312
1!
#5282218812
1"
#5296326312
0"
#5297287312
0!
#5297838312
1!
#5299325875
1"
#5313412250
0"
#5314363312
0!
#5314914312
1!
#5316411937
1"
#5330497250
0"
#5331426312
0!
#5331977312
1!
#5333496875
1"
#5347571750
0"
#5348478312
0!
#5349027312
1!
#5350571375
1"
#5364631750
0"
#5365517312
0!
#5366066312
1!
#5367631375
1"
#5381680750
0"
#5382543312
0!
#5383092312
1!
#5384680375
1"
#5398717312
0"
#5399559312
0!
#5400108312
1!
#5401716937
1"
#5415740812
0"
#5416564312
0!
#5417113312
1!
#5418740437
1"
#5432754750
0"
#5433556312
0!
#5434105312
1!
#5435754375
1"
#5449757812
0"
#5450537312
0!
#5451083312
1!
#5452757375
1"
#5466747250
0"
#5467504312
0!
#5468050312
1!
#5469746875
1"
#5483725937
0"
#5484458312
0!
#5485004312
1!
#5486725625
1"
#5500690312
0"
#5501401312
0!
#5501947312
1!
#5503689875
1"
#5517641250
0"
#5518333312
0!
#5518879312
1!
#5520640937
1"
#5534572812
0"
#5535254312
0!
#5535800312
1!
#5537572375
1"
#5551503312
0"
#5552162312
0!
#5552706312
1!
#5554502875
1"
#5568421750
0"
#5569057312
0!
#5569601312
1!
#5571421375
1"
#5585327187
0"
#5585942312
0!
#5586486312
1!
#5588326375
1"
#5602219250
0"
#5602816312
0!
#5603360312
1!
#5605218875
1"
#5619102250
0"
#5619679312
0!
#5620223312
1!
#5622101875
1"
#5635973812
0"
#5636531312
0!
#5637073312
1!
#5638973437
1"
#5652834750
0"
#5653368312
0!
#5653910312
1!
#5655834375
1"
#5669684812
0"
#5670194312
0!
#5670736312
1!
#5672684375
1"
#5686518812
0"
#5687009312
0!
#5687551312
1!
#5689518375
1"
#5703342250
0"
#5703814312
0!
#5704356312
1!
#5706341937
1"
#5720155812
0"
#5720608312
0!
#5721148312
1!
#5723155375
1"
#5736957750
0"
#5737389312
0!
#5737931312
1!
#5739957375
1"
#5753750000
0"
#5754161312
0!
#5754701312
1!
#5756749750
1"
#5770528312
0"
#5770920312
0!
#5771460312
1!
#5773527875
1"
#5787298312
0"
#5787668312
0!
#5788208312
1!
#5790297875
1"
#5804405312
0!
#5804945312
1!
#5821129312
0!
#5821669312
1!
#5837843312
0!
#5838192312
0"
#5838381312
1!
#5841191875
1"
#5854546312
0!
#5854892250
0"
#5855084312
1!
#5857891937
1"
#5871236312
0!
#5871579750
0"
#5871774312
1!
#5874579375
1"
#5887915312
0!
#5888257250
0"
#5888453312
1!
#5891256937
1"
#5904583312
0!
#5904922312
0"
#5905121312
1!
#5907921875
1"
#5921240312
0!
#5921577250
0"
#5921778312
1!
#5924576875
1"
#5937886312
0!
#5938220812
0"
#5938422312
1!
#5941220437
1"
#5954522312
0!
#5954854750
0"
#5955058312
1!
#5957854375
1"
#5971145312
0!
#5971475687
0"
#5971681312
1!
#5974474875
1"
#5987759312
0!
#5988087875
0"
#5988295312
1!
#5991087750
1"
#6004362312
0!
#6004688312
0"
#6004898312
1!
#6007687875
1"
#6020954312
0!
#6021278250
0"
#6021487312
1!
#6024277875
1"
#6037533312
0!
#6037855312
0"
#6038066312
1!
#6040854937
1"
#6054101312
0!
#6054411250
0"
#6054634312
1!
#6057410875
1"
#6070658312
0!
#6070965750
0"
#6071191312
1!
#6073965375
1"
#6087204312
0!
#6087509812
0"
#6087737312
1!
#6090509375
1"
#6103739312
0!
#6104042750
0"
#6104272312
1!
#6107042437
1"
#6120263312
0!
#6120564250
0"
#6120794312
1!
#6123563875
1"
#6136774312
0!
#6137072812
0"
#6137305312
1!
#6140072375
1"
#6153275312
0!
#6153571812
0"
#6153806312
1!
#6156571375
1"
#6169767312
0!
#6170061750
0"
#6170298312
1!
#6173061375
1"
#6186248312
0!
#6186540750
0"
#6186779312
1!
#6189540375
1"
#6202718312
0!
#6203008750
0"
#6203249312
1!
#6206008375
1"
#6219177312
0!
#6219466250
0"
#6219708312
1!
#6222465875
1"
#6235625312
0!
#6235911250
0"
#6236154312
1!
#6238910875
1"
#6252061312
0!
#6252344750
0"
#6252590312
1!
#6255344375
1"
#6268488312
0!
#6268770250
0"
#6269017312
1!
#6271769875
1"
#6284904312
0!
#6285184187
0"
#6285433312
1!
#6288183375
1"
#6301309312
0!
#6301587187
0"
#6301838312
1!
#6304586375
1"
#6317703312
0!
#6317978250
0"
#6318232312
1!
#6320977875
1"
#6334089312
0!
#6334353750
0"
#6334618312
1!
#6337353375
1"
#6350464312
0!
#6350726812
0"
#6350991312
1!
#6353726375
1"
#6366826312
0!
#6367085750
0"
#6367353312
1!
#6370085375
1"
#6383179312
0!
#6383437250
0"
#6383706312
1!
#6386436875
1"
#6399521312
0!
#6399776750
0"
#6400048312
1!
#6402776375
1"
#6415853312
0!
#6416107625
0"
#6416380312
1!
#6419106875
1"
#6432174312
0!
#6432425812
0"
#6432701312
1!
#6435425437
1"
#6448486312
0!
#6448736312
0"
#6449011312
1!
#6451735875
1"
#6464785312
0!
#6465032250
0"
#6465310312
1!
#6468031937
1"
#6481073312
0!
#6481318250
0"
#6481598312
1!
#6484317875
1"
#6497353312
0!
#6497596750
0"
#6497878312
1!
#6500596375
1"
#6513622312
0!
#6513863250
0"
#6514147312
1!
#6516862937
1"
#6529880312
0!
#6530119500
0"
#6530405312
1!
#6533119375
1"
#6546129312
0!
#6546366250
0"
#6546654312
1!
#6549365875
1"
#6562367312
0!
#6562602312
0"
#6562890312
1!
#6565601875
1"
#6578595312
0!
#6578828812
0"
#6579118312
1!
#6581828437
1"
#6594812312
0!
#6595043312
0"
#6595335312
1!
#6598042875
1"
#6611018312
0!
#6611237750
0"
#6611541312
1!
#6614237375
1"
#6627215312
0!
#6627433312
0"
#6627738312
1!
#6630432937
1"
#6643402312
0!
#6643925312
1!
#6659578312
0!
#6660098312
1!
#6675742312
0!
#6676262312
1!
#6676386312
0"
#6679385875
1"
#6691895312
0!
#6692415312
1!
#6692559750
0"
#6695559437
1"
#6708040312
0!
#6708560312
1!
#6708721750
0"
#6711721375
1"
#6724174312
0!
#6724694312
1!
#6724872437
0"
#6727872312
1"
#6740299312
0!
#6740819312
1!
#6741015750
0"
#6744015437
1"
#6756413312
0!
#6756931312
1!
#6757148250
0"
#6760147937
1"
#6772516312
0!
#6773034312
1!
#6773271187
0"
#6776270375
1"
#6788609312
0!
#6789127312
1!
#6789382750
0"
#6792382375
1"
#6804693312
0!
#6805211312
1!
#6805483750
0"
#6808483375
1"
#6820766312
0!
#6821284312
1!
#6821574750
0"
#6824574375
1"
#6836830312
0!
#6837348312
1!
#6837656750
0"
#6840656437
1"
#6852886312
0!
#6853404312
1!
#6853727750
0"
#6856727437
1"
#6868931312
0!
#6869447312
1!
#6869789750
0"
#6872789812
1"
#6884965312
0!
#6885481312
1!
#6885844312
0"
#6888844187
1"
#6900988312
0!
#6901504312
1!
#6901887250
0"
#6904887000
1"
#6917000312
0!
#6917516312
1!
#6917909812
0"
#6920909375
1"
#6933004312
0!
#6933520312
1!
#6933930750
0"
#6936930375
1"
#6948999312
0!
#6949515312
1!
#6949941000
0"
#6952940875
1"
#6964983312
0!
#6965497312
1!
#6965944062
0"
#6968943937
1"
#6980957312
0!
#6981471312
1!
#6981936250
0"
#6984935875
1"
#6996920312
0!
#6997434312
1!
#6997918812
0"
#7000917875
1"
#7012874312
0!
#7013388312
1!
#7013890250
0"
#7016889875
1"
#7028819312
0!
#7029331312
1!
#7029850812
0"
#7032850375
1"
#7044754312
0!
#7045266312
1!
#7045803312
0"
#7048802937
1"
#7060678312
0!
#7061192312
1!
#7061746312
0"
#7064745875
1"
#7076595312
0!
#7077109312
1!
#7077679250
0"
#7080678875
1"
#7092503312
0!
#7093015312
1!
#7093602250
0"
#7096601437
1"
#7108399312
0!
#7108911312
1!
#7109516750
0"
#7112516375
1"
#7124286312
0!
#7124800312
1!
#7125422750
0"
#7128422687
1"
#7140166312
0!
#7140678312
1!
#7141316750
0"
#7144316375
1"
#7156033312
0!
#7156545312
1!
#7157202812
0"
#7160201875
1"
#7171892312
0!
#7172404312
1!
#7173080750
0"
#7176080437
1"
#7187742312
0!
#7188254312
1!
#7188936750
0"
#7191940875
1"
#7203581312
0!
#7204090312
1!
#7204793312
0"
#7207792937
1"
#7219409312
0!
#7219921312
1!
#7220641750
0"
#7223641375
1"
#7235231312
0!
#7235740312
1!
#7236479062
0"
#7239478937
1"
#7251039312
0!
#7251548312
1!
#7252304250
0"
#7255304062
1"
#7266838312
0!
#7267345312
1!
#7268125250
0"
#7271125125
1"
#7282627312
0!
#7283134312
1!
#7283931375
0"
#7286931250
1"
#7298405312
0!
#7298914312
1!
#7299727750
0"
#7302727437
1"
#7314178312
0!
#7314685312
1!
#7315514750
0"
#7318514375
1"
#7329938312
0!
#7330445312
1!
#7331291312
0"
#7334290375
1"
#7345690312
0!
#7346199312
1!
#7347062750
0"
#7350062437
1"
#7361435312
0!
#7361942312
1!
#7362819750
0"
#7365819375
1"
#7377167312
0!
#7377674312
1!
#7378570312
0"
#7381569937
1"
#7392891312
0!
#7393396312
1!
#7394314312
0"
#7397313937
1"
#7408604312
0!
#7409109312
1!
#7410043312
0"
#7413042875
1"
#7424308312
0!
#7424813312
1!
#7425765750
0"
#7428765375
1"
#7440003312
0!
#7440508312
1!
#7441476812
0"
#7444476437
1"
#7455688312
0!
#7456193312
1!
#7457170250
0"
#7460169875
1"
#7471366312
0!
#7471871312
1!
#7472863250
0"
#7475862875
1"
#7487035312
0!
#7487540312
1!
#7488546250
0"
#7491546125
1"
#7502694312
0!
#7503199312
1!
#7504223250
0"
#7507222937
1"
#7518344312
0!
#7518847312
1!
#7519890250
0"
#7522889875
1"
#7533983312
0!
#7534486312
1!
#7535547250
0"
#7538546875
1"
#7549614312
0!
#7550119312
1!
#7551195937
0"
#7554195437
1"
#7565238312
0!
#7565743312
1!
#7566832312
0"
#7569831875
1"
#7580853312
0!
#7581356312
1!
#7582461750
0"
#7585461437
1"
#7596455312
0!
#7596958312
1!
#7598084250
0"
#7601084000
1"
#7612049312
0!
#7612550312
1!
#7613697812
0"
#7616697687
1"
#7627632312
0!
#7628135312
1!
#7629297750
0"
#7632297375
1"
#7643208312
0!
#7643709312
1!
#7644889250
0"
#7647888937
1"
#7658774312
0!
#7659275312
1!
#7660470250
0"
#7663469875
1"
#7674331312
0!
#7674834312
1!
#7676045437
0"
#7679045312
1"
#7689881312
0!
#7690384312
1!
#7691609250
0"
#7694608875
1"
#7705423312
0!
#7705924312
1!
#7707164250
0"
#7710163875
1"
#7720954312
0!
#7721453312
1!
#7722712812
0"
#7725712625
1"
#7736474312
0!
#7736975312
1!
#7738244750
0"
#7741244375
1"
#7751988312
0!
#7752489312
1!
#7753773750
0"
#7756773375
1"
#7767493312
0!
#7767994312
1!
#7769291250
0"
#7772290875
1"
#7782989312
0!
#7783490312
1!
#7784804250
0"
#7787803937
1"
#7798476312
0!
#7798975312
1!
#7800308250
0"
#7803307875
1"
#7813953312
0!
#7814449312
1!
#7815801812
0"
#7818801437
1"
#7829418312
0!
#7829914312
1!
#7831286750
0"
#7834286500
1"
#7844874312
0!
#7845370312
1!
#7846761750
0"
#7849761437
1"
#7860322312
0!
#7860818312
1!
#7862224812
0"
#7865224437
1"
#7875759312
0!
#7876258312
1!
#7877678750
0"
#7880678375
1"
#7891192312
0!
#7891691312
1!
#7893125750
0"
#7896125437
1"
#7906617312
0!
#7907113312
1!
#7908560312
0"
#7911560187
1"
#7922030312
0!
#7922526312
1!
#7923992250
0"
#7926991875
1"
#7937434312
0!
#7937933312
1!
#7939415812
0"
#7942415437
1"
#7952833312
0!
#7953329312
1!
#7954826312
0"
#7957826062
1"
#7968220312
0!
#7968714312
1!
#7970228750
0"
#7973228625
1"
#7983596312
0!
#7984092312
1!
#7985626750
0"
#7988626375
1"
#7998966312
0!
#7999462312
1!
#8001011249
0"
#8004010875
1"
#8014329312
0!
#8014823312
1!
#8016376812
0"
#8019376437
1"
#8029679312
0!
#8030173312
1!
#8031745312
0"
#8034744937
1"
#8045021312
0!
#8045515312
1!
#8047107812
0"
#8050106875
1"
#8060356312
0!
#8060848312
1!
#8062455187
0"
#8065454375
1"
#8075680312
0!
#8076174312
1!
#8077794750
0"
#8080794375
1"
#8090998312
0!
#8091490312
1!
#8106305312
0!
#8106797312
1!
#8108464250
0"
#8111463375
1"
#8121603312
0!
#8122095312
1!
#8123774250
0"
#8126773875
1"
#8136893312
0!
#8137385312
1!
#8139085312
0"
#8142084875
1"
#8152174312
0!
#8152666312
1!
#8154380250
0"
#8157379937
1"
#8167448312
0!
#8167940312
1!
#8169665750
0"
#8172665374
1"
#8182714312
0!
#8183204312
1!
#8184948000
0"
#8187947875
1"
#8197969312
0!
#8198461312
1!
#8200216312
0"
#8203215937
1"
#8213217312
0!
#8213709312
1!
#8215482750
0"
#8218482437
1"
#8228457312
0!
#8228947312
1!
#8230739249
0"
#8233738875
1"
#8243686312
0!
#8244176312
1!
#8245980812
0"
#8248980375
1"
#8258909312
0!
#8259399312
1!
#8261221812
0"
#8264221375
1"
#8274123312
0!
#8274613312
1!
#8276450312
0"
#8279450125
1"
#8289328312
0!
#8289818312
1!
#8291666749
0"
#8294666375
1"
#8304525312
0!
#8305015312
1!
#8306874812
0"
#8309873874
1"
#8319713312
0!
#8320203312
1!
#8322077312
0"
#8325076937
1"
