analysis/wokwi-logic.vcd
$version Generated by Wokwi.com $end
$date Tue, 02 Sep 2025 21:06:37 GMT $end
$timescale 1ns $end
$scope module logic $end
$var wire 1 ! D2 $end
$var wire 1 " D3 $end
$var wire 1 # D4 $end
$upscope $end
$enddefinitions $end
#0
0!
#0
0"
#0
0#
#0
1!
#315250
1"
#315250
0!
#400000
1!
#1002598750
1#
#5954500000
0!
#5955600000
1!
#5992000000
0!
#5993100000
1!
#6029500000
0!
#6030600000
1!
#6067000000
0!
#6068100000
1!
#6072815187
0"
#6075814812
1"
#6104500000
0!
#6105600000
1!
#6110315187
0"
#6113314875
1"
#6142000000
0!
#6143100000
1!
#6147815187
0"
#6150814812
1"
#6179500000
0!
#6180600000
1!
#6185315250
0"
#6188314812
1"
#6217000000
0!
#6218100000
1!
#6222815187
0"
#6225814812
1"
#6225814812
0!
#6226814812
1!
#6233191687
0"
#6236190875
1"
#6254500000
0!
#6255600000
1!
#6257995187
0"
#6260994812
1"
#6260994812
0!
#6261994812
1!
#6266071187
0"
#6268671312
1"
#6292000000
0!
#6293100000
1!
#6296103187
0"
#6299102812
1"
#6329500000
0!
#6330600000
1!
#6335315187
0"
#6338314875
1"
#6367000000
0!
#6368100000
1!
#6372815250
0"
#6375814812
1"
#6404500000
0!
#6405600000
1!
#6410315187
0"
#6413314875
1"
#6442000000
0!
#6443100000
1!
#6447815187
0"
#6450814812
1"
#6479500000
0!
#6480600000
1!
#6485315250
0"
#6488315375
1"
#6517000000
0!
#6518100000
1!
#6522815750
0"
#6525814812
1"
#6554500000
0!
#6555600000
1!
#6560315250
0"
#6563314812
1"
#6563314812
0!
#6564314812
1!
#6570691187
0"
#6573690812
1"
#6592000000
0!
#6593100000
1!
#6595495187
0"
#6598494812
1"
#6629500000
0!
#6630600000
1!
#6635315500
0"
#6638314812
1"
#6667000000
0!
#6668100000
1!
#6672815187
0"
#6675814812
1"
#6704500000
0!
#6705600000
1!
#6710315250
0"
#6713315187
1"
#6742000000
0!
#6743100000
1!
#6747815187
0"
#6750814812
1"
#6779500000
0!
#6780600000
1!
#6785315187
0"
#6788314812
1"
#6817000000
0!
#6818100000
1!
#6822815187
0"
#6825814812
1"
#6854500000
0!
#6855600000
1!
#6860315437
0"
#6863315375
1"
#6892000000
0!
#6893100000
1!
#6897815187
0"
#6900814812
1"
#6929500000
0!
#6930600000
1!
#6935331250
0"
#6938330812
1"
#6967000000
0!
#6968100000
1!
#6972815250
0"
#6975814812
1"
#7004500000
0!
#7005600000
1!
#7010315500
0"
#7013314812
1"
#7042000000
0!
#7043100000
1!
#7047815187
0"
#7050814812
1"
#7079500000
0!
#7080600000
1!
#7085315250
0"
#7088314875
1"
#7117000000
0!
#7118100000
1!
#7122815250
0"
#7125814812
1"
#7154500000
0!
#7155600000
1!
#7160315687
0"
#7163314812
1"
#7192000000
0!
#7193100000
1!
#7197815187
0"
#7200814812
1"
#7229500000
0!
#7230600000
1!
#7235315437
0"
#7238315375
1"
#7267000000
0!
#7268100000
1!
#7272815187
0"
#7275814875
1"
#7275814875
0!
#7276814875
1!
#7283191562
0"
#7286190812
1"
#7304500000
0!
#7305600000
1!
#7307995250
0"
#7310994812
1"
#7342000000
0!
#7343100000
1!
#7347815187
0"
#7350815125
1"
#7379500000
0!
#7380600000
1!
#7385315187
0"
#7388314812
1"
#7417000000
0!
#7418100000
1!
#7422815187
0"
#7425814875
1"
#7454500000
0!
#7455600000
1!
#7460315250
0"
#7463314875
1"
#7463314875
0!
#7464314875
1!
#7470691187
0"
#7473691000
1"
#7492000000
0!
#7493100000
1!
#7495495750
0"
#7498494812
1"
#7529500000
0!
#7530600000
1!
#7535315187
0"
#7538314812
1"
#7567000000
0!
#7568100000
1!
#7572815187
0"
#7575814812
1"
#7604500000
0!
#7605600000
1!
#7610315187
0"
#7613314812
1"
#7642000000
0!
#7643100000
1!
#7647815750
0"
#7650814812
1"
#7679500000
0!
#7680600000
1!
#7685315250
0"
#7688314812
1"
#7717000000
0!
#7718100000
1!
#7722815187
0"
#7725814812
1"
#7754500000
0!
#7755600000
1!
#7760315187
0"
#7763314812
1"
#7792000000
0!
#7793100000
1!
#7797815187
0"
#7800814875
1"
#7829500000
0!
#7830600000
1!
#7835315250
0"
#7838314812
1"
#7867000000
0!
#7868100000
1!
#7872815687
0"
#7875814812
1"
#7904500000
0!
#7905600000
1!
#7910315187
0"
#7913314812
1"
#7934600000
0!
#7935700000
1!
#7938463250
0"
#7941462812
1"
#7964700000
0!
#7965800000
1!
#7968563187
0"
#7971562812
1"
#7994800000
0!
#7995900000
1!
#7998663187
0"
#8001662874
1"
#8024900000
0!
#8026000000
1!
#8028763750
0"
#8031762812
1"
#8055000000
0!
#8056100000
1!
#8058863187
0"
#8061862812
1"
#8085100000
0!
#8086200000
1!
#8088963250
0"
#8091962812
1"
#8115200000
0!
#8116300000
1!
#8119063375
0"
#8122063312
1"
#8145300000
0!
#8146400000
1!
#8149163250
0"
#8152163124
1"
#8175400000
0!
#8176500000
1!
#8179263187
0"
#8182262812
1"
#8205500000
0!
#8206600000
1!
#8209363249
0"
#8212362937
1"
#8235600000
0!
#8236700000
1!
#8239463187
0"
#8242462874
1"
#8265700000
0!
#8266800000
1!
#8269563187
0"
#8272562875
1"
#8295800000
0!
#8296900000
1!
#8299663625
0"
#8302662812
1"
#8302662812
0!
#8303662812
1!
#8308003187
0"
#8310762812
1"
#8325900000
0!
#8327000000
1!
#8327951250
0"
#8330950812
1"
#8356000000
0!
#8357100000
1!
#8359863187
0"
#8362862812
1"
#8386100000
0!
#8387200000
1!
#8389963687
0"
#8392962812
1"
#8416200000
0!
#8417299999
1!
#8420063187
0"
#8423062812
1"
#8446300000
0!
#8447400000
1!
#8450163187
0"
#8453162875
1"
#8476400000
0!
#8477499999
1!
#8480263312
0"
#8483263250
1"
#8506500000
0!
#8507600000
1!
#8510363187
0"
#8513362812
1"
#8536600000
0!
#8537699999
1!
#8540463187
0"
#8543462812
1"
#8566700000
0!
#8567800000
1!
#8570563187
0"
#8573562875
1"
#8596800000
0!
#8597900000
1!
#8600663250
0"
#8603662875
1"
#8626900000
0!
#8628000000
1!
#8630763187
0"
#8633762812
1"
#8657000000
0!
#8658100000
1!
#8660863187
0"
#8663862812
1"
#8687100000
0!
#8688200000
1!
#8690963187
0"
#8693962812
1"
#8717200000
0!
#8718300000
1!
#8721063687
0"
#8724062812
1"
#8724062812
0!
#8725062812
1!
#8729403250
0"
#8732163187
1"
#8747300000
0!
#8748400000
1!
#8749351250
0"
#8752350875
1"
#8777400000
0!
#8778500000
1!
#8781263187
0"
#8784262875
1"
#8807500000
0!
#8808600000
1!
#8811363750
0"
#8814362812
1"
#8837600000
0!
#8838700000
1!
#8841463562
0"
#8844462812
1"
#8867700000
0!
#8868800000
1!
#8871563250
0"
#8874562812
1"
#8897800000
0!
#8898900000
1!
#8901663375
0"
#8904663312
1"
#8927900000
0!
#8929000000
1!
#8931763187
0"
#8934763125
1"
#8958000000
0!
#8959100000
1!
#8961863187
0"
#8964862812
1"
#8988100000
0!
#8989200000
1!
#8991963187
0"
#8994962812
1"
#8994962812
0!
#8995962812
1!
#9000303562
0"
#9003062875
1"
#9018200000
0!
#9019300000
1!
#9020251250
0"
#9023251187
1"
#9048300000
0!
#9049400000
1!
#9052163250
0"
#9055162812
1"
#9078400000
0!
#9079500000
1!
#9082263187
0"
#9085262812
1"
#9108500000
0!
#9109600000
1!
#9112363250
0"
#9115362812
1"
#9138600000
0!
#9139700000
1!
#9142463187
0"
#9145462875
1"
#9168700000
0!
#9169800000
1!
#9172563687
0"
#9175562812
1"
#9198800000
0!
#9199900000
1!
#9202663187
0"
#9205662812
1"
#9228900000
0!
#9230000000
1!
#9232763187
0"
#9235762812
1"
#9259000000
0!
#9260100000
1!
#9262863625
0"
#9265862875
1"
#9289100000
0!
#9290200000
1!
#9292963250
0"
#9295962812
1"
#9319200000
0!
#9320300000
1!
#9323063187
0"
#9326062812
1"
#9326062812
0!
#9327062812
1!
#9331403187
0"
#9334162812
1"
#9334162812
0!
#9335162812
1!
#9340699250
0"
#9343698875
1"
#9349300000
0!
#9350400000
1!
#9364391750
0"
#9367390812
1"
#9367390812
0!
#9368095250
0"
#9368390812
1!
#9371095187
1"
#9379400000
0!
#9380500000
1!
#9390619187
0"
#9393618875
1"
#9409500000
0!
#9410600000
1!
#9413363187
0"
#9416362875
1"
#9439600000
0!
#9440700000
1!
#9443463187
0"
#9446462812
1"
#9469700000
0!
#9470800000
1!
#9473563687
0"
#9476562812
1"
#9499800000
0!
#9500900000
1!
#9503663187
0"
#9506662812
1"
#9529900000
0!
#9531000000
1!
#9533763187
0"
#9536762812
1"
#9560000000
0!
#9561100000
1!
#9563863312
0"
#9566863250
1"
#9590100000
0!
#9591200000
1!
#9593963187
0"
#9596962812
1"
#9620200000
0!
#9621300000
1!
#9624063250
0"
#9627062812
1"
#9650300000
0!
#9651400000
1!
#9654163187
0"
#9657162875
1"
#9680400000
0!
#9681500000
1!
#9684263187
0"
#9687262812
1"
#9710500000
0!
#9711600000
1!
#9714363750
0"
#9717362812
1"
#9740600000
0!
#9741700000
1!
#9744463187
0"
#9747462875
1"
#9770700000
0!
#9771800000
1!
#9774563187
0"
#9777562812
1"
#9777562812
0!
#9778562812
1!
#9782903187
0"
#9785662812
1"
#9800800000
0!
#9801900000
1!
#9802851187
0"
#9805850875
1"
#9830900000
0!
#9832000000
1!
#9834763625
0"
#9837762875
1"
#9861000000
0!
#9862100000
1!
#9864863187
0"
#9867862875
1"
#9891100000
0!
#9892200000
1!
#9894963437
0"
#9897963375
1"
#9916600000
0!
#9917700000
1!
#9919243187
0"
#9922242875
1"
#9941700000
0!
#9942800000
1!
#9944239187
0"
#9947238812
1"
#9966800000
0!
#9967900000
1!
#9969339187
0"
#9972338812
1"
#9991900000
0!
#9993000000
1!
#9994439687
0"
#9997438812
1"
#10017000000
0!
#10018100000
1!
#10019539187
0"
#10022539125
1"
#10042100000
0!
#10043200000
1!
#10044639187
0"
#10047638812
1"
#10067200000
0!
#10068300000
1!
#10069739250
0"
#10072738812
1"
#10092300000
0!
#10093400000
1!
#10094839187
0"
#10097838875
1"
#10117400000
0!
#10118500000
1!
#10119939250
0"
#10122939062
1"
#10142500000
0!
#10143600000
1!
#10145039187
0"
#10148038812
1"
#10167600000
0!
#10168700000
1!
#10170139187
0"
#10173138812
1"
#10192700000
0!
#10193800000
1!
#10195239187
0"
#10198238812
1"
#10217800000
0!
#10218900000
1!
#10220339250
0"
#10223338812
1"
#10242900000
0!
#10244000000
1!
#10245439250
0"
#10248438875
1"
#10268000000
0!
#10269100000
1!
#10270539187
0"
#10273538875
1"
#10293100000
0!
#10294200000
1!
#10295639187
0"
#10298638812
1"
#10318200000
0!
#10319300000
1!
#10320739187
0"
#10323738812
1"
#10343300000
0!
#10344400000
1!
#10345839562
0"
#10348838812
1"
#10368400000
0!
#10369500000
1!
#10370939750
0"
#10373938812
1"
#10393500000
0!
#10394600000
1!
#10396039187
0"
#10399038812
1"
#10399038812
0!
#10400038812
1!
#10403411250
0"
#10405610875
1"
#10418600000
0!
#10419679187
0"
#10419700000
1!
#10422678812
1"
#10443700000
0!
#10444800000
1!
#10446239437
0"
#10449239375
1"
#10468800000
0!
#10469900000
1!
#10471339625
0"
#10474338875
1"
#10493900000
0!
#10495000000
1!
#10496439187
0"
#10499438812
1"
#10519000000
0!
#10520100000
1!
#10521539187
0"
#10524538812
1"
#10544100000
0!
#10545200000
1!
#10546639375
0"
#10549639312
1"
#10569200000
0!
#10570300000
1!
#10571739250
0"
#10574739187
1"
#10594300000
0!
#10595400000
1!
#10596839187
0"
#10599838812
1"
#10599838812
0!
#10600838812
1!
#10604211750
0"
#10606410812
1"
#10619400000
0!
#10620479562
0"
#10620500000
1!
#10623478812
1"
#10644500000
0!
#10645600000
1!
#10647039250
0"
#10650039187
1"
#10669600000
0!
#10670700000
1!
#10672139437
0"
#10675139375
1"
#10694700000
0!
#10695800000
1!
#10697239187
0"
#10700238812
1"
#10700238812
0!
#10701238812
1!
#10704611625
0"
#10706810812
1"
#10719800000
0!
#10720879750
0"
#10720900000
1!
#10723878812
1"
#10744900000
0!
#10746000000
1!
#10747439250
0"
#10750439062
1"
#10770000000
0!
#10771100000
1!
#10772539312
0"
#10775539250
1"
#10795100000
0!
#10796200000
1!
#10797643250
0"
#10800642937
1"
#10820200000
0!
#10821300000
1!
#10822739187
0"
#10825738812
1"
#10845300000
0!
#10846400000
1!
#10847839187
0"
#10850839000
1"
#10870400000
0!
#10871500000
1!
#10872939250
0"
#10875938875
1"
#10895500000
0!
#10896600000
1!
#10898039250
0"
#10901038812
1"
#10920600000
0!
#10921700000
1!
#10923139187
0"
#10926138812
1"
#10945700000
0!
#10946800000
1!
#10948239187
0"
#10951238875
1"
#10970800000
0!
#10971900000
1!
#10973339187
0"
#10976338812
1"
#10995900000
0!
#10997000000
1!
#10998439750
0"
#11001438812
1"
#11021000000
0!
#11022100000
1!
#11023539187
0"
#11026538875
1"
#11046100000
0!
#11047200000
1!
#11048639187
0"
#11051638812
1"
#11071200000
0!
#11072300000
1!
#11073739500
0"
#11076738812
1"
#11096300000
0!
#11097400000
1!
#11098839687
0"
#11101838812
1"
#11121400000
0!
#11122500000
1!
#11123939250
0"
#11126938812
1"
#11126938812
0!
#11127938812
1!
#11131311187
0"
#11133510812
1"
#11146500000
0!
#11147579187
0"
#11147600000
1!
#11150578812
1"
#11171600000
0!
#11172700000
1!
#11174139375
0"
#11177139312
1"
#11196700000
0!
#11197800000
1!
#11199239562
0"
#11202238812
1"
#11221800000
0!
#11222900000
1!
#11224339187
0"
#11227338812
1"
#11246900000
0!
#11248000000
1!
#11249439187
0"
#11252438812
1"
#11272000000
0!
#11273100000
1!
#11274539312
0"
#11277539250
1"
#11297100000
0!
#11298200000
1!
#11299639187
0"
#11302639125
1"
#11322200000
0!
#11323300000
1!
#11324739187
0"
#11327738812
1"
#11347300000
0!
#11348400000
1!
#11349839250
0"
#11352838812
1"
#11372400000
0!
#11373500000
1!
#11374939187
0"
#11377938875
1"
#11397500000
0!
#11398600000
1!
#11400039250
0"
#11403039062
1"
#11422600000
0!
#11423700000
1!
#11425139187
0"
#11428138812
1"
#11447700000
0!
#11448800000
1!
#11450239187
0"
#11453238812
1"
#11472800000
0!
#11473900000
1!
#11475339187
0"
#11478338812
1"
#11497900000
0!
#11499000000
1!
#11500439250
0"
#11503438812
1"
#11523000000
0!
#11524100000
1!
#11525539250
0"
#11528538875
1"
#11548100000
0!
#11549200000
1!
#11550639187
0"
#11553638875
1"
#11573200000
0!
#11574300000
1!
#11575739187
0"
#11578738812
1"
#11598300000
0!
#11599400000
1!
#11600839187
0"
#11603838812
1"
#11623400000
0!
#11624500000
1!
#11625939562
0"
#11628938812
1"
#11648500000
0!
#11649600000
1!
#11651039750
0"
#11654038812
1"
#11673600000
0!
#11674700000
1!
#11676139187
0"
#11679138812
1"
#11679138812
0!
#11680138812
1!
#11683511250
0"
#11685710875
1"
#11698700000
0!
#11699779187
0"
#11699800000
1!
#11702778812
1"
#11723800000
0!
#11724900000
1!
#11726339437
0"
#11729339375
1"
#11748900000
0!
#11750000000
1!
#11751439625
0"
#11754438875
1"
#11774000000
0!
#11775100000
1!
#11776539187
0"
#11779538812
1"
#11799100000
0!
#11800200000
1!
#11801639187
0"
#11804638812
1"
#11824200000
0!
#11825300000
1!
#11826739375
0"
#11829739312
1"
#11849300000
0!
#11850400000
1!
#11851839250
0"
#11854839187
1"
#11874400000
0!
#11875500000
1!
#11876939187
0"
#11879938812
1"
#11899500000
0!
#11900600000
1!
#11902039187
0"
#11905038812
1"
#11921000000
0!
#11922100000
1!
#11922591187
0"
#11925591250
1"
#11942500000
0!
#11943600000
1!
#11944091500
0"
#11947090812
1"
#11947090812
0!
#11948090812
1!
#11950727437
0"
#11952566875
1"
#11964000000
0!
#11964395187
0"
#11965100000
1!
#11967394812
1"
#11985500000
0!
#11986600000
1!
#11987091187
0"
#11990090812
1"
#12007000000
0!
#12008100000
1!
#12008591187
0"
#12011591125
1"
#12028500000
0!
#12029600000
1!
#12030091375
0"
#12033090875
1"
#12050000000
0!
#12051100000
1!
#12051591250
0"
#12054590812
1"
#12071500000
0!
#12072600000
1!
#12073091250
0"
#12076090812
1"
#12093000000
0!
#12094100000
1!
#12094591187
0"
#12097591000
1"
#12114500000
0!
#12115600000
1!
#12116091250
0"
#12119090875
1"
#12136000000
0!
#12137100000
1!
#12137591250
0"
#12140590875
1"
#12157500000
0!
#12158600000
1!
#12159091187
0"
#12162090812
1"
#12179000000
0!
#12180100000
1!
#12180591250
0"
#12183590875
1"
#12200500000
0!
#12201600000
1!
#12202091250
0"
#12205090875
1"
#12222000000
0!
#12223100000
1!
#12223591187
0"
#12226590812
1"
#12243500000
0!
#12244600000
1!
#12245091187
0"
#12248090875
1"
#12248090875
0!
#12249090875
1!
#12251727250
0"
#12253567187
1"
#12265000000
0!
#12265395187
0"
#12266100000
1!
#12268394875
1"
#12286500000
0!
#12287600000
1!
#12288091187
0"
#12291090812
1"
#12308000000
0!
#12309100000
1!
#12309591187
0"
#12312590812
1"
#12329500000
0!
#12330600000
1!
#12331091187
0"
#12334090812
1"
#12351000000
0!
#12352100000
1!
#12352591187
0"
#12355590875
1"
#12372500000
0!
#12373600000
1!
#12374091187
0"
#12377090812
1"
#12377090812
0!
#12378090812
1!
#12380727187
0"
#12382566812
1"
#12394000000
0!
#12394395187
0"
#12395100000
1!
#12397394812
1"
#12415500000
0!
#12416600000
1!
#12417091375
0"
#12420091312
1"
#12437000000
0!
#12438100000
1!
#12438591187
0"
#12441590875
1"
#12458500000
0!
#12459600000
1!
#12460091250
0"
#12463090812
1"
#12480000000
0!
#12481100000
1!
#12481591750
0"
#12484590812
1"
#12501500000
0!
#12502600000
1!
#12503091250
0"
#12506091187
1"
#12523000000
0!
#12524100000
1!
#12524591187
0"
#12527590875
1"
#12544500000
0!
#12545600000
1!
#12546091187
0"
#12549090812
1"
#12566000000
0!
#12567100000
1!
#12567591625
0"
#12570590875
1"
#12587500000
0!
#12588600000
1!
#12589091250
0"
#12592091062
1"
#12609000000
0!
#12610100000
1!
#12610591187
0"
#12613590812
1"
#12613590812
0!
#12614590812
1!
#12617227187
0"
#12619066812
1"
#12630500000
0!
#12630895187
0"
#12631600000
1!
#12633894812
1"
#12652000000
0!
#12653100000
1!
#12653591500
0"
#12656590812
1"
#12673500000
0!
#12674600000
1!
#12675091250
0"
#12678090937
1"
#12695000000
0!
#12696100000
1!
#12696591187
0"
#12699590812
1"
#12716500000
0!
#12717600000
1!
#12718091187
0"
#12721090812
1"
#12738000000
0!
#12739100000
1!
#12739591375
0"
#12742591312
1"
#12742591312
0!
#12743591312
1!
#12746227187
0"
#12748066937
1"
#12759500000
0!
#12759895250
0"
#12760600000
1!
#12762894812
1"
#12781000000
0!
#12782100000
1!
#12782591250
0"
#12785590812
1"
#12802500000
0!
#12803600000
1!
#12804091187
0"
#12807090812
1"
#12824000000
0!
#12825100000
1!
#12825591250
0"
#12828591187
1"
#12845500000
0!
#12846600000
1!
#12847091250
0"
#12850090812
1"
#12867000000
0!
#12868100000
1!
#12868591187
0"
#12871590812
1"
#12888500000
0!
#12889600000
1!
#12890091250
0"
#12893090875
1"
#12910000000
0!
#12911100000
1!
#12911591250
0"
#12914591062
1"
#12914591062
0!
#12915591062
1!
#12918227750
0"
#12920066812
1"
#12920066812
0!
#12921066812
1!
#12924367375
0"
#12926566812
1"
#12931500000
0!
#12932600000
1!
#12942011500
0"
#12945010812
1"
#12953000000
0!
#12954100000
1!
#12954591687
0"
#12957590812
1"
#12974500000
0!
#12975600000
1!
#12976091187
0"
#12979091125
1"
#12996000000
0!
#12997100000
1!
#12997591187
0"
#13000590812
1"
#13017500000
0!
#13018600000
1!
#13019091187
0"
#13022090812
1"
#13039000000
0!
#13040100000
1!
#13040591562
0"
#13043590812
1"
#13060500000
0!
#13061600000
1!
#13062091187
0"
#13065091000
1"
#13082000000
0!
#13083100000
1!
#13083591187
0"
#13086590812
1"
#13103500000
0!
#13104600000
1!
#13105091250
0"
#13108090875
1"
#13125000000
0!
#13126100000
1!
#13126591437
0"
#13129591375
1"
#13146500000
0!
#13147600000
1!
#13148091187
0"
#13151090875
1"
#13168000000
0!
#13169100000
1!
#13169591187
0"
#13172590812
1"
#13189500000
0!
#13190600000
1!
#13191091250
0"
#13194090812
1"
#13211000000
0!
#13212100000
1!
#13212591312
0"
#13215591250
1"
#13232500000
0!
#13233600000
1!
#13234091187
0"
#13237090875
1"
#13254000000
0!
#13255100000
1!
#13255591187
0"
#13258590812
1"
#13258590812
0!
#13259590812
1!
#13262227187
0"
#13264066812
1"
#13275500000
0!
#13275895187
0"
#13276600000
1!
#13278894812
1"
#13297000000
0!
#13298100000
1!
#13298591187
0"
#13301591125
1"
#13318500000
0!
#13319600000
1!
#13320091187
0"
#13323090875
1"
#13340000000
0!
#13341100000
1!
#13341591187
0"
#13344590812
1"
#13361500000
0!
#13362600000
1!
#13363091187
0"
#13366090812
1"
#13366090812
0!
#13367090812
1!
#13369727187
0"
#13371566812
1"
#13383000000
0!
#13383395187
0"
#13384100000
1!
#13386395000
1"
#13404500000
0!
#13405600000
1!
#13406091187
0"
#13409090875
1"
#13426000000
0!
#13427100000
1!
#13427591250
0"
#13430590875
1"
#13447500000
0!
#13448600000
1!
#13449091750
0"
#13452090812
1"
#13469000000
0!
#13470100000
1!
#13470591187
0"
#13473590875
1"
#13490500000
0!
#13491600000
1!
#13492091187
0"
#13495090875
1"
#13512000000
0!
#13513100000
1!
#13513591250
0"
#13516590812
1"
#13516590812
0!
#13517590812
1!
#13520227187
0"
#13522066812
1"
#13533500000
0!
#13533895625
0"
#13534600000
1!
#13536894875
1"
#13555000000
0!
#13556100000
1!
#13556591187
0"
#13559590875
1"
#13576500000
0!
#13577600000
1!
#13578091187
0"
#13581090812
1"
#13598000000
0!
#13599100000
1!
#13599591187
0"
#13602590812
1"
#13602590812
0!
#13603590812
1!
#13606227187
0"
#13608066875
1"
#13619500000
0!
#13619895500
0"
#13620600000
1!
#13622894812
1"
#13641000000
0!
#13642100000
1!
#13642591187
0"
#13645590875
1"
#13662500000
0!
#13663600000
1!
#13664091187
0"
#13667090812
1"
#13684000000
0!
#13685100000
1!
#13685591187
0"
#13688590812
1"
#13705500000
0!
#13706600000
1!
#13707091375
0"
#13710091312
1"
#13727000000
0!
#13728100000
1!
#13728591187
0"
#13731590875
1"
#13748500000
0!
#13749600000
1!
#13750091250
0"
#13753090812
1"
#13770000000
0!
#13771100000
1!
#13771591750
0"
#13774590812
1"
#13791500000
0!
#13792600000
1!
#13793091250
0"
#13796091187
1"
#13813000000
0!
#13814100000
1!
#13814591187
0"
#13817590875
1"
#13834500000
0!
#13835600000
1!
#13836091187
0"
#13839090812
1"
#13856000000
0!
#13857100000
1!
#13857591625
0"
#13860590875
1"
#13877500000
0!
#13878600000
1!
#13879091250
0"
#13882091062
1"
#13899000000
0!
#13900100000
1!
#13900591187
0"
#13903590812
1"
#13917800000
0!
#13918691187
0"
#13918900000
1!
#13921690812
1"
#13936600000
0!
#13937491187
0"
#13937700000
1!
#13940490812
1"
#13955400000
0!
#13956291187
0"
#13956500000
1!
#13959290875
1"
#13974200000
0!
#13975091187
0"
#13975300000
1!
#13978090875
1"
#13993000000
0!
#13993891250
0"
#13994100000
1!
#13996890812
1"
#14011800000
0!
#14012691250
0"
#14012900000
1!
#14015690937
1"
#14030600000
0!
#14031491187
0"
#14031700000
1!
#14034490812
1"
#14049400000
0!
#14050291187
0"
#14050500000
1!
#14053290875
1"
#14068200000
0!
#14069091187
0"
#14069300000
1!
#14072091125
1"
#14087000000
0!
#14087891250
0"
#14088100000
1!
#14090891062
1"
#14105800000
0!
#14106691250
0"
#14106900000
1!
#14109690812
1"
#14124600000
0!
#14125491687
0"
#14125700000
1!
#14128490812
1"
#14143400000
0!
#14144291312
0"
#14144500000
1!
#14147291250
1"
#14162200000
0!
#14163091250
0"
#14163300000
1!
#14166090875
1"
#14181000000
0!
#14181891187
0"
#14182100000
1!
#14184890812
1"
#14199800000
0!
#14200691500
0"
#14200900000
1!
#14203690812
1"
#14218600000
0!
#14219491187
0"
#14219700000
1!
#14222490812
1"
#14237400000
0!
#14238291187
0"
#14238500000
1!
#14241290812
1"
#14256200000
0!
#14257091187
0"
#14257300000
1!
#14260090812
1"
#14260090812
0!
#14261090812
1!
#14275000000
0!
#14275891187
0"
#14276100000
1!
#14278890812
1"
#14293800000
0!
#14294691250
0"
#14294900000
1!
#14297690812
1"
#14297690812
0!
#14298690812
1!
#14312600000
0!
#14313491187
0"
#14313700000
1!
#14316490812
1"
#14316490812
0!
#14317490812
1!
#14331400000
0!
#14332291187
0"
#14332500000
1!
#14335290812
1"
#14350200000
0!
#14351091187
0"
#14351300000
1!
#14354090812
1"
#14354090812
0!
#14355090812
1!
#14369000000
0!
#14369891250
0"
#14370100000
1!
#14372890812
1"
#14387800000
0!
#14388691187
0"
#14388900000
1!
#14391690875
1"
#14406600000
0!
#14407491187
0"
#14407700000
1!
#14410490875
1"
#14425400000
0!
#14426291375
0"
#14426500000
1!
#14429291312
1"
#14444200000
0!
#14445091250
0"
#14445300000
1!
#14448090937
1"
#14463000000
0!
#14463891187
0"
#14464100000
1!
#14466890875
1"
#14481800000
0!
#14482691562
0"
#14482900000
1!
#14485690812
1"
#14500600000
0!
#14501491187
0"
#14501700000
1!
#14504491125
1"
#14504491125
0!
#14505491125
1!
#14519400000
0!
#14520291250
0"
#14520500000
1!
#14523291062
1"
#14523291062
0!
#14524291062
1!
#14538200000
0!
#14539091750
0"
#14539300000
1!
#14542090812
1"
#14557000000
0!
#14557891687
0"
#14558100000
1!
#14560890812
1"
#14575800000
0!
#14576691312
0"
#14576900000
1!
#14579691250
1"
#14594600000
0!
#14595491250
0"
#14595700000
1!
#14598490875
1"
#14613400000
0!
#14614291187
0"
#14614500000
1!
#14617290812
1"
#14632200000
0!
#14633091187
0"
#14633300000
1!
#14636090875
1"
#14651000000
0!
#14651891187
0"
#14652100000
1!
#14654890812
1"
#14669800000
0!
#14670691187
0"
#14670900000
1!
#14673690812
1"
#14688600000
0!
#14689491187
0"
#14689700000
1!
#14692490812
1"
#14707400000
0!
#14708291187
0"
#14708500000
1!
#14711290812
1"
#14726200000
0!
#14727091250
0"
#14727300000
1!
#14730090812
1"
#14745000000
0!
#14745891187
0"
#14746100000
1!
#14748890875
1"
#14763800000
0!
#14764691187
0"
#14764900000
1!
#14767690812
1"
#14782600000
0!
#14783491187
0"
#14783700000
1!
#14786490812
1"
#14801400000
0!
#14802291250
0"
#14802500000
1!
#14805290812
1"
#14820200000
0!
#14821091187
0"
#14821300000
1!
#14824090875
1"
#14839000000
0!
#14839891187
0"
#14840100000
1!
#14842890875
1"
#14857800000
0!
#14858691375
0"
#14858900000
1!
#14861691312
1"
#14876600000
0!
#14877491250
0"
#14877700000
1!
#14880490937
1"
#14895400000
0!
#14896291250
0"
#14896500000
1!
#14899290875
1"
#14914200000
0!
#14915091562
0"
#14915300000
1!
#14918090812
1"
#14933000000
0!
#14933891187
0"
#14934100000
1!
#14936890812
1"
#14951800000
0!
#14952691250
0"
#14952900000
1!
#14955690812
1"
#14970600000
0!
#14971491750
0"
#14971700000
1!
#14974490812
1"
#14974490812
0!
#14975490812
1!
#14989400000
0!
#14990291687
0"
#14990500000
1!
#14993290812
1"
#15008200000
0!
#15009095625
0"
#15009300000
1!
#15012090875
1"
#15027000000
0!
#15027891187
0"
#15028100000
1!
#15030891125
1"
#15045800000
0!
#15046691187
0"
#15046900000
1!
#15049690875
1"
#15064600000
0!
#15065491750
0"
#15065700000
1!
#15068490812
1"
#15083400000
0!
#15084291375
0"
#15084500000
1!
#15087291312
1"
#15102200000
0!
#15103091187
0"
#15103300000
1!
#15106091250
1"
#15106091250
0!
#15107091250
1!
#15121000000
0!
#15121891250
0"
#15122100000
1!
#15124890875
1"
#15139800000
0!
#15140691562
0"
#15140900000
1!
#15143690812
1"
#15158600000
0!
#15159491187
0"
#15159700000
1!
#15162490812
1"
#15177400000
0!
#15178291250
0"
#15178500000
1!
#15181290812
1"
#15196200000
0!
#15197091187
0"
#15197300000
1!
#15200090812
1"
#15215000000
0!
#15215891187
0"
#15216100000
1!
#15218890812
1"
#15233800000
0!
#15234691187
0"
#15234900000
1!
#15237690812
1"
#15252600000
0!
#15253491250
0"
#15253700000
1!
#15256490875
1"
#15271400000
0!
#15272291187
0"
#15272500000
1!
#15275290875
1"
#15290200000
0!
#15291091187
0"
#15291300000
1!
#15294090812
1"
#15309000000
0!
#15309891187
0"
#15310100000
1!
#15312890812
1"
#15327800000
0!
#15328691250
0"
#15328900000
1!
#15331690812
1"
#15346600000
0!
#15347491187
0"
#15347700000
1!
#15350490812
1"
#15365400000
0!
#15366291437
0"
#15366500000
1!
#15369290875
1"
#15384200000
0!
#15385091187
0"
#15385300000
1!
#15388091000
1"
#15403000000
0!
#15403891250
0"
#15404100000
1!
#15406890937
1"
#15421800000
0!
#15422691625
0"
#15422900000
1!
#15425690875
1"
#15440600000
0!
#15441491250
0"
#15441700000
1!
#15444491187
1"
#15459400000
0!
#15460291187
0"
#15460500000
1!
#15463291125
1"
#15478200000
0!
#15479091187
0"
#15479300000
1!
#15482090875
1"
#15497000000
0!
#15497891750
0"
#15498100000
1!
#15500890812
1"
#15515800000
0!
#15516691375
0"
#15516900000
1!
#15519691312
1"
#15534600000
0!
#15535491187
0"
#15535700000
1!
#15538490812
1"
#15553400000
0!
#15554291250
0"
#15554500000
1!
#15557290875
1"
#15572200000
0!
#15573091250
0"
#15573300000
1!
