analysis/wokwi-logic.vcd
$version Generated by Wokwi.com $end
$date Fri, 05 Sep 2025 11:07:07 GMT $end
$timescale 1ns $end
$scope module logic $end
$var wire 1 ! D2 $end
$var wire 1 " D3 $end
$var wire 1 # D4 $end
$upscope $end
$enddefinitions $end
#0
0!
#0
0"
#0
0#
#0
1!
#5215875
1"
#5215875
0!
#6215875
1!
#1006987750
1#
#1026987750
0!
#1027653750
1!
#1047653750
0!
#1048319750
1!
#1068319749
0!
#1068985750
1!
#1088985750
0!
#1089651750
1!
#1109651750
0!
#1110317750
1!
#1111020375
0"
#1114020062
1"
#1130317750
0!
#1130983750
1!
#1131686437
0"
#1134686000
1"
#1150983750
0!
#1151649750
1!
#1152352437
0"
#1155352000
1"
#1171649750
0!
#1172315750
1!
#1173018375
0"
#1176018000
1"
#1192315750
0!
#1192981750
1!
#1193684437
0"
#1196684000
1"
#1196684000
0!
#1197684000
1!
#1212981750
0!
#1213647750
1!
#1214350375
0"
#1217350000
1"
#1233647750
0!
#1234313750
1!
#1235016375
0"
#1238016062
1"
#1238016062
0!
#1239016062
1!
#1254313750
0!
#1254979750
1!
#1255682375
0"
#1258682062
1"
#1274979750
0!
#1275645750
1!
#1276348437
0"
#1279348000
1"
#1295645750
0!
#1296311750
1!
#1297014437
0"
#1300014000
1"
#1316311750
0!
#1316977750
1!
#1317680375
0"
#1320680000
1"
#1336977750
0!
#1337643750
1!
#1338346375
0"
#1341346000
1"
#1357643750
0!
#1358309750
1!
#1359012375
0"
#1362012062
1"
#1378309750
0!
#1378975750
1!
#1379678375
0"
#1382678062
1"
#1398975750
0!
#1399641750
1!
#1400344375
0"
#1403344000
1"
#1419641750
0!
#1420307750
1!
#1421010375
0"
#1424010062
1"
#1424010062
0!
#1425010062
1!
#1440307750
0!
#1440973750
1!
#1441676375
0"
#1444676062
1"
#1460973750
0!
#1461639750
1!
#1462342375
0"
#1465342062
1"
#1481639750
0!
#1482305750
1!
#1483008375
0"
#1486008000
1"
#1502305750
0!
#1502971750
1!
#1503674375
0"
#1506674000
1"
#1522971750
0!
#1523637750
1!
#1524340375
0"
#1527340062
1"
#1543637750
0!
#1544303750
1!
#1545006375
0"
#1548006062
1"
#1564303750
0!
#1564969750
1!
#1565672437
0"
#1568672000
1"
#1584969750
0!
#1585635750
1!
#1586338437
0"
#1589338000
1"
#1605635750
0!
#1606301750
1!
#1607004437
0"
#1610004000
1"
#1626301750
0!
#1626967750
1!
#1627670375
0"
#1630670000
1"
#1646967750
0!
#1647633750
1!
#1648336437
0"
#1651336000
1"
#1667633750
0!
#1668299750
1!
#1669002437
0"
#1672002000
1"
#1688299750
0!
#1688965750
1!
#1689668375
0"
#1692668000
1"
#1708965750
0!
#1709631750
1!
#1710334375
0"
#1713334000
1"
#1729631750
0!
#1730297750
1!
#1731000375
0"
#1734000062
1"
#1750297750
0!
#1750963750
1!
#1751666437
0"
#1754666062
1"
#1770963750
0!
#1771629750
1!
#1772332437
0"
#1775332000
1"
#1791629750
0!
#1792295750
1!
#1792998437
0"
#1795998000
1"
#1812295750
0!
#1812961750
1!
#1813664437
0"
#1816664000
1"
#1832961750
0!
#1833627750
1!
#1834330375
0"
#1837330062
1"
#1837330062
0!
#1838330062
1!
#1853627750
0!
#1854293750
1!
#1854996375
0"
#1857996062
1"
#1874293750
0!
#1874959750
1!
#1875662375
0"
#1878662000
1"
#1894959750
0!
#1895625750
1!
#1896328375
0"
#1899328000
1"
#1915625750
0!
#1916291750
1!
#1916994375
0"
#1919994062
1"
#1936291750
0!
#1936957750
1!
#1937660375
0"
#1940660062
1"
#1956957750
0!
#1957623750
1!
#1958326375
0"
#1961326000
1"
#1961326000
0!
#1962326000
1!
#1977623750
0!
#1978289750
1!
#1978992375
0"
#1981992000
1"
#1998289750
0!
#1998955750
1!
#1999658375
0"
#2002657999
1"
#2018955750
0!
#2019621750
1!
#2020324375
0"
#2023324000
1"
#2039621749
0!
#2040287750
1!
#2040990374
0"
#2043990062
1"
#2060287750
0!
#2060953750
1!
#2061656375
0"
#2064656062
1"
#2080953750
0!
#2081619750
1!
#2082322375
0"
#2085322062
1"
#2101619749
0!
#2102285750
1!
#2102988374
0"
#2105988062
1"
#2122285750
0!
#2122951750
1!
#2123654375
0"
#2126654062
1"
#2142951750
0!
#2143617750
1!
#2144320375
0"
#2147320062
1"
#2163617750
0!
#2164283750
1!
#2164986437
0"
#2167986000
1"
#2184283750
0!
#2184949750
1!
#2185652375
0"
#2188652000
1"
#2204949750
0!
#2205615750
1!
#2206318437
0"
#2209318000
1"
#2225615750
0!
#2226281750
1!
#2226984437
0"
#2229984000
1"
#2246281750
0!
#2246947750
1!
#2247650375
0"
#2250650000
1"
#2266947750
0!
#2267613750
1!
#2268316375
0"
#2271316000
1"
#2287613750
0!
#2288279750
1!
#2288982375
0"
#2291982062
1"
#2308279750
0!
#2308945750
1!
#2309648375
0"
#2312648062
1"
#2328945750
0!
#2329611750
1!
#2330314375
0"
#2333314062
1"
#2349611750
0!
#2350277750
1!
#2350980375
0"
#2353980062
1"
#2370277750
0!
#2370943750
1!
#2371646375
0"
#2374646062
1"
#2390943750
0!
#2391609750
1!
#2392312375
0"
#2395312062
1"
#2411609750
0!
#2412275750
1!
#2412978375
0"
#2415978000
1"
#2432275750
0!
#2432941750
1!
#2433644375
0"
#2436644000
1"
#2452941750
0!
#2453607750
1!
#2454310375
0"
#2457310062
1"
#2473607750
0!
#2474273750
1!
#2474976375
0"
#2477976000
1"
#2494273750
0!
#2494939750
1!
#2495642375
0"
#2498642062
1"
#2498642062
0!
#2499642062
1!
#2514939750
0!
#2515605750
1!
#2516308375
0"
#2519308062
1"
#2535605750
0!
#2536271750
1!
#2536974375
0"
#2539974000
1"
#2556271750
0!
#2556937750
1!
#2557640375
0"
#2560640062
1"
#2576937750
0!
#2577603750
1!
#2578306375
0"
#2581306062
1"
#2597603750
0!
#2598269750
1!
#2598972375
0"
#2601972000
1"
#2618269750
0!
#2618935750
1!
#2619638375
0"
#2622638000
1"
#2638935750
0!
#2639601750
1!
#2640304375
0"
#2643304000
1"
#2659601750
0!
#2660267750
1!
#2660970375
0"
#2663970062
1"
#2680267750
0!
#2680933750
1!
#2681636437
0"
#2684636000
1"
#2700933750
0!
#2701599750
1!
#2702302437
0"
#2705302000
1"
#2721599750
0!
#2722265750
1!
#2722968437
0"
#2725968000
1"
#2742265750
0!
#2742931750
1!
#2743634437
0"
#2746634000
1"
#2762931750
0!
#2763597750
1!
#2764300375
0"
#2767300000
1"
#2783597750
0!
#2784263750
1!
#2784966437
0"
#2787966000
1"
#2804263750
0!
#2804929750
1!
#2805632375
0"
#2808632000
1"
#2808632000
0!
#2809632000
1!
#2824929750
0!
#2825595750
1!
#2826298375
0"
#2829298000
1"
#2845595750
0!
#2846261750
1!
#2846964375
0"
#2849964000
1"
#2866261750
0!
#2866927750
1!
#2867630375
0"
#2870630000
1"
#2886927750
0!
#2887593750
1!
#2888296437
0"
#2891296000
1"
#2907593750
0!
#2908259750
1!
#2908962437
0"
#2911962000
1"
#2928259750
0!
#2928925750
1!
#2929628437
0"
#2932628000
1"
#2948925750
0!
#2949591750
1!
#2950294437
0"
#2953294000
1"
#2969591750
0!
#2970257750
1!
#2970960375
0"
#2973960000
1"
#2990257750
0!
#2990923750
1!
#2991626375
0"
#2994626000
1"
#3010923750
0!
#3011589750
1!
#3012292375
0"
#3015292000
1"
#3015292000
0!
#3016292000
1!
#3031589750
0!
#3032255750
1!
#3032958375
0"
#3035958000
1"
#3052255750
0!
#3052921750
1!
#3053624375
0"
#3056624062
1"
#3072921750
0!
#3073587750
1!
#3074290375
0"
#3077290062
1"
#3093587750
0!
#3094253750
1!
#3094956375
0"
#3097956000
1"
#3114253750
0!
#3114919750
1!
#3115622437
0"
#3118622000
1"
#3134919750
0!
#3135585750
1!
#3136288437
0"
#3139288000
1"
#3155585750
0!
#3156251750
1!
#3156954375
0"
#3159954062
1"
#3176251750
0!
#3176917750
1!
#3177620375
0"
#3180620000
1"
#3196917750
0!
#3197583750
1!
#3198286375
0"
#3201286000
1"
#3217583750
0!
#3218249750
1!
#3218952375
0"
#3221952062
1"
#3238249750
0!
#3238915750
1!
#3239618375
0"
#3242618000
1"
#3258915750
0!
#3259581750
1!
#3260284375
0"
#3263284000
1"
#3263284000
0!
#3264284000
1!
#3279581750
0!
#3280247750
1!
#3280950375
0"
#3283950062
1"
#3283950062
0!
#3284950062
1!
#3300247750
0!
#3300913750
1!
#3301616437
0"
#3304616000
1"
#3320913750
0!
#3321579750
1!
#3322282437
0"
#3325282000
1"
#3325282000
0!
#3326282000
1!
#3341579750
0!
#3342245750
1!
#3342948375
0"
#3345948000
1"
#3362245750
0!
#3362911750
1!
#3363614375
0"
#3366614062
1"
#3382911750
0!
#3383577750
1!
#3384280375
0"
#3387280062
1"
#3403577750
0!
#3404243750
1!
#3404946375
0"
#3407946062
1"
#3424243750
0!
#3424909750
1!
#3425612375
0"
#3428612062
1"
#3444909750
0!
#3445575750
1!
#3446278375
0"
#3449278000
1"
#3465575750
0!
#3466241750
1!
#3466944375
0"
#3469944062
1"
#3486241750
0!
#3486907750
1!
#3487610437
0"
#3490610000
1"
#3506907750
0!
#3507573750
1!
#3508276437
0"
#3511276000
1"
#3527573750
0!
#3528239750
1!
#3528942437
0"
#3531942000
1"
#3548239750
0!
#3548905750
1!
#3549608437
0"
#3552608000
1"
#3568905750
0!
#3569571750
1!
#3570274375
0"
#3573274000
1"
#3589571750
0!
#3590237750
1!
#3590940375
0"
#3593940000
1"
#3610237750
0!
#3610903750
1!
#3611606375
0"
#3614606062
1"
#3630903750
0!
#3631569750
1!
#3632272375
0"
#3635272062
1"
#3635272062
0!
#3636272062
1!
#3651569750
0!
#3652235750
1!
#3652938375
0"
#3655938062
1"
#3672235750
0!
#3672901750
1!
#3673604375
0"
#3676604000
1"
#3692901750
0!
#3693567750
1!
#3694270375
0"
#3697270062
1"
#3713567750
0!
#3714233750
1!
#3714936375
0"
#3717936062
1"
#3734233750
0!
#3734899750
1!
#3735602375
0"
#3738602000
1"
#3754899750
0!
#3755565750
1!
#3756268375
0"
#3759268000
1"
#3775565750
0!
#3776231750
1!
#3776934375
0"
#3779934000
1"
#3796231750
0!
#3796897750
1!
#3797600437
0"
#3800600062
1"
#3816897750
0!
#3817563750
1!
#3818266437
0"
#3821266000
1"
#3837563750
0!
#3838229750
1!
#3838932437
0"
#3841932000
1"
#3858229750
0!
#3858895750
1!
#3859598437
0"
#3862598000
1"
#3878895750
0!
#3879561750
1!
#3880264375
0"
#3883264000
1"
#3899561750
0!
#3900227750
1!
#3900930375
0"
#3903930000
1"
#3920227750
0!
#3920893750
1!
#3921596375
0"
#3924596000
1"
#3940893750
0!
#3941559750
1!
#3942262375
0"
#3945262000
1"
#3961559750
0!
#3962225750
1!
#3962928375
0"
#3965928000
1"
#3982225750
0!
#3982891750
1!
#3983594375
0"
#3986594000
1"
#4002891750
0!
#4003557749
1!
#4004260437
0"
#4007260062
1"
#4023557750
0!
#4024223750
1!
#4024926437
0"
#4027926000
1"
#4044223749
0!
#4044889750
1!
#4045592437
0"
#4048592000
1"
#4064889750
0!
#4065555749
1!
#4066258437
0"
#4069257999
1"
#4085555750
0!
#4086221750
1!
#4086924374
0"
#4089924000
1"
#4106221749
0!
#4106887750
1!
#4107590375
0"
#4110590000
1"
#4126887750
0!
#4127553749
1!
#4128256375
0"
#4131256062
1"
#4147553750
0!
#4148219750
1!
#4148922374
0"
#4151922000
1"
#4151922000
0!
#4152922000
1!
#4168219749
0!
#4168885750
1!
#4169588375
0"
#4172588000
1"
#4188885750
0!
#4189551749
1!
#4190254375
0"
#4193253999
1"
#4209551750
0!
#4210217750
1!
#4210920437
0"
#4213920000
1"
#4230217750
0!
#4230883750
1!
#4231586375
0"
#4234586000
1"
#4250883750
0!
#4251549749
1!
#4252252437
0"
#4255251999
1"
#4271549750
0!
#4272215750
1!
#4272918437
0"
#4275918000
1"
#4292215750
0!
#4292881750
1!
#4293584375
0"
#4296584000
1"
#4312881750
0!
#4313547750
1!
#4314250375
0"
#4317250000
1"
#4333547750
0!
#4334213750
1!
#4334916375
0"
#4337916062
1"
#4337916062
0!
#4338916062
1!
#4354213750
0!
#4354879750
1!
#4355582437
0"
#4358582000
1"
#4374879750
0!
#4375545750
1!
#4376248437
0"
#4379248000
1"
#4395545750
0!
#4396211750
1!
#4396914437
0"
#4399914000
1"
#4416211750
0!
#4416877750
1!
#4417580437
0"
#4420580000
1"
#4436877750
0!
#4437543750
1!
#4438246375
0"
#4441246062
1"
#4441246062
0!
#4442246062
1!
#4457543750
0!
#4458209750
1!
#4458912375
0"
#4461912000
1"
#4478209750
0!
#4478875750
1!
#4479578437
0"
#4482578000
1"
#4498875750
0!
#4499541750
1!
#4500244437
0"
#4503244000
1"
#4519541750
0!
#4520207750
1!
#4520910437
0"
#4523910062
1"
#4540207750
0!
#4540873750
1!
#4541576437
0"
#4544576000
1"
#4560873750
0!
#4561539750
1!
#4562242437
0"
#4565242000
1"
#4581539750
0!
#4582205750
1!
#4582908375
0"
#4585908000
1"
#4602205750
0!
#4602871750
1!
#4603574437
0"
#4606574000
1"
#4622871750
0!
#4623537750
1!
#4624240437
0"
#4627240000
1"
#4643537750
0!
#4644203750
1!
#4644906375
0"
#4647906000
1"
#4664203750
0!
#4664869750
1!
#4665572375
0"
#4668572000
1"
#4684869750
0!
#4685535750
1!
#4686238375
0"
#4689238062
1"
#4705535750
0!
#4706201750
1!
#4706904375
0"
#4709904062
1"
#4726201750
0!
#4726867750
1!
#4727570375
0"
#4730570000
1"
#4746867750
0!
#4747533750
1!
#4748236375
0"
#4751236000
1"
#4767533750
0!
#4768199750
1!
#4768902375
0"
#4771902000
1"
#4788199750
0!
#4788865750
1!
#4789568375
0"
#4792568000
1"
#4808865750
0!
#4809531750
1!
#4810234437
0"
#4813234000
1"
#4813234000
0!
#4814234000
1!
#4829531750
0!
#4830197750
1!
#4830900375
0"
#4833900000
1"
#4850197750
0!
#4850863750
1!
#4851566437
0"
#4854566000
1"
#4870863750
0!
#4871529750
1!
#4872232437
0"
#4875232000
1"
#4891529750
0!
#4892195750
1!
#4892898437
0"
#4895898000
1"
#4912195750
0!
#4912861750
1!
#4913564437
0"
#4916564000
1"
#4932861750
0!
#4933527750
1!
#4934230375
0"
#4937230000
1"
#4953527750
0!
#4954193750
1!
#4954896375
0"
#4957896000
1"
#4974193750
0!
#4974859750
1!
#4975562375
0"
#4978562062
1"
#4994859750
0!
#4995525750
1!
#4996228375
0"
#4999228062
1"
#5015525750
0!
#5016191750
1!
#5016894437
0"
#5019894000
1"
#5036191750
0!
#5036857750
1!
#5037560375
0"
#5040560000
1"
#5056857750
0!
#5057523750
1!
#5058226437
0"
#5061226062
1"
#5077523750
0!
#5078189750
1!
#5078892437
0"
#5081892000
1"
#5098189750
0!
#5098855750
1!
#5099558437
0"
#5102558000
1"
#5118855750
0!
#5119521750
1!
#5120224437
0"
#5123224000
1"
#5139521750
0!
#5140187750
1!
#5140890375
0"
#5143890000
1"
#5160187750
0!
#5160853750
1!
#5161556375
0"
#5164556000
1"
#5180853750
0!
#5181519750
1!
#5182222375
0"
#5185222000
1"
#5201519750
0!
#5202185750
1!
#5202888375
0"
#5205888062
1"
#5222185750
0!
#5222851750
1!
#5223554375
0"
#5226554062
1"
#5242851750
0!
#5243517750
1!
#5244220375
0"
#5247220062
1"
#5263517750
0!
#5264183750
1!
#5264886375
0"
#5267886062
1"
#5284183750
0!
#5284849750
1!
#5285552375
0"
#5288552062
1"
#5288552062
0!
#5289552062
1!
#5304849750
0!
#5305515750
1!
#5306218437
0"
#5309218000
1"
#5325515750
0!
#5326181750
1!
#5326884437
0"
#5329884000
1"
#5346181750
0!
#5346847750
1!
#5347550437
0"
#5350550000
1"
#5366847750
0!
#5367513750
1!
#5368216375
0"
#5371216000
1"
#5387513750
0!
#5388179750
1!
#5388882375
0"
#5391882000
1"
#5408179750
0!
#5408845750
1!
#5409548437
0"
#5412548000
1"
#5428845750
0!
#5429511750
1!
#5430214437
0"
#5433214000
1"
#5449511750
0!
#5450177750
1!
#5450880437
0"
#5453880000
1"
#5470177750
0!
#5470843750
1!
#5471546437
0"
#5474546000
1"
#5490843750
0!
#5491509750
1!
#5492212375
0"
#5495212000
1"
#5511509750
0!
#5512175750
1!
#5512878437
0"
#5515878000
1"
#5532175750
0!
#5532841750
1!
#5533544437
0"
#5536544000
1"
#5536544000
0!
#5537544000
1!
#5552841750
0!
#5553507750
1!
#5554210437
0"
#5557210000
1"
#5573507750
0!
#5574173750
1!
#5574876375
0"
#5577876000
1"
#5594173750
0!
#5594839750
1!
#5595542375
0"
#5598542000
1"
#5614839750
0!
#5615505750
1!
#5616208375
0"
#5619208062
1"
#5635505750
0!
#5636171750
1!
#5636874375
0"
#5639874062
1"
#5656171750
0!
#5656837750
1!
#5657540375
0"
#5660540000
1"
#5676837750
0!
#5677503750
1!
#5678206375
0"
#5681206000
1"
#5697503750
0!
#5698169750
1!
#5698872375
0"
#5701872000
1"
#5718169750
0!
#5718835750
1!
#5719538375
0"
#5722538062
1"
#5738835750
0!
#5739501750
1!
#5740204375
0"
#5743204000
1"
#5759501750
0!
#5760167750
1!
#5760870375
0"
#5763870000
1"
#5780167750
0!
#5780833750
1!
#5781536375
0"
#5784536062
1"
#5800833750
0!
#5801499750
1!
#5802202375
0"
#5805202000
1"
#5821499750
0!
#5822165750
1!
#5822868375
0"
#5825868062
1"
#5842165750
0!
#5842831750
1!
#5843534375
0"
#5846534062
1"
#5846534062
0!
#5847534062
1!
#5862831750
0!
#5863497750
1!
#5864200375
0"
#5867200000
1"
#5883497750
0!
#5884163750
1!
#5884866375
0"
#5887866000
1"
#5904163750
0!
#5904829750
1!
#5905532375
0"
#5908532000
1"
#5924829750
0!
#5925495750
1!
#5945495750
0!
#5946161750
1!
#5966161750
0!
#5966827750
1!
#5986827750
0!
#5987493750
1!
#6007493750
0!
#6008159750
1!
#6008862437
0"
#6011862000
1"
#6028159750
0!
#6028825750
1!
#6029528437
0"
#6032528000
1"
#6048825750
0!
#6049491750
1!
#6050194437
0"
#6053194000
1"
#6069491750
0!
#6070157750
1!
#6070860437
0"
#6073860000
1"
#6073860000
0!
#6074860000
1!
#6090157750
0!
#6090823750
1!
#6091526375
0"
#6094526062
1"
#6110823750
0!
#6111489750
1!
#6112192375
0"
#6115192062
1"
#6131489750
0!
#6132155750
1!
#6132858375
0"
#6135858062
1"
#6152155750
0!
#6152821750
1!
#6153524375
0"
#6156524062
1"
#6172821750
0!
#6173487750
1!
#6174190375
0"
#6177190000
1"
#6193487750
0!
#6194153750
1!
#6194856375
0"
#6197856062
1"
#6214153750
0!
#6214819750
1!
#6215522437
0"
#6218522000
1"
#6234819750
0!
#6235485750
1!
#6236188437
0"
#6239188000
1"
#6255485750
0!
#6256151750
1!
#6256854437
0"
#6259854000
1"
#6276151750
0!
#6276817750
1!
#6277520437
0"
#6280520000
1"
#6296817750
0!
#6297483750
1!
#6298186375
0"
#6301186000
1"
#6317483750
0!
#6318149750
1!
#6318852375
0"
#6321852000
1"
#6321852000
0!
#6322852000
1!
#6338149750
0!
#6338815750
1!
#6339518375
0"
#6342518062
1"
#6358815750
0!
#6359481750
1!
#6360184375
0"
#6363184062
1"
#6379481750
0!
#6380147750
1!
#6380850375
0"
#6383850062
1"
#6400147750
0!
#6400813750
1!
#6401516375
0"
#6404516000
1"
#6420813750
0!
#6421479750
1!
#6422182375
0"
#6425182062
1"
#6441479750
0!
#6442145750
1!
#6442848375
0"
#6445848062
1"
#6462145750
0!
#6462811750
1!
#6463514375
0"
#6466514000
1"
#6466514000
0!
#6467514000
1!
#6482811750
0!
#6483477750
1!
#6484180375
0"
#6487180000
1"
#6503477750
0!
#6504143750
1!
#6504846437
0"
#6507846000
1"
#6524143750
0!
#6524809750
1!
#6525512437
0"
#6528512062
1"
#6544809750
0!
#6545475750
1!
#6546178437
0"
#6549178000
1"
#6565475750
0!
#6566141750
1!
#6566844437
0"
#6569844000
1"
#6586141750
0!
#6586807750
1!
#6587510437
0"
#6590510000
1"
#6606807750
0!
#6607473750
1!
#6608176375
0"
#6611176000
1"
#6627473750
0!
#6628139750
1!
#6628842375
0"
#6631842000
1"
#6648139750
0!
#6648805750
1!
#6649508375
0"
#6652508000
1"
#6652508000
0!
#6653508000
1!
#6668805750
0!
#6669471750
1!
#6670174375
0"
#6673174000
1"
#6673174000
0!
#6674174000
1!
#6689471750
0!
#6690137750
1!
#6690840375
0"
#6693840062
1"
#6710137750
0!
#6710803750
1!
#6711506375
0"
#6714506062
1"
#6730803750
0!
#6731469750
1!
#6732172375
0"
#6735172062
1"
#6751469750
0!
#6752135750
1!
#6752838375
0"
#6755838000
1"
#6772135750
0!
#6772801750
1!
#6773504375
0"
#6776504000
1"
#6792801750
0!
#6793467750
1!
#6794170375
0"
#6797170000
1"
#6813467750
0!
#6814133750
1!
#6814836375
0"
#6817836062
1"
#6834133750
0!
#6834799750
1!
#6835502375
0"
#6838502062
1"
#6854799750
0!
#6855465750
1!
#6856168375
0"
#6859168062
1"
#6875465750
0!
#6876131750
1!
#6876834375
0"
#6879834062
1"
#6896131750
0!
#6896797750
1!
#6897500375
0"
#6900500062
1"
#6916797750
0!
#6917463750
1!
#6918166375
0"
#6921166062
1"
#6937463750
0!
#6938129750
1!
#6938832437
0"
#6941832000
1"
#6958129750
0!
#6958795750
1!
#6959498375
0"
#6962498000
1"
#6978795750
0!
#6979461750
1!
#6980164437
0"
#6983164000
1"
#6999461750
0!
#7000127750
1!
#7000830437
0"
#7003830000
1"
#7020127750
0!
#7020793750
1!
#7021496375
0"
#7024496000
1"
#7024496000
0!
#7025496000
1!
#7040793750
0!
#7041459750
1!
#7042162375
0"
#7045162062
1"
#7061459750
0!
#7062125750
1!
#7062828375
0"
#7065828062
1"
#7082125750
0!
#7082791750
1!
#7083494437
0"
#7086494062
1"
#7102791750
0!
#7103457750
1!
#7104160375
0"
#7107160000
1"
#7123457750
0!
#7124123750
1!
#7124826437
0"
#7127826000
1"
#7144123750
0!
#7144789750
1!
#7145492437
0"
#7148492000
1"
#7148492000
0!
#7149492000
1!
#7164789750
0!
#7165455750
1!
#7166158375
0"
#7169158062
1"
#7185455750
0!
#7186121750
1!
#7186824375
0"
#7189824000
1"
#7206121750
0!
#7206787750
1!
#7207490375
0"
#7210490000
1"
#7226787750
0!
#7227453750
1!
#7228156375
0"
#7231156000
1"
#7247453750
0!
#7248119750
1!
#7248822375
0"
#7251822062
1"
#7268119750
0!
#7268785750
1!
#7269488375
0"
#7272488062
1"
#7288785750
0!
#7289451750
1!
#7290154437
0"
#7293154000
1"
#7309451750
0!
#7310117750
1!
#7310820375
0"
#7313820000
1"
#7313820000
0!
#7314820000
1!
#7330117750
0!
#7330783750
1!
#7331486375
0"
#7334486062
1"
#7350783750
0!
#7351449750
1!
#7352152375
0"
#7355152062
1"
#7371449750
0!
#7372115750
1!
#7372818375
0"
#7375818000
1"
#7392115750
0!
#7392781750
1!
#7393484375
0"
#7396484000
1"
#7412781750
0!
#7413447750
1!
#7414150375
0"
#7417150000
1"
#7417150000
0!
#7418150000
1!
#7433447750
0!
#7434113750
1!
#7434816437
0"
#7437816000
1"
#7454113750
0!
#7454779750
1!
#7455482437
0"
#7458482000
1"
#7474779750
0!
#7475445750
1!
#7476148437
0"
#7479148000
1"
#7495445750
0!
#7496111750
1!
#7496814437
0"
#7499814000
1"
#7516111750
0!
#7516777750
1!
#7517480437
0"
#7520480000
1"
#7536777750
0!
#7537443750
1!
#7538146375
0"
#7541146000
1"
#7557443750
0!
#7558109750
1!
#7558812437
0"
#7561812000
1"
#7578109750
0!
#7578775750
1!
#7579478375
0"
#7582478000
1"
#7598775750
0!
#7599441750
1!
#7600144375
0"
#7603144000
1"
#7619441750
0!
#7620107750
1!
#7620810375
0"
#7623810000
1"
#7640107750
0!
#7640773750
1!
#7641477312
0"
#7644476000
1"
#7660773750
0!
#7661439750
1!
#7662142437
0"
#7665142000
1"
#7681439750
0!
#7682105750
1!
#7682808437
0"
#7685808000
1"
#7702105750
0!
#7702771750
1!
#7703474437
0"
#7706474000
1"
#7722771750
0!
#7723437750
1!
#7724140375
0"
#7727140062
1"
#7743437750
0!
#7744103750
1!
#7744806375
0"
#7747806000
1"
#7764103750
0!
#7764769750
1!
#7765472375
0"
#7768472000
1"
#7784769750
0!
#7785435750
1!
#7786138375
0"
#7789138000
1"
#7805435750
0!
#7806101750
1!
#7806804375
0"
#7809804000
1"
#7826101750
0!
#7826767750
1!
#7827470375
0"
#7830470000
1"
#7846767750
0!
#7847433750
1!
#7848136375
0"
#7851136062
1"
#7867433750
0!
#7868099750
1!
#7868805250
0"
#7871802062
1"
#7888099750
0!
#7888765750
1!
#7889468375
0"
#7892468062
1"
#7908765750
0!
#7909431750
1!
#7910134375
0"
#7913134062
1"
#7929431750
0!
#7930097750
1!
#7930800375
0"
#7933800000
1"
#7950097750
0!
#7950763750
1!
#7951466375
0"
#7954466000
1"
#7970763750
0!
#7971429750
1!
#7972132375
0"
#7975132000
1"
#7991429750
0!
#7992095750
1!
#7992798375
0"
#7995798062
1"
#8012095750
0!
#8012761749
1!
#8013464375
0"
#8016463999
1"
#8032761750
0!
#8033427750
1!
#8034130375
0"
#8037129999
1"
#8053427750
0!
#8054093750
1!
#8054796375
0"
#8057796062
1"
#8074093749
0!
#8074759750
1!
#8075462375
0"
#8078462062
1"
#8094759750
0!
#8095425750
1!
#8096133249
0"
#8099128062
1"
#8115425750
0!
#8116091750
1!
#8116794375
0"
#8119794062
1"
#8119794062
0!
#8120794062
1!
#8136091750
0!
#8136757749
1!
#8137460375
0"
#8140459999
1"
#8156757750
0!
#8157423750
1!
#8158126375
0"
#8161125999
1"
#8161125999
0!
#8162126000
1!
#8177423750
0!
#8178089750
1!
#8178792375
0"
#8181792000
1"
#8181792000
0!
#8182791999
1!
#8198089749
0!
#8198755750
1!
#8199458375
0"
#8202458062
1"
#8218755750
0!
#8219421750
1!
#8220124374
0"
#8223124000
1"
#8223124000
0!
#8224124000
1!
#8239421750
0!
#8240087750
1!
#8240790437
0"
#8243790000
1"
#8260087750
0!
#8260753749
1!
#8261456437
0"
#8264455999
1"
#8280753750
0!
#8281419750
1!
#8282122437
0"
#8285121999
1"
#8301419750
0!
#8302085750
1!
#8302788375
0"
#8305788000
1"
#8322085749
0!
#8322751750
1!
#8323454375
0"
#8326454000
1"
#8342751750
0!
#8343417750
1!
#8344120374
0"
#8347120062
1"
#8363417750
0!
#8364083750
1!
#8364786375
0"
#8367786062
1"
#8384083750
0!
#8384749749
1!
#8385452437
0"
#8388451999
1"
#8388451999
0!
#8389452000
1!
#8404749750
0!
#8405415749
1!
#8406118437
0"
#8409117999
1"
#8409117999
0!
#8410118000
1!
#8425415750
0!
#8426081750
1!
#8426784375
0"
#8429784000
1"
#8446081749
0!
#8446747750
1!
#8447450437
0"
#8450450062
1"
#8466747750
0!
#8467413750
1!
#8468116374
0"
#8471116000
1"
#8487413750
0!
#8488079750
1!
#8488782375
0"
#8491782000
1"
#8508079750
0!
#8508745749
1!
#8509448375
0"
#8512448062
1"
#8528745750
0!
#8529411749
1!
#8530114375
0"
#8533114062
1"
#8549411750
0!
#8550077750
1!
#8550780375
0"
#8553780062
1"
#8570077749
0!
#8570743750
1!
#8571446375
0"
#8574446000
1"
#8590743750
0!
#8591409750
1!
#8592112375
0"
#8595112000
1"
#8611409750
0!
#8612075750
1!
#8612778375
0"
#8615778000
1"
#8632075750
0!
#8632741750
1!
#8633444375
0"
#8636444000
1"
#8652741750
0!
#8653407750
1!
#8654110375
0"
#8657110062
1"
#8673407750
0!
#8674073750
1!
#8674776437
0"
#8677776000
1"
#8694073750
0!
#8694739750
1!
#8695442375
0"
#8698442062
1"
#8714739750
0!
#8715405750
1!
#8716108375
0"
#8719108062
1"
#8735405750
0!
#8736071750
1!
#8736774437
0"
#8739774000
1"
#8756071750
0!
#8756737750
1!
#8757440437
0"
#8760440000
1"
#8776737750
0!
#8777403750
1!
#8778106437
0"
#8781106000
1"
#8797403750
0!
#8798069750
1!
#8798772375
0"
#8801772000
1"
#8818069750
0!
#8818735750
1!
#8819438375
0"
#8822438062
1"
#8838735750
0!
#8839401750
1!
#8840104375
0"
#8843104062
1"
#8859401750
0!
#8860067750
1!
#8860770437
0"
#8863770000
1"
#8880067750
0!
#8880733750
1!
#8881436437
0"
#8884436000
1"
#8900733750
0!
#8901399750
1!
#8902102437
0"
#8905102000
1"
#8905102000
0!
#8906102000
1!
#8921399750
0!
#8922065750
1!
#8922768375
0"
#8925768062
1"
#8942065750
0!
#8942731750
1!
#8943434375
0"
#8946434000
1"
#8962731750
0!
#8963397750
1!
#8964100375
0"
#8967100000
1"
#8983397750
0!
#8984063750
1!
#8984766375
0"
#8987766000
1"
#9004063750
0!
#9004729750
1!
#9005432375
0"
#9008432000
1"
#9024729750
0!
#9025395750
1!
#9026098437
0"
#9029098000
1"
#9045395750
0!
#9046061750
1!
#9046764437
0"
#9049764000
1"
#9049764000
0!
#9050764000
1!
#9066061750
0!
#9066727750
1!
#9067430437
0"
#9070430000
1"
#9086727750
0!
#9087393750
1!
#9088096375
0"
#9091096000
1"
#9107393750
0!
#9108059750
1!
#9108762375
0"
#9111762000
1"
#9128059750
0!
#9128725750
1!
#9129428375
0"
#9132428062
1"
#9148725750
0!
#9149391750
1!
#9150094375
0"
#9153094062
1"
#9169391750
0!
#9170057750
1!
#9170760375
0"
#9173760062
1"
#9190057750
0!
#9190723750
1!
#9191426375
0"
#9194426062
1"
#9210723750
0!
#9211389750
1!
#9212092437
0"
#9215092000
1"
