analysis/wokwi-logic.vcd
$version Generated by Wokwi.com $end
$date Thu, 28 Aug 2025 12:47:39 GMT $end
$timescale 1ns $end
$scope module logic $end
$var wire 1 ! D2 $end
$var wire 1 " D3 $end
$upscope $end
$enddefinitions $end
#0
0!
#0
0"
#0
1!
#1920900000
0!
#1922000000
1!
#1958400000
0!
#1959500000
1!
#1986749937
1"
#1989749875
0"
#1995900000
0!
#1997000000
1!
#2001718500
1"
#2004717874
0"
#2033399999
0!
#2034500000
1!
#2039218125
1"
#2042217812
0"
#2070900000
0!
#2072000000
1!
#2076718312
1"
#2079717812
0"
#2108400000
0!
#2109500000
1!
#2114217937
1"
#2117217812
0"
#2145900000
0!
#2146999999
1!
#2151717937
1"
#2154717875
0"
#2183400000
0!
#2184500000
1!
#2189218000
1"
#2192217812
0"
#2220900000
0!
#2222000000
1!
#2226717937
1"
#2229717812
0"
#2258400000
0!
#2259500000
1!
#2264217937
1"
#2267217875
0"
#2295900000
0!
#2297000000
1!
#2301733937
1"
#2304734187
0"
#2333400000
0!
#2334500000
1!
#2339217937
1"
#2342218187
0"
#2370900000
0!
#2372000000
1!
#2376717937
1"
#2379718375
0"
#2408400000
0!
#2409500000
1!
#2414217937
1"
#2417218000
0"
#2445900000
0!
#2447000000
1!
#2451718500
1"
#2454717875
0"
#2483400000
0!
#2484500000
1!
#2489218000
1"
#2492217812
0"
#2520900000
0!
#2522000000
1!
#2526718312
1"
#2529717812
0"
#2558400000
0!
#2559500000
1!
#2564217937
1"
#2567217875
0"
#2595900000
0!
#2597000000
1!
#2601734000
1"
#2604733812
0"
#2633400000
0!
#2634500000
1!
#2639222187
1"
#2642221812
0"
#2670900000
0!
#2672000000
1!
#2676718000
1"
#2679717812
0"
#2708400000
0!
#2709500000
1!
#2714218000
1"
#2717217812
0"
#2745900000
0!
#2747000000
1!
#2751717937
1"
#2754717875
0"
#2783400000
0!
#2784500000
1!
#2789217937
1"
#2792217812
0"
#2820900000
0!
#2822000000
1!
#2826717937
1"
#2829718375
0"
#2858400000
0!
#2859500000
1!
#2864217937
1"
#2867217875
0"
#2895900000
0!
#2897000000
1!
#2901717937
1"
#2904718187
0"
#2933400000
0!
#2934500000
1!
#2939218375
1"
#2942217875
0"
#2970900000
0!
#2972000000
1!
#2976717937
1"
#2979717812
0"
#3008400000
0!
#3009500000
1!
#3014218187
1"
#3017217812
0"
#3045900000
0!
#3047000000
1!
#3051734000
1"
#3054733812
0"
#3083400000
0!
#3084500000
1!
#3089221937
1"
#3092221875
0"
#3120900000
0!
#3122000000
1!
#3126718000
1"
#3129717812
0"
#3158400000
0!
#3159500000
1!
#3164218187
1"
#3167217812
0"
#3195900000
0!
#3197000000
1!
#3201717937
1"
#3204717812
0"
#3233400000
0!
#3234500000
1!
#3239217937
1"
#3242217812
0"
#3270900000
0!
#3272000000
1!
#3276717937
1"
#3279717812
0"
#3308400000
0!
#3309500000
1!
#3314217937
1"
#3317218250
0"
#3345900000
0!
#3347000000
1!
#3351717937
1"
#3354717812
0"
#3383400000
0!
#3384500000
1!
#3389217937
1"
#3392218062
0"
#3420900000
0!
#3422000000
1!
#3426717937
1"
#3429717812
0"
#3458400000
0!
#3459500000
1!
#3464217937
1"
#3467217875
0"
#3495900000
0!
#3497000000
1!
#3501718375
1"
#3504717875
0"
#3533400000
0!
#3534500000
1!
#3539217937
1"
#3542217812
0"
#3570900000
0!
#3572000000
1!
#3576718000
1"
#3579717812
0"
#3608400000
0!
#3609500000
1!
#3614218000
1"
#3617217812
0"
#3645900000
0!
#3647000000
1!
#3651717937
1"
#3654717812
0"
#3683400000
0!
#3684500000
1!
#3689217937
1"
#3692217812
0"
#3720900000
0!
#3722000000
1!
#3726717937
1"
#3729718250
0"
#3758400000
0!
#3759500000
1!
#3764217937
1"
#3767217812
0"
#3795900000
0!
#3797000000
1!
#3801717937
1"
#3804718062
0"
#3833400000
0!
#3834500000
1!
#3839218250
1"
#3842217812
0"
#3870900000
0!
#3872000000
1!
#3876718437
1"
#3879717812
0"
#3901000000
0!
#3902100000
1!
#3904865937
1"
#3907865875
0"
#3931100000
0!
#3932200000
1!
#3934965937
1"
#3937965875
0"
#3961200000
0!
#3962300000
1!
#3965065937
1"
#3968065875
0"
#3991300000
0!
#3992400000
1!
#3995165937
1"
#3998166000
0"
#4021400000
0!
#4022500000
1!
#4025265937
1"
#4028266000
0"
#4051500000
0!
#4052600000
1!
#4055366312
1"
#4058365812
0"
#4081600000
0!
#4082700000
1!
#4085466000
1"
#4088465812
0"
#4111700000
0!
#4112800000
1!
#4115565937
1"
#4118565812
0"
#4141800000
0!
#4142900000
1!
#4145665937
1"
#4148665812
0"
#4171900000
0!
#4173000000
1!
#4175765937
1"
#4178765812
0"
#4202000000
0!
#4203100000
1!
#4205865937
1"
#4208865875
0"
#4232100000
0!
#4233200000
1!
#4235965937
1"
#4238965875
0"
#4262200000
0!
#4263300000
1!
#4266066437
1"
#4269065875
0"
#4292300000
0!
#4293400000
1!
#4296166000
1"
#4299165812
0"
#4322400000
0!
#4323500000
1!
#4326266000
1"
#4329265812
0"
#4352500000
0!
#4353600000
1!
#4356365937
1"
#4359365812
0"
#4382600000
0!
#4383700000
1!
#4386465937
1"
#4389466312
0"
#4412700000
0!
#4413800000
1!
#4416565937
1"
#4419566312
0"
#4442800000
0!
#4443900000
1!
#4446665937
1"
#4449665875
0"
#4472900000
0!
#4474000000
1!
#4476766312
1"
#4479765812
0"
#4503000000
0!
#4504100000
1!
#4506866000
1"
#4509865812
0"
#4533100000
0!
#4534200000
1!
#4536966000
1"
#4539965812
0"
#4563200000
0!
#4564300000
1!
#4567066000
1"
#4570065812
0"
#4593300000
0!
#4594400000
1!
#4597165937
1"
#4600166187
0"
#4623400000
0!
#4624500000
1!
#4627265937
1"
#4630266187
0"
#4653500000
0!
#4654600000
1!
#4657366500
1"
#4660365875
0"
#4683600000
0!
#4684700000
1!
#4687466187
1"
#4690465812
0"
#4713700000
0!
#4714800000
1!
#4717566187
1"
#4720565812
0"
#4743800000
0!
#4744900000
1!
#4747666000
1"
#4750665812
0"
#4773900000
0!
#4775000000
1!
#4777765937
1"
#4780765812
0"
#4804000000
0!
#4805100000
1!
#4807865937
1"
#4810866062
0"
#4834100000
0!
#4835200000
1!
#4837965937
1"
#4840966062
0"
#4864200000
0!
#4865300000
1!
#4868065937
1"
#4871066062
0"
#4894300000
0!
#4895400000
1!
#4898170437
1"
#4901169812
0"
#4924400000
0!
#4925500000
1!
#4928270437
1"
#4931269812
0"
#4954500000
0!
#4955600000
1!
#4958366000
1"
#4961365812
0"
#4984600000
0!
#4985700000
1!
#4988465937
1"
#4991465812
0"
#5014700000
0!
#5015800000
1!
#5018565937
1"
#5021565812
0"
#5044800000
0!
#5045900000
1!
#5048666000
1"
#5051665812
0"
#5074900000
0!
#5076000000
1!
#5078766000
1"
#5081765812
0"
#5105000000
0!
#5106100000
1!
#5108865937
1"
#5111865812
0"
#5135100000
0!
#5136200000
1!
#5138965937
1"
#5141965812
0"
#5165200000
0!
#5166300000
1!
#5169065937
1"
#5172065812
0"
#5195300000
0!
#5196400000
1!
#5199166437
1"
#5202165812
0"
#5225400000
0!
#5226500000
1!
#5229266437
1"
#5232265812
0"
#5255500000
0!
#5256600000
1!
#5259366000
1"
#5262365812
0"
#5285600000
0!
#5286700000
1!
#5289465937
1"
#5292465812
0"
#5315700000
0!
#5316800000
1!
#5319565937
1"
#5322565875
0"
#5345800000
0!
#5346900000
1!
#5349665937
1"
#5352666312
0"
#5375900000
0!
#5377000000
1!
#5379765937
1"
#5382766312
0"
#5406000000
0!
#5407100000
1!
#5409865937
1"
#5412866000
0"
#5436100000
0!
#5437200000
1!
#5439966312
1"
#5442965812
0"
#5466200000
0!
#5467300000
1!
#5470066312
1"
#5473065812
0"
#5496300000
0!
#5497400000
1!
#5500165937
1"
#5503165812
0"
#5526400000
0!
#5527500000
1!
#5530265937
1"
#5533265812
0"
#5556500000
0!
#5557600000
1!
#5560365937
1"
#5563365812
0"
#5586600000
0!
#5587700000
1!
#5590465937
1"
#5593466187
0"
#5616700000
0!
#5617800000
1!
#5620565937
1"
#5623565875
0"
#5646800000
0!
#5647900000
1!
#5650666187
1"
#5653665812
0"
#5676900000
0!
#5678000000
1!
#5680766187
1"
#5683765812
0"
#5707000000
0!
#5708100000
1!
#5710866000
1"
#5713865812
0"
#5737100000
0!
#5738200000
1!
#5740965937
1"
#5743965812
0"
#5767200000
0!
#5768300000
1!
#5771065937
1"
#5774065812
0"
#5797300000
0!
#5798400000
1!
#5801165937
1"
#5804166062
0"
#5827400000
0!
#5828500000
1!
#5831265937
1"
#5834265875
0"
#5857500000
0!
#5858600000
1!
#5861370000
1"
#5864370125
0"
#5883000000
0!
#5884100000
1!
#5885645937
1"
#5888645875
0"
#5908100000
0!
#5909200000
1!
#5910641937
1"
#5913641875
0"
#5933200000
0!
#5934300000
1!
#5935741937
1"
#5938741812
0"
#5958300000
0!
#5959400000
1!
#5960841937
1"
#5963841875
0"
#5983400000
0!
#5984500000
1!
#5985941937
1"
#5988941937
0"
#6008500000
0!
#6009600000
1!
#6011041937
1"
#6014041812
0"
#6033600000
0!
#6034700000
1!
#6036142000
1"
#6039141812
0"
#6058700000
0!
#6059800000
1!
#6061242187
1"
#6064241812
0"
#6083800000
0!
#6084900000
1!
#6086341937
1"
#6089342000
0"
#6108900000
0!
#6110000000
1!
#6111441937
1"
#6114441812
0"
#6134000000
0!
#6135100000
1!
#6136541937
1"
#6139541812
0"
#6159100000
0!
#6160200000
1!
#6161642250
1"
#6164641875
0"
#6184200000
0!
#6185300000
1!
#6186741937
1"
#6189742375
0"
#6209300000
0!
#6210400000
1!
#6211841937
1"
#6214841812
0"
#6234400000
0!
#6235500000
1!
#6236942187
1"
#6239941812
0"
#6259500000
0!
#6260600000
1!
#6262042312
1"
#6265041812
0"
#6284600000
0!
#6285700000
1!
#6287141937
1"
#6290141812
0"
#6309700000
0!
#6310800000
1!
#6312241937
1"
#6315241875
0"
#6334800000
0!
#6335900000
1!
#6337342250
1"
#6340341875
0"
#6359900000
0!
#6361000000
1!
#6362442000
1"
#6365441812
0"
#6385000000
0!
#6386100000
1!
#6387541937
1"
#6390541812
0"
#6410100000
0!
#6411200000
1!
#6412642000
1"
#6415641812
0"
#6435200000
0!
#6436300000
1!
#6437742312
1"
#6440741812
0"
#6460300000
0!
#6461400000
1!
#6462841937
1"
#6465841875
0"
#6485400000
0!
#6486500000
1!
#6487941937
1"
#6490941875
0"
#6510500000
0!
#6511600000
1!
#6513041937
1"
#6516041812
0"
#6535600000
0!
#6536700000
1!
#6538142000
1"
#6541141812
0"
#6560700000
0!
#6561800000
1!
#6563241937
1"
#6566241937
0"
#6585800000
0!
#6586900000
1!
#6588342000
1"
#6591341812
0"
#6610900000
0!
#6612000000
1!
#6613442000
1"
#6616441812
0"
#6636000000
0!
#6637100000
1!
#6638541937
1"
#6641541875
0"
#6661100000
0!
#6662200000
1!
#6663641937
1"
#6666642312
0"
#6686200000
0!
#6687300000
1!
#6688741937
1"
#6691741812
0"
#6711300000
0!
#6712400000
1!
#6713842125
1"
#6716841812
0"
#6736400000
0!
#6737500000
1!
#6738941937
1"
#6741941937
0"
#6761500000
0!
#6762600000
1!
#6764041937
1"
#6767042375
0"
#6786600000
0!
#6787700000
1!
#6789142062
1"
#6792141812
0"
#6811700000
0!
#6812800000
1!
#6814242187
1"
#6817241812
0"
#6836800000
0!
#6837900000
1!
#6839341937
1"
#6842342312
0"
#6861900000
0!
#6863000000
1!
#6864441937
1"
#6867441812
0"
#6887000000
0!
#6888100000
1!
#6889542125
1"
#6892541812
0"
#6912100000
0!
#6913200000
1!
#6914645937
1"
#6917646062
0"
#6937200000
0!
#6938300000
1!
#6939741937
1"
#6942742375
0"
#6962300000
0!
#6963400000
1!
#6964842000
1"
#6967841812
0"
#6987400000
0!
#6988500000
1!
#6989942000
1"
#6992941812
0"
#7012500000
0!
#7013600000
1!
#7015041937
1"
#7018041875
0"
#7037600000
0!
#7038700000
1!
#7040141937
1"
#7043141812
0"
#7062700000
0!
#7063800000
1!
#7065241937
1"
#7068241875
0"
#7087800000
0!
#7088900000
1!
#7090346375
1"
#7093349875
0"
#7112900000
0!
#7114000000
1!
#7115442000
1"
#7118441812
0"
#7138000000
0!
#7139100000
1!
#7140541937
1"
#7143542250
0"
#7163100000
0!
#7164200000
1!
#7165642000
1"
#7168641812
0"
#7188200000
0!
#7189300000
1!
#7190742062
1"
#7193741812
0"
#7213300000
0!
#7214400000
1!
#7215841937
1"
#7218842187
0"
#7238400000
0!
#7239500000
1!
#7240941937
1"
#7243942312
0"
#7263500000
0!
#7264600000
1!
#7266042000
1"
#7269041812
0"
#7288600000
0!
#7289700000
1!
#7291142125
1"
#7294141812
0"
#7313700000
0!
#7314800000
1!
#7316241937
1"
#7319242250
0"
#7338800000
0!
#7339900000
1!
#7341341937
1"
#7344341812
0"
#7363900000
0!
#7365000000
1!
#7366442062
1"
#7369441812
0"
#7389000000
0!
#7390100000
1!
#7391542500
1"
#7394541875
0"
#7414100000
0!
#7415200000
1!
#7416641937
1"
#7419642312
0"
#7439200000
0!
#7440300000
1!
#7441741937
1"
#7444741812
0"
#7464300000
0!
#7465400000
1!
#7466842125
1"
#7469841812
0"
#7489400000
0!
#7490500000
1!
#7491941937
1"
#7494941812
0"
#7514500000
0!
#7515600000
1!
#7517041937
1"
#7520041812
0"
#7539600000
0!
#7540700000
1!
#7542142000
1"
#7545141812
0"
#7564700000
0!
#7565800000
1!
#7567242500
1"
#7570241875
0"
#7589800000
0!
#7590900000
1!
#7592341937
1"
#7595342062
0"
#7614900000
0!
#7616000000
1!
#7617441937
1"
#7620441812
0"
#7640000000
0!
#7641100000
1!
#7642542000
1"
#7645541812
0"
#7665100000
0!
#7666200000
1!
#7667645937
1"
#7670646062
0"
#7690200000
0!
#7691300000
1!
#7692742000
1"
#7695742125
0"
#7715300000
0!
#7716400000
1!
#7717842000
1"
#7720841812
0"
#7740400000
0!
#7741500000
1!
#7742941937
1"
#7745941812
0"
#7765500000
0!
#7766600000
1!
#7768041937
1"
#7771042062
0"
#7790600000
0!
#7791700000
1!
#7793141937
1"
#7796142187
0"
#7815700000
0!
#7816800000
1!
#7818242000
1"
#7821241812
0"
#7840800000
0!
#7841900000
1!
#7843346375
1"
#7846345875
0"
#7865900000
0!
#7867000000
1!
#7868442000
1"
#7871442125
0"
#7887400000
0!
#7888500000
1!
#7888998125
1"
#7891997812
0"
#7908900000
0!
#7910000000
1!
#7910493937
1"
#7913493875
0"
#7930400000
0!
#7931500000
1!
#7931993937
1"
#7934994000
0"
#7951900000
0!
#7953000000
1!
#7953493937
1"
#7956493812
0"
#7973400000
0!
#7974500000
1!
#7974993937
1"
#7977993875
0"
#7994900000
0!
#7996000000
1!
#7996493937
1"
#7999493812
0"
#8016400000
0!
#8017500000
1!
#8017993937
1"
#8020993812
0"
#8037900000
0!
#8039000000
1!
#8039494250
1"
#8042493875
0"
#8059400000
0!
#8060499999
1!
#8060994375
1"
#8063993875
0"
#8080900000
0!
#8082000000
1!
#8082493937
1"
#8085493937
0"
#8102399999
0!
#8103500000
1!
#8103993937
1"
#8106994062
0"
#8123900000
0!
#8125000000
1!
#8125493937
1"
#8128493812
0"
#8145400000
0!
#8146500000
1!
#8146993937
1"
#8149993812
0"
#8166900000
0!
#8167999999
1!
#8168494000
1"
#8171493812
0"
#8188400000
0!
#8189500000
1!
#8189994000
1"
#8192993812
0"
#8209899999
0!
#8211000000
1!
#8211498000
1"
#8214497812
0"
#8231400000
0!
#8232500000
1!
#8232994437
1"
#8235993875
0"
#8252900000
0!
#8254000000
1!
#8254493937
1"
#8257493999
0"
#8274400000
0!
#8275499999
1!
#8275994000
1"
#8278993812
0"
#8295900000
0!
#8297000000
1!
#8297493937
1"
#8300493875
0"
#8317399999
0!
#8318500000
1!
#8318993937
1"
#8321993812
0"
#8338900000
0!
#8340000000
1!
#8340493937
1"
#8343493812
0"
#8360400000
0!
#8361499999
1!
#8361993937
1"
#8364993875
0"
#8381900000
0!
#8382999999
1!
#8383494375
1"
#8386493874
0"
#8403400000
0!
#8404500000
1!
#8404994500
1"
#8407993937
0"
#8424899999
0!
#8426000000
1!
#8426493937
1"
#8429494062
0"
#8446400000
0!
#8447500000
1!
#8447993937
1"
#8450993812
0"
#8467900000
0!
#8468999999
1!
#8469493937
1"
#8472493812
0"
#8489400000
0!
#8490500000
1!
#8490993937
1"
#8493993812
0"
#8510899999
0!
#8512000000
1!
#8512494000
1"
#8515493812
0"
#8532400000
0!
#8533500000
1!
#8533994000
1"
#8536993812
0"
#8553900000
0!
#8555000000
1!
#8555494437
1"
#8558493812
0"
#8575400000
0!
#8576499999
1!
#8576993937
1"
#8579993999
0"
#8596900000
0!
#8598000000
1!
#8598494000
1"
#8601494125
0"
#8618400000
0!
#8619500000
1!
#8619993937
1"
#8622993875
0"
#8639900000
0!
#8641000000
1!
#8641493937
1"
#8644493812
0"
#8661400000
0!
#8662500000
1!
#8662993937
1"
#8665993812
0"
#8682900000
0!
#8684000000
1!
#8684493937
1"
#8687493812
0"
#8704400000
0!
#8705500000
1!
#8705994375
1"
#8708993875
0"
#8725900000
0!
#8727000000
1!
#8727494500
1"
#8730493875
0"
#8747400000
0!
#8748500000
1!
#8748993937
1"
#8751994062
0"
#8768900000
0!
#8770000000
1!
#8770493937
1"
#8773494187
0"
#8790400000
0!
#8791500000
1!
#8791993937
1"
#8794993812
0"
#8811900000
0!
#8813000000
1!
#8813493937
1"
#8816493812
0"
#8833400000
0!
#8834500000
1!
#8834994000
1"
#8837993812
0"
#8854900000
0!
#8856000000
1!
#8856494000
1"
#8859493812
0"
#8876400000
0!
#8877500000
1!
#8877994437
1"
#8880993812
0"
#8897900000
0!
#8899000000
1!
#8899493937
1"
#8902493812
0"
#8919400000
0!
#8920500000
1!
#8920994000
1"
#8923994125
0"
#8940900000
0!
#8942000000
1!
#8942493937
1"
#8945494250
0"
#8962400000
0!
#8963500000
1!
#8963993937
1"
#8966993812
0"
#8983900000
0!
#8985000000
1!
#8985494000
1"
#8988493812
0"
#9005400000
0!
#9006500000
1!
#9006993937
1"
#9009993812
0"
#9026900000
0!
#9028000000
1!
#9028494062
1"
#9031493812
0"
#9048400000
0!
#9049500000
1!
#9049994500
1"
#9052993875
0"
#9069900000
0!
#9071000000
1!
#9071493937
1"
#9074493875
0"
#9091400000
0!
#9092500000
1!
#9092993937
1"
#9095994187
0"
#9112900000
0!
#9114000000
1!
#9114493937
1"
#9117494312
0"
#9134400000
0!
#9135500000
1!
#9135993937
1"
#9138993812
0"
#9155900000
0!
#9157000000
1!
#9157493937
1"
#9160493875
0"
#9177400000
0!
#9178500000
1!
#9178994000
1"
#9181993812
0"
#9198900000
0!
#9200000000
1!
#9200494125
1"
#9203493812
0"
#9220400000
0!
#9221500000
1!
#9221993937
1"
#9224993812
0"
#9241900000
0!
#9243000000
1!
#9243494000
1"
#9246493812
0"
#9263400000
0!
#9264500000
1!
#9264993937
1"
#9267994250
0"
#9284900000
0!
#9286000000
1!
#9286493937
1"
#9289494375
0"
#9306400000
0!
#9307500000
1!
#9307994000
1"
#9310993812
0"
#9327900000
0!
#9329000000
1!
#9329494000
1"
#9332493812
0"
#9349400000
0!
#9350500000
1!
#9350994062
1"
#9353993812
0"
#9370900000
0!
#9372000000
1!
#9372494187
1"
#9375493812
0"
#9392400000
0!
#9393500000
1!
#9393993937
1"
#9396993875
0"
#9413900000
0!
#9415000000
1!
#9415493937
1"
#9418493875
0"
#9435400000
0!
#9436500000
1!
#9436993937
1"
#9439994312
0"
#9456900000
0!
#9458000000
1!
#9458493937
1"
#9461493812
0"
#9478400000
0!
#9479500000
1!
#9479993937
1"
#9482993875
0"
#9499900000
0!
#9501000000
1!
#9501493937
1"
#9504493812
0"
#9521400000
0!
#9522500000
1!
#9522994125
1"
#9525993812
0"
#9542900000
0!
#9544000000
1!
#9544494250
1"
#9547493875
0"
#9564400000
0!
#9565500000
1!
#9565994000
1"
#9568993812
0"
#9585900000
0!
#9587000000
1!
#9587493937
1"
#9590493937
0"
#9607400000
0!
#9608500000
1!
#9608993937
1"
#9611994375
0"
#9628900000
0!
#9630000000
1!
#9630493937
1"
#9633493812
0"
#9650400000
0!
#9651500000
1!
#9651994000
1"
#9654993812
0"
#9671900000
0!
#9673000000
1!
#9673494000
1"
#9676493812
0"
#9693400000
0!
#9694500000
1!
#9694994187
1"
#9697993812
0"
#9714900000
0!
#9716000000
1!
#9716498000
1"
#9719497812
0"
#9736400000
0!
#9737500000
1!
#9737993937
1"
#9740993875
0"
#9757900000
0!
#9759000000
1!
#9759493937
1"
#9762494000
0"
#9779400000
0!
#9780500000
1!
#9780993937
1"
#9783993812
0"
#9800900000
0!
#9802000000
1!
#9802493937
1"
#9805493875
0"
#9822400000
0!
#9823500000
1!
#9823993937
1"
#9826993812
0"
#9843900000
0!
#9845000000
1!
#9845493937
1"
#9848493812
0"
#9865400000
0!
#9866500000
1!
#9866994250
1"
#9869993875
0"
#9884200000
0!
#9885094187
1"
#9885300000
1!
#9888093812
0"
#9903000000
0!
#9903894437
1"
#9904100000
1!
#9906893812
0"
#9921800000
0!
#9922693937
1"
#9922900000
1!
#9925693875
0"
#9940600000
0!
#9941494000
1"
#9941700000
1!
#9944493812
0"
#9959400000
0!
#9960298375
1"
#9960500000
1!
#9963297875
0"
#9978200000
0!
#9979089937
1"
#9979300000
1!
#9982089875
0"
#9997000000
0!
#9997893937
1"
#9998100000
1!
#10000894375
0"
#10015800000
0!
#10016698375
1"
#10016900000
1!
#10019697875
0"
#10034600000
0!
#10035489937
1"
#10035700000
1!
#10038490062
0"
#10053400000
0!
#10054293937
1"
#10054500000
1!
#10057294375
0"
#10072200000
0!
#10073093937
1"
#10073300000
1!
#10076093812
0"
#10091000000
0!
#10091893937
1"
#10092100000
1!
#10094894000
0"
#10109800000
0!
#10110693937
1"
#10110900000
1!
#10113694250
0"
#10128600000
0!
#10129493937
1"
#10129700000
1!
#10132494187
0"
#10147400000
0!
#10148294437
1"
#10148500000
1!
#10151293812
0"
#10166200000
0!
#10167094000
1"
#10167300000
1!
#10170093812
0"
#10185000000
0!
#10185894062
1"
#10186100000
1!
#10188893875
0"
#10203800000
0!
#10204694312
1"
#10204900000
1!
#10207693812
0"
#10222600000
0!
#10223494250
1"
#10223700000
1!
#10226493875
0"
#10241400000
0!
#10242293937
1"
#10242500000
1!
#10245293812
0"
#10260200000
0!
#10261094000
1"
#10261300000
1!
#10264093812
0"
#10279000000
0!
#10279893937
1"
#10280100000
1!
#10282893812
0"
#10297800000
0!
#10298694000
1"
#10298900000
1!
#10301693812
0"
#10316600000
0!
#10317493937
1"
#10317700000
1!
#10320493812
0"
#10335400000
0!
#10336293937
1"
#10336500000
1!
#10339293812
0"
#10354200000
0!
#10355093937
1"
#10355300000
1!
#10358094375
0"
#10373000000
0!
#10373893937
1"
#10374100000
1!
#10376893812
0"
#10391800000
0!
#10392693937
1"
#10392900000
1!
#10395693875
0"
#10410600000
0!
#10411493937
1"
#10411700000
1!
#10414494250
0"
#10429400000
0!
#10430293937
1"
#10430500000
1!
#10433294187
0"
#10448200000
0!
#10449094437
1"
#10449300000
1!
#10452093812
0"
#10467000000
0!
#10467894000
1"
#10468100000
1!
#10470893812
0"
#10485800000
0!
#10486693937
1"
#10486900000
1!
#10489693875
0"
#10504600000
0!
#10505494312
1"
#10505700000
1!
#10508493812
0"
#10523400000
0!
#10524294250
1"
#10524500000
1!
#10527293875
0"
#10542200000
0!
#10543094500
1"
#10543300000
1!
#10546093875
0"
#10561000000
0!
#10561894000
1"
#10562100000
1!
#10564893812
0"
#10579800000
0!
#10580693937
1"
#10580900000
1!
#10583693812
0"
#10598600000
0!
#10599494062
1"
#10599700000
1!
#10602493812
0"
#10617400000
0!
#10618293937
1"
#10618500000
1!
#10621293812
0"
#10636200000
0!
#10637093937
1"
#10637300000
1!
#10640093812
0"
#10655000000
0!
#10655893937
1"
#10656100000
1!
#10658893812
0"
#10673800000
0!
#10674693937
1"
#10674900000
1!
#10677693812
0"
#10692600000
0!
#10693493937
1"
#10693700000
1!
#10696493875
0"
#10711400000
0!
#10712293937
1"
#10712500000
1!
#10715294250
0"
#10730200000
0!
#10731093937
1"
#10731300000
1!
#10734094187
0"
#10749000000
0!
#10749894000
1"
#10750100000
1!
#10752893812
0"
#10767800000
0!
#10768694000
1"
#10768900000
1!
#10771693812
0"
#10786600000
0!
#10787493937
1"
#10787700000
1!
#10790493875
0"
#10805400000
0!
#10806293937
1"
#10806500000
1!
#10809294000
0"
#10824200000
0!
#10825094250
1"
#10825300000
1!
#10828093875
0"
#10843000000
0!
#10843894500
1"
#10844100000
1!
#10846893875
0"
#10861800000
0!
#10862694000
1"
#10862900000
1!
#10865693812
0"
#10880600000
0!
#10881494125
1"
#10881700000
1!
#10884493812
0"
#10899400000
0!
#10900294062
1"
#10900500000
1!
#10903293812
0"
#10918200000
0!
#10919093937
1"
#10919300000
1!
#10922093812
0"
#10937000000
0!
#10937893937
1"
#10938100000
1!
#10940893812
0"
#10955800000
0!
#10956694000
1"
#10956900000
1!
#10959693812
0"
#10974600000
0!
#10975493937
1"
#10975700000
1!
#10978493812
0"
#10993400000
0!
#10994293937
1"
#10994500000
1!
#10997293875
0"
#11012200000
0!
#11013094000
1"
#11013300000
1!
#11016093812
0"
#11031000000
0!
#11031893937
1"
#11032100000
1!
#11034894187
0"
#11049800000
0!
#11050694000
1"
#11050900000
1!
#11053693812
0"
#11068600000
0!
#11069493937
1"
#11069700000
1!
#11072494375
0"
#11087400000
0!
#11088293937
1"
#11088500000
1!
#11091293875
0"
#11106200000
0!
#11107093937
1"
#11107300000
1!
#11110094000
0"
#11125000000
0!
#11125894250
1"
#11126100000
1!
#11128893937
0"
#11143800000
0!
#11144694500
1"
#11144900000
1!
#11147693875
0"
#11162600000
0!
#11163494437
1"
#11163700000
1!
#11166493812
0"
#11181400000
0!
#11182294125
1"
#11182500000
1!
#11185293812
0"
#11200200000
0!
#11201094062
1"
#11201300000
1!
#11204093812
0"
#11219000000
0!
#11219898375
1"
#11220100000
1!
#11222897812
0"
#11237800000
0!
#11238689937
1"
#11238900000
1!
#11241690062
0"
#11256600000
0!
#11257493937
1"
#11257700000
1!
#11260494375
0"
#11275400000
0!
#11276293937
1"
#11276500000
1!
#11279293812
0"
#11294200000
0!
#11295093937
1"
#11295300000
1!
#11298094000
0"
#11313000000
0!
#11313893937
1"
#11314100000
1!
#11316894250
0"
#11331800000
0!
#11332693937
1"
#11332900000
1!
#11335694187
0"
#11350600000
0!
#11351493937
1"
#11351700000
1!
#11354493875
0"
#11369400000
0!
#11370294000
1"
#11370500000
1!
#11373293812
0"
#11388200000
0!
#11389094062
1"
#11389300000
1!
#11392093875
0"
#11407000000
0!
#11407894312
1"
#11408100000
1!
#11410893812
0"
#11425800000
0!
#11426694250
1"
#11426900000
1!
#11429693875
0"
#11444600000
0!
#11445493937
1"
#11445700000
1!
#11448493812
0"
#11463400000
0!
#11464294000
1"
#11464500000
1!
#11467293812
0"
#11482200000
0!
#11483094125
1"
#11483300000
1!
#11486093812
0"
#11501000000
0!
#11501894000
1"
#11502100000
1!
#11504893812
0"
#11519800000
0!
#11520694000
1"
#11520900000
1!
#11523693812
0"
#11538600000
0!
#11539493937
1"
#11539700000
1!
#11542493812
0"
#11557400000
0!
#11558293937
1"
#11558500000
1!
#11561294375
0"
#11576200000
0!
#11577093937
1"
#11577300000
1!
#11580093812
0"
#11595000000
0!
#11595893937
1"
#11596100000
1!
#11598893875
0"
#11613800000
0!
#11614693937
1"
#11614900000
1!
#11617694250
0"
#11632600000
0!
#11633493937
1"
#11633700000
1!
#11636494187
0"
#11651400000
0!
#11652293937
1"
#11652500000
1!
#11655293875
0"
#11670200000
0!
#11671094000
1"
#11671300000
1!
#11674093812
0"
#11689000000
0!
#11689893937
1"
#11690100000
1!
#11692894062
0"
#11707800000
0!
#11708694312
1"
#11708900000
1!
#11711693812
0"
#11726600000
0!
#11727494250
1"
#11727700000
1!
#11730493875
0"
#11745400000
0!
#11746294500
1"
#11746500000
1!
#11749293875
0"
#11764200000
0!
#11765094000
1"
#11765300000
1!
#11768093812
0"
#11783000000
0!
#11783894125
1"
#11784100000
1!
#11786893812
0"
#11801800000
0!
#11802694062
1"
#11802900000
1!
#11805693812
0"
#11820600000
0!
#11821494000
1"
#11821700000
1!
#11824493812
0"
#11839400000
0!
#11840293937
1"
#11840500000
1!
#11843293812
0"
#11858200000
0!
#11859093937
1"
#11859300000
1!
#11862093812
0"
#11877000000
0!
#11877893937
1"
#11878100000
1!
#11880893812
0"
#11893700000
0!
#11894800000
1!
#11910400000
0!
#11911500000
1!
#11927100000
0!
#11928200000
1!
#11943800000
0!
#11944900000
1!
#11960500000
0!
#11961600000
1!
#11977200000
0!
#11978300000
1!
#11993900000
0!
#11995000000
1!
#12010600000
0!
#12011700000
1!
#12027300000
0!
#12028400000
1!
#12044000000
0!
#12045100000
1!
#12060700000
0!
#12061800000
1!
#12077400000
0!
#12078500000
1!
#12094100000
0!
#12095200000
1!
#12110800000
0!
#12111900000
1!
#12127500000
0!
#12128600000
1!
#12144200000
0!
#12145300000
1!
#12160900000
0!
#12162000000
1!
#12177600000
0!
#12178700000
1!
#12194300000
0!
#12195400000
1!
#12211000000
0!
#12212100000
1!
#12227700000
0!
#12228800000
1!
#12244400000
0!
#12245500000
1!
#12261100000
0!
#12262200000
1!
#12277800000
0!
#12278900000
1!
#12294500000
0!
#12295600000
1!
#12311200000
0!
#12312300000
1!
#12327900000
0!
#12329000000
1!
#12344600000
0!
#12345700000
1!
