analysis/wokwi-logic.vcd
$version Generated by Wokwi.com $end
$date Thu, 28 Aug 2025 12:53:49 GMT $end
$timescale 1ns $end
$scope module logic $end
$var wire 1 ! D2 $end
$var wire 1 " D3 $end
$upscope $end
$enddefinitions $end
#0
0!
#0
0"
#0
1!
#3404300000
0!
#3405400000
1!
#3441800000
0!
#3442900000
1!
#3446595000
1"
#3449594250
0"
#3479300000
0!
#3480400000
1!
#3485114625
1"
#3488114250
0"
#3516800000
0!
#3517900000
1!
#3522614875
1"
#3525614250
0"
#3554300000
0!
#3555400000
1!
#3560115187
1"
#3563114437
0"
#3591800000
0!
#3592900000
1!
#3597614625
1"
#3600614750
0"
#3629300000
0!
#3630400000
1!
#3635114687
1"
#3638114250
0"
#3666800000
0!
#3667900000
1!
#3672614625
1"
#3675614250
0"
#3704300000
0!
#3705400000
1!
#3710114625
1"
#3713114250
0"
#3741800000
0!
#3742900000
1!
#3747614625
1"
#3750614250
0"
#3779300000
0!
#3780400000
1!
#3785114625
1"
#3788114250
0"
#3816800000
0!
#3817900000
1!
#3822614812
1"
#3825614312
0"
#3854300000
0!
#3855400000
1!
#3860115125
1"
#3863114375
0"
#3891800000
0!
#3892900000
1!
#3897614625
1"
#3900614687
0"
#3929300000
0!
#3930400000
1!
#3935114625
1"
#3938114250
0"
#3966800000
0!
#3967900000
1!
#3972614687
1"
#3975614312
0"
#4004299999
0!
#4005400000
1!
#4010114687
1"
#4013114250
0"
#4041800000
0!
#4042900000
1!
#4047614624
1"
#4050614249
0"
#4079300000
0!
#4080400000
1!
#4085114625
1"
#4088114250
0"
#4116799999
0!
#4117899999
1!
#4122614750
1"
#4125614250
0"
#4154300000
0!
#4155400000
1!
#4160115062
1"
#4163114312
0"
#4191799999
0!
#4192900000
1!
#4197614687
1"
#4200614625
0"
#4229300000
0!
#4230400000
1!
#4235114687
1"
#4238114249
0"
#4266800000
0!
#4267900000
1!
#4272614625
1"
#4275614250
0"
#4304300000
0!
#4305400000
1!
#4310114812
1"
#4313114812
0"
#4341800000
0!
#4342900000
1!
#4347614625
1"
#4350614812
0"
#4379300000
0!
#4380400000
1!
#4385114625
1"
#4388114250
0"
#4416800000
0!
#4417900000
1!
#4422614687
1"
#4425614312
0"
#4454300000
0!
#4455400000
1!
#4460115000
1"
#4463114250
0"
#4491800000
0!
#4492900000
1!
#4497614625
1"
#4500614562
0"
#4529300000
0!
#4530400000
1!
#4535114625
1"
#4538114250
0"
#4566800000
0!
#4567900000
1!
#4572614687
1"
#4575614250
0"
#4604300000
0!
#4605400000
1!
#4610114625
1"
#4613114750
0"
#4641800000
0!
#4642900000
1!
#4647614625
1"
#4650614750
0"
#4679300000
0!
#4680400000
1!
#4685114625
1"
#4688114250
0"
#4716800000
0!
#4717900000
1!
#4722614625
1"
#4725614250
0"
#4754300000
0!
#4755400000
1!
#4760114937
1"
#4763114312
0"
#4791800000
0!
#4792900000
1!
#4797614625
1"
#4800614500
0"
#4829300000
0!
#4830400000
1!
#4835114625
1"
#4838114250
0"
#4866800000
0!
#4867900000
1!
#4872614625
1"
#4875614250
0"
#4904300000
0!
#4905400000
1!
#4910114625
1"
#4913114687
0"
#4941800000
0!
#4942900000
1!
#4947614625
1"
#4950614312
0"
#4979300000
0!
#4980400000
1!
#4985114687
1"
#4988114312
0"
#5016800000
0!
#5017900000
1!
#5022614625
1"
#5025614687
0"
#5054300000
0!
#5055400000
1!
#5060114687
1"
#5063114312
0"
#5091800000
0!
#5092900000
1!
#5097614625
1"
#5100614312
0"
#5129300000
0!
#5130400000
1!
#5135114875
1"
#5138114250
0"
#5166800000
0!
#5167900000
1!
#5172615187
1"
#5175614437
0"
#5204300000
0!
#5205400000
1!
#5210114625
1"
#5213114250
0"
#5241800000
0!
#5242900000
1!
#5247614625
1"
#5250614250
0"
#5279300000
0!
#5280400000
1!
#5285114687
1"
#5288114250
0"
#5316800000
0!
#5317900000
1!
#5322614687
1"
#5325614625
0"
#5354300000
0!
#5355400000
1!
#5360114625
1"
#5363114250
0"
#5384400000
0!
#5385500000
1!
#5388262625
1"
#5391262250
0"
#5414500000
0!
#5415600000
1!
#5418362625
1"
#5421362250
0"
#5444600000
0!
#5445700000
1!
#5448462625
1"
#5451462250
0"
#5474700000
0!
#5475800000
1!
#5478562625
1"
#5481562625
0"
#5504800000
0!
#5505900000
1!
#5508662625
1"
#5511662250
0"
#5534900000
0!
#5536000000
1!
#5538762625
1"
#5541762812
0"
#5565000000
0!
#5566100000
1!
#5568862687
1"
#5571862250
0"
#5595100000
0!
#5596200000
1!
#5598962625
1"
#5601962250
0"
#5625200000
0!
#5626300000
1!
#5629062625
1"
#5632062500
0"
#5655300000
0!
#5656400000
1!
#5659162625
1"
#5662162250
0"
#5685400000
0!
#5686500000
1!
#5689262687
1"
#5692262312
0"
#5715500000
0!
#5716600000
1!
#5719362625
1"
#5722362250
0"
#5745600000
0!
#5746700000
1!
#5749462625
1"
#5752462250
0"
#5775700000
0!
#5776800000
1!
#5779562687
1"
#5782562687
0"
#5805800000
0!
#5806900000
1!
#5809662687
1"
#5812662250
0"
#5835900000
0!
#5837000000
1!
#5839762625
1"
#5842762250
0"
#5866000000
0!
#5867100000
1!
#5869862625
1"
#5872862250
0"
#5896100000
0!
#5897200000
1!
#5899962625
1"
#5902962312
0"
#5926200000
0!
#5927300000
1!
#5930062625
1"
#5933062250
0"
#5956300000
0!
#5957400000
1!
#5960162625
1"
#5963162250
0"
#5986400000
0!
#5987500000
1!
#5990262625
1"
#5993262250
0"
#6016500000
0!
#6017600000
1!
#6020362687
1"
#6023362312
0"
#6046600000
0!
#6047700000
1!
#6050462625
1"
#6053462250
0"
#6076700000
0!
#6077800000
1!
#6080562625
1"
#6083562750
0"
#6106800000
0!
#6107900000
1!
#6110662625
1"
#6113662250
0"
#6136900000
0!
#6138000000
1!
#6140762625
1"
#6143762250
0"
#6167000000
0!
#6168100000
1!
#6170862687
1"
#6173862250
0"
#6197100000
0!
#6198200000
1!
#6200962625
1"
#6203962250
0"
#6227200000
0!
#6228300000
1!
#6231062625
1"
#6234062250
0"
#6257300000
0!
#6258400000
1!
#6261162625
1"
#6264162250
0"
#6287400000
0!
#6288500000
1!
#6291262625
1"
#6294262250
0"
#6317500000
0!
#6318600000
1!
#6321362625
1"
#6324362250
0"
#6347600000
0!
#6348700000
1!
#6351462625
1"
#6354462250
0"
#6377700000
0!
#6378800000
1!
#6381562625
1"
#6384562812
0"
#6407800000
0!
#6408900000
1!
#6411662687
1"
#6414662250
0"
#6437900000
0!
#6439000000
1!
#6441762687
1"
#6444762250
0"
#6468000000
0!
#6469100000
1!
#6471862625
1"
#6474862250
0"
#6498100000
0!
#6499200000
1!
#6501962625
1"
#6504962250
0"
#6528200000
0!
#6529300000
1!
#6532062687
1"
#6535062312
0"
#6558300000
0!
#6559400000
1!
#6562162687
1"
#6565162250
0"
#6588400000
0!
#6589500000
1!
#6592262625
1"
#6595262250
0"
#6618500000
0!
#6619600000
1!
#6622362687
1"
#6625362687
0"
#6648600000
0!
#6649700000
1!
#6652462625
1"
#6655462312
0"
#6678700000
0!
#6679800000
1!
#6682562625
1"
#6685562250
0"
#6708800000
0!
#6709900000
1!
#6712662625
1"
#6715662250
0"
#6738900000
0!
#6740000000
1!
#6742762625
1"
#6745762312
0"
#6769000000
0!
#6770100000
1!
#6772862687
1"
#6775862562
0"
#6799100000
0!
#6800200000
1!
#6802962625
1"
#6805962250
0"
#6829200000
0!
#6830300000
1!
#6833062625
1"
#6836062250
0"
#6859300000
0!
#6860400000
1!
#6863162625
1"
#6866162250
0"
#6889400000
0!
#6890500000
1!
#6893262625
1"
#6896262250
0"
#6919500000
0!
#6920600000
1!
#6923362750
1"
#6926362750
0"
#6949600000
0!
#6950700000
1!
#6953462625
1"
#6956462250
0"
#6979700000
0!
#6980800000
1!
#6983562625
1"
#6986562250
0"
#7009800000
0!
#7010900000
1!
#7013662687
1"
#7016662250
0"
#7039900000
0!
#7041000000
1!
#7043762625
1"
#7046762250
0"
#7070000000
0!
#7071100000
1!
#7073862687
1"
#7076862625
0"
#7100100000
0!
#7101200000
1!
#7103962625
1"
#7106962250
0"
#7130200000
0!
#7131300000
1!
#7134062625
1"
#7137062250
0"
#7160300000
0!
#7161400000
1!
#7164162687
1"
#7167162250
0"
#7190400000
0!
#7191500000
1!
#7194262625
1"
#7197262250
0"
#7220500000
0!
#7221600000
1!
#7224362625
1"
#7227362812
0"
#7250600000
0!
#7251700000
1!
#7254462687
1"
#7257462250
0"
#7280700000
0!
#7281800000
1!
#7284562687
1"
#7287562312
0"
#7310800000
0!
#7311900000
1!
#7314662625
1"
#7317662250
0"
#7340900000
0!
#7342000000
1!
#7344762625
1"
#7347762250
0"
#7366400000
0!
#7367500000
1!
#7369042625
1"
#7372042250
0"
#7391500000
0!
#7392600000
1!
#7394038625
1"
#7397038250
0"
#7416600000
0!
#7417700000
1!
#7419138625
1"
#7422138250
0"
#7441700000
0!
#7442800000
1!
#7444238625
1"
#7447238250
0"
#7466800000
0!
#7467900000
1!
#7469338625
1"
#7472338250
0"
#7491900000
0!
#7493000000
1!
#7494438625
1"
#7497438750
0"
#7517000000
0!
#7518100000
1!
#7519538937
1"
#7522538312
0"
#7542100000
0!
#7543200000
1!
#7544638812
1"
#7547638312
0"
#7567200000
0!
#7568300000
1!
#7569738625
1"
#7572738250
0"
#7592300000
0!
#7593400000
1!
#7594838625
1"
#7597838250
0"
#7617400000
0!
#7618500000
1!
#7619938625
1"
#7622938250
0"
#7642500000
0!
#7643600000
1!
#7645038625
1"
#7648038250
0"
#7667600000
0!
#7668700000
1!
#7670139125
1"
#7673138375
0"
#7692700000
0!
#7693800000
1!
#7695238625
1"
#7698238562
0"
#7717800000
0!
#7718900000
1!
#7720338687
1"
#7723338250
0"
#7742900000
0!
#7744000000
1!
#7745438625
1"
#7748438250
0"
#7768000000
0!
#7769100000
1!
#7770538625
1"
#7773538250
0"
#7793100000
0!
#7794200000
1!
#7795638625
1"
#7798638250
0"
#7818200000
0!
#7819300000
1!
#7820738625
1"
#7823738250
0"
#7843300000
0!
#7844400000
1!
#7845838625
1"
#7848838750
0"
#7868400000
0!
#7869500000
1!
#7870938937
1"
#7873938312
0"
#7893500000
0!
#7894600000
1!
#7896039125
1"
#7899038375
0"
#7918600000
0!
#7919700000
1!
#7921138625
1"
#7924138250
0"
#7943700000
0!
#7944800000
1!
#7946238687
1"
#7949238250
0"
#7968800000
0!
#7969900000
1!
#7971338625
1"
#7974338250
0"
#7993900000
0!
#7995000000
1!
#7996438625
1"
#7999438250
0"
#8019000000
0!
#8020099999
1!
#8021539125
1"
#8024538687
0"
#8044100000
0!
#8045199999
1!
#8046638625
1"
#8049638562
0"
#8069200000
0!
#8070300000
1!
#8071738750
1"
#8074738249
0"
#8094300000
0!
#8095400000
1!
#8096838625
1"
#8099838249
0"
#8119400000
0!
#8120500000
1!
#8121938625
1"
#8124938250
0"
#8144500000
0!
#8145600000
1!
#8147041000
1"
#8150038250
0"
#8169600000
0!
#8170700000
1!
#8172138625
1"
#8175138250
0"
#8194699999
0!
#8195800000
1!
#8197239062
1"
#8200238250
0"
#8219799999
0!
#8220900000
1!
#8222338937
1"
#8225338312
0"
#8244899999
0!
#8246000000
1!
#8247438624
1"
#8250438375
0"
#8270000000
0!
#8271100000
1!
#8272538624
1"
#8275538250
0"
#8295100000
0!
#8296200000
1!
#8297638624
1"
#8300640562
0"
#8320200000
0!
#8321300000
1!
#8322738624
1"
#8325738312
0"
#8345300000
0!
#8346399999
1!
#8347838625
1"
#8350838500
0"
#8370400000
0!
#8371499999
1!
#8372938625
1"
#8375938687
0"
#8395500000
0!
#8396599999
1!
#8398038687
1"
#8401038312
0"
#8420600000
0!
#8421699999
1!
#8423138750
1"
#8426138249
0"
#8445700000
0!
#8446800000
1!
#8448238687
1"
#8451238249
0"
#8470800000
0!
#8471900000
1!
#8473338625
1"
#8476338249
0"
#8495900000
0!
#8497000000
1!
#8498438687
1"
#8501438312
0"
#8521000000
0!
#8522100000
1!
#8523538625
1"
#8526538250
0"
#8546099999
0!
#8547200000
1!
#8548639062
1"
#8551638312
0"
#8571199999
0!
#8572300000
1!
#8573738937
1"
#8576738499
0"
#8596300000
0!
#8597400000
1!
#8598838625
1"
#8601838250
0"
#8621400000
0!
#8622500000
1!
#8623938687
1"
#8626938312
0"
#8646500000
0!
#8647600000
1!
#8649038625
1"
#8652038250
0"
#8671600000
0!
#8672700000
1!
#8674138625
1"
#8677138312
0"
#8696700000
0!
#8697800000
1!
#8699238625
1"
#8702238500
0"
#8721800000
0!
#8722900000
1!
#8724338625
1"
#8727338687
0"
#8746900000
0!
#8748000000
1!
#8749438875
1"
#8752438250
0"
#8772000000
0!
#8773100000
1!
#8774538750
1"
#8777538250
0"
#8797100000
0!
#8798200000
1!
#8799638687
1"
#8802638250
0"
#8822200000
0!
#8823300000
1!
#8824738625
1"
#8827738250
0"
#8847300000
0!
#8848400000
1!
#8849838687
1"
#8852838312
0"
#8872400000
0!
#8873500000
1!
#8874938625
1"
#8877938250
0"
#8897500000
0!
#8898600000
1!
#8900039062
1"
#8903038312
0"
#8922600000
0!
#8923700000
1!
#8925138625
1"
#8928138500
0"
#8947700000
0!
#8948800000
1!
#8950238625
1"
#8953238250
0"
#8972800000
0!
#8973900000
1!
#8975338687
1"
#8978338312
0"
#8997900000
0!
#8999000000
1!
#9000438625
1"
#9003438250
0"
#9023000000
0!
#9024100000
1!
#9025538625
1"
#9028538312
0"
#9048100000
0!
#9049200000
1!
#9050638625
1"
#9053638812
0"
#9073200000
0!
#9074300000
1!
#9075738625
1"
#9078738687
0"
#9098300000
0!
#9099400000
1!
#9100838875
1"
#9103838250
0"
#9123400000
0!
#9124500000
1!
#9125938750
1"
#9128938250
0"
#9148500000
0!
#9149600000
1!
#9151038687
1"
#9154038250
0"
#9173600000
0!
#9174700000
1!
#9176138625
1"
#9179138250
0"
#9198700000
0!
#9199800000
1!
#9201238687
1"
#9204238312
0"
#9223800000
0!
#9224900000
1!
#9226339187
1"
#9229338250
0"
#9248900000
0!
#9250000000
1!
#9251439062
1"
#9254438312
0"
#9274000000
0!
#9275100000
1!
#9276538625
1"
#9279538500
0"
#9299100000
0!
#9300200000
1!
#9301638625
1"
#9304638312
0"
#9324200000
0!
#9325300000
1!
#9326738625
1"
#9329738312
0"
#9349300000
0!
#9350400000
1!
#9351838625
1"
#9354838250
0"
#9370800000
0!
#9371900000
1!
#9372390625
1"
#9375390812
0"
#9392300000
0!
#9393400000
1!
#9393890625
1"
#9396890250
0"
#9413800000
0!
#9414900000
1!
#9415390625
1"
#9418390250
0"
#9435300000
0!
#9436400000
1!
#9436890625
1"
#9439890250
0"
#9456800000
0!
#9457900000
1!
#9458390687
1"
#9461390250
0"
#9478300000
0!
#9479400000
1!
#9479890687
1"
#9482890312
0"
#9499800000
0!
#9500900000
1!
#9501390625
1"
#9504390250
0"
#9521300000
0!
#9522400000
1!
#9522891000
1"
#9525890250
0"
#9542800000
0!
#9543900000
1!
#9544391062
1"
#9547390312
0"
#9564300000
0!
#9565400000
1!
#9565890625
1"
#9568890687
0"
#9585800000
0!
#9586900000
1!
#9587390625
1"
#9590390750
0"
#9607300000
0!
#9608400000
1!
#9608890625
1"
#9611890250
0"
#9628800000
0!
#9629900000
1!
#9630390625
1"
#9633390250
0"
#9650300000
0!
#9651400000
1!
#9651890625
1"
#9654890250
0"
#9671800000
0!
#9672900000
1!
#9673390625
1"
#9676390250
0"
#9693300000
0!
#9694400000
1!
#9694890625
1"
#9697890250
0"
#9714800000
0!
#9715900000
1!
#9716390687
1"
#9719390312
0"
#9736300000
0!
#9737400000
1!
#9737890937
1"
#9740890312
0"
#9757800000
0!
#9758900000
1!
#9759391000
1"
#9762390250
0"
#9779300000
0!
#9780400000
1!
#9780890687
1"
#9783890625
0"
#9800800000
0!
#9801900000
1!
#9802390625
1"
#9805390687
0"
#9822300000
0!
#9823400000
1!
#9823894625
1"
#9826894250
0"
#9843800000
0!
#9844900000
1!
#9845390625
1"
#9848390250
0"
#9865300000
0!
#9866400000
1!
#9866890625
1"
#9869890250
0"
#9886800000
0!
#9887900000
1!
#9888390625
1"
#9891390250
0"
#9908300000
0!
#9909400000
1!
#9909890687
1"
#9912890250
0"
#9929800000
0!
#9930900000
1!
#9931390625
1"
#9934390250
0"
#9951300000
0!
#9952400000
1!
#9952890875
1"
#9955890250
0"
#9972800000
0!
#9973900000
1!
#9974390937
1"
#9977390312
0"
#9994300000
0!
#9995400000
1!
#9995890625
1"
#9998890562
0"
#10015800000
0!
#10016900000
1!
#10017390625
1"
#10020390250
0"
#10037300000
0!
#10038400000
1!
#10038890625
1"
#10041890250
0"
#10058800000
0!
#10059900000
1!
#10060390687
1"
#10063390250
0"
#10080300000
0!
#10081400000
1!
#10081890812
1"
#10084890312
0"
#10101800000
0!
#10102900000
1!
#10103390875
1"
#10106390250
0"
#10123300000
0!
#10124400000
1!
#10124890625
1"
#10127890500
0"
#10144800000
0!
#10145900000
1!
#10146390625
1"
#10149390562
0"
#10166300000
0!
#10167400000
1!
#10167890625
1"
#10170890250
0"
#10187800000
0!
#10188900000
1!
#10189390687
1"
#10192390312
0"
#10209300000
0!
#10210400000
1!
#10210890625
1"
#10213890312
0"
#10230800000
0!
#10231900000
1!
#10232390625
1"
#10235390250
0"
#10252300000
0!
#10253400000
1!
#10253890687
1"
#10256890250
0"
#10273800000
0!
#10274900000
1!
#10275390625
1"
#10278390250
0"
#10295300000
0!
#10296400000
1!
#10296890750
1"
#10299890250
0"
#10316800000
0!
#10317900000
1!
#10318390812
1"
#10321390312
0"
#10338300000
0!
#10339400000
1!
#10339891187
1"
#10342890437
0"
#10359800000
0!
#10360900000
1!
#10361390625
1"
#10364390500
0"
#10381300000
0!
#10382400000
1!
#10382890625
1"
#10385890250
0"
#10402800000
0!
#10403900000
1!
#10404390625
1"
#10407390250
0"
#10424300000
0!
#10425400000
1!
#10425890625
1"
#10428890250
0"
#10445800000
0!
#10446900000
1!
#10447390625
1"
#10450390312
0"
#10467300000
0!
#10468400000
1!
#10468890625
1"
#10471890250
0"
#10488800000
0!
#10489900000
1!
#10490390687
1"
#10493390250
0"
#10510300000
0!
#10511400000
1!
#10511890687
1"
#10514890312
0"
#10531800000
0!
#10532900000
1!
#10533390750
1"
#10536390250
0"
#10553300000
0!
#10554400000
1!
#10554891125
1"
#10557890375
0"
#10574800000
0!
#10575900000
1!
#10576391187
1"
#10579390437
0"
#10596300000
0!
#10597400000
1!
#10597890625
1"
#10600890812
0"
#10617800000
0!
#10618900000
1!
#10619390625
1"
#10622390250
0"
#10639300000
0!
#10640400000
1!
#10640890625
1"
#10643890250
0"
#10660800000
0!
#10661900000
1!
#10662390625
1"
#10665390250
0"
#10682300000
0!
#10683400000
1!
#10683890687
1"
#10686890250
0"
#10703800000
0!
#10704900000
1!
#10705390625
1"
#10708390250
0"
#10725300000
0!
#10726400000
1!
#10726890625
1"
#10729890250
0"
#10746800000
0!
#10747900000
1!
#10748390687
1"
#10751390312
0"
#10768300000
0!
#10769400000
1!
#10769891062
1"
#10772890312
0"
#10789800000
0!
#10790900000
1!
#10791391125
1"
#10794390375
0"
#10811300000
0!
#10812400000
1!
#10812890625
1"
#10815890750
0"
#10832800000
0!
#10833900000
1!
#10834390625
1"
#10837390812
0"
#10854300000
0!
#10855400000
1!
#10855890625
1"
#10858890250
0"
#10875800000
0!
#10876900000
1!
#10877390625
1"
#10880390250
0"
#10897300000
0!
#10898400000
1!
#10898890625
1"
#10901890250
0"
#10918800000
0!
#10919900000
1!
#10920390687
1"
#10923390250
0"
#10940300000
0!
#10941400000
1!
#10941890687
1"
#10944890312
0"
#10961800000
0!
#10962900000
1!
#10963390625
1"
#10966390312
0"
#10983300000
0!
#10984400000
1!
#10984891000
1"
#10987890250
0"
#11004800000
0!
#11005900000
1!
#11006391062
1"
#11009390625
0"
#11026300000
0!
#11027400000
1!
#11027890625
1"
#11030890687
0"
#11047800000
0!
#11048900000
1!
#11049390625
1"
#11052390250
0"
#11069300000
0!
#11070400000
1!
#11070890625
1"
#11073890250
0"
#11090800000
0!
#11091900000
1!
#11092390625
1"
#11095390250
0"
#11112300000
0!
#11113400000
1!
#11113890625
1"
#11116890250
0"
#11133800000
0!
#11134900000
1!
#11135390625
1"
#11138390250
0"
#11155300000
0!
#11156400000
1!
#11156890625
1"
#11159890250
0"
#11176800000
0!
#11177900000
1!
#11178390687
1"
#11181390250
0"
#11198300000
0!
#11199400000
1!
#11199890937
1"
#11202890312
0"
#11219800000
0!
#11220900000
1!
#11221391000
1"
#11224390562
0"
#11241300000
0!
#11242400000
1!
#11242890687
1"
#11245890625
0"
#11262800000
0!
#11263900000
1!
#11264390687
1"
#11267390312
0"
#11284300000
0!
#11285400000
1!
#11285890625
1"
#11288890250
0"
#11305800000
0!
#11306900000
1!
#11307390625
1"
#11310390250
0"
#11327300000
0!
#11328400000
1!
#11328890625
1"
#11331890250
0"
#11348800000
0!
#11349900000
1!
#11350390625
1"
#11353390250
0"
#11367600000
0!
#11368490625
1"
#11368700000
1!
#11371490250
0"
#11386400000
0!
#11387290625
1"
#11387500000
1!
#11390290250
0"
#11405200000
0!
#11406091125
1"
#11406300000
1!
#11409090375
0"
#11424000000
0!
#11424891187
1"
#11425100000
1!
#11427890250
0"
#11442800000
0!
#11443690625
1"
#11443900000
1!
#11446690250
0"
#11461600000
0!
#11462490875
1"
#11462700000
1!
#11465490250
0"
#11480400000
0!
#11481290625
1"
#11481500000
1!
#11484290500
0"
#11499200000
0!
#11500090625
1"
#11500300000
1!
#11503090250
0"
#11518000000
0!
#11518890625
1"
#11519100000
1!
#11521890312
0"
#11536800000
0!
#11537691000
1"
#11537900000
1!
#11540690250
0"
#11555600000
0!
#11556490625
1"
#11556700000
1!
#11559490250
0"
#11574400000
0!
#11575290687
1"
#11575500000
1!
#11578290312
0"
#11593200000
0!
#11594090750
1"
#11594300000
1!
#11597090250
0"
#11612000000
0!
#11612890625
1"
#11613100000
1!
#11615890250
0"
#11630800000
0!
#11631690687
1"
#11631900000
1!
#11634690250
0"
#11649600000
0!
#11650490812
1"
#11650700000
1!
#11653490312
0"
#11668400000
0!
#11669290625
1"
#11669500000
1!
#11672290250
0"
#11687200000
0!
#11688090625
1"
#11688300000
1!
#11691090250
0"
#11706000000
0!
#11706890687
1"
#11707100000
1!
#11709890312
0"
#11724800000
0!
#11725690687
1"
#11725900000
1!
#11728690625
0"
#11743600000
0!
#11744490687
1"
#11744700000
1!
#11747490312
0"
#11762400000
0!
#11763290687
1"
#11763500000
1!
#11766290250
0"
#11781200000
0!
#11782090625
1"
#11782300000
1!
#11785090687
0"
#11800000000
0!
#11800890625
1"
#11801100000
1!
#11803890750
0"
#11818800000
0!
#11819690625
1"
#11819900000
1!
#11822690250
0"
#11837600000
0!
#11838491187
1"
#11838700000
1!
#11841490437
0"
#11856400000
0!
#11857290625
1"
#11857500000
1!
#11860290500
0"
#11875200000
0!
#11876090625
1"
#11876300000
1!
#11879090250
0"
#11894000000
0!
#11894890687
1"
#11895100000
1!
#11897890312
0"
#11912800000
0!
#11913690625
1"
#11913900000
1!
#11916690562
0"
#11931600000
0!
#11932490625
1"
#11932700000
1!
#11935490312
0"
#11950400000
0!
#11951290625
1"
#11951500000
1!
#11954290250
0"
#11969200000
0!
#11970091062
1"
#11970300000
1!
#11973090312
0"
#11988000000
0!
#11988890625
1"
#11989100000
1!
#11991890250
0"
#12006800000
0!
#12007690625
1"
#12007900000
1!
#12010690250
0"
#12025600000
0!
#12026490812
1"
#12026700000
1!
#12029490312
0"
#12044400000
0!
#12045290625
1"
#12045500000
1!
#12048290250
0"
#12063200000
0!
#12064090625
1"
#12064300000
1!
#12067090250
0"
#12082000000
0!
#12082890875
1"
#12083100000
1!
#12085890250
0"
#12100800000
0!
#12101690625
1"
#12101900000
1!
#12104690250
0"
#12119600000
0!
#12120490625
1"
#12120700000
1!
#12123490250
0"
#12138400000
0!
#12139290625
1"
#12139500000
1!
#12142290250
0"
#12157200000
0!
#12158090687
1"
#12158300000
1!
#12161090312
0"
#12176000000
0!
#12176890625
1"
#12177100000
1!
#12179890250
0"
#12194800000
0!
#12195690625
1"
#12195900000
1!
#12198690250
0"
#12213600000
0!
#12214490750
1"
#12214700000
1!
#12217490250
0"
#12232400000
0!
#12233290625
1"
#12233500000
1!
#12236290812
0"
#12251200000
0!
#12252090687
1"
#12252300000
1!
#12255090250
0"
#12270000000
0!
#12270890625
1"
#12271100000
1!
#12273890250
0"
#12288800000
0!
#12289690625
1"
#12289900000
1!
#12292690250
0"
#12307600000
0!
#12308490687
1"
#12308700000
1!
#12311490250
0"
#12326400000
0!
#12327290625
1"
#12327500000
1!
#12330290250
0"
#12345200000
0!
#12346090687
1"
#12346300000
1!
#12349090625
0"
#12364000000
0!
#12364890625
1"
#12365100000
1!
#12367890250
0"
#12382800000
0!
#12383690687
1"
#12383900000
1!
#12386690250
0"
#12401600000
0!
#12402491125
1"
#12402700000
1!
#12405490375
0"
#12420400000
0!
#12421290625
1"
#12421500000
1!
#12424290750
0"
#12439200000
0!
#12440090625
1"
#12440300000
1!
#12443090250
0"
#12458000000
0!
#12458890875
1"
#12459100000
1!
#12461890437
0"
#12476800000
0!
#12477690625
1"
#12477900000
1!
#12480690500
0"
#12495600000
0!
#12496490625
1"
#12496700000
1!
#12499490250
0"
#12514400000
0!
#12515290937
1"
#12515500000
1!
#12518290312
0"
#12533200000
0!
#12534091000
1"
#12534300000
1!
#12537090250
0"
#12552000000
0!
#12552890625
1"
#12553100000
1!
#12555890312
0"
#12570800000
0!
#12571690687
1"
#12571900000
1!
#12574690312
0"
#12589600000
0!
#12590491062
1"
#12590700000
1!
#12593490312
0"
#12608400000
0!
#12609290625
1"
#12609500000
1!
#12612290250
0"
#12627200000
0!
#12628090625
1"
#12628300000
1!
#12631090250
0"
#12646000000
0!
#12646890812
1"
#12647100000
1!
#12649890312
0"
#12664800000
0!
#12665690625
1"
#12665900000
1!
#12668690250
0"
#12683600000
0!
#12684490625
1"
#12684700000
1!
#12687490250
0"
#12702400000
0!
#12703290687
1"
#12703500000
1!
#12706290312
0"
#12721200000
0!
#12722090625
1"
#12722300000
1!
#12725090250
0"
#12740000000
0!
#12740890687
1"
#12741100000
1!
#12743890312
0"
#12758800000
0!
#12759690625
1"
#12759900000
1!
#12762690250
0"
#12777600000
0!
#12778490625
1"
#12778700000
1!
#12781490687
0"
#12796400000
0!
#12797290625
1"
#12797500000
1!
#12800290250
0"
#12815200000
0!
#12816090625
1"
#12816300000
1!
#12819090250
0"
#12834000000
0!
#12834891187
1"
#12835100000
1!
#12837890437
0"
#12852800000
0!
#12853690625
1"
#12853900000
1!
#12856690812
0"
#12871600000
0!
#12872490625
1"
#12872700000
1!
#12875490250
0"
#12890400000
0!
#12891290625
1"
#12891500000
1!
#12894290500
0"
#12909200000
0!
#12910090625
1"
#12910300000
1!
#12913090562
0"
#12928000000
0!
#12928890687
1"
#12929100000
1!
#12931890250
0"
#12946800000
0!
#12947690625
1"
#12947900000
1!
#12950690250
0"
#12965600000
0!
#12966491062
1"
#12966700000
1!
#12969490312
0"
#12984400000
0!
#12985290625
1"
#12985500000
1!
#12988290250
0"
#13003200000
0!
#13004090625
1"
#13004300000
1!
#13007090250
0"
#13022000000
0!
#13022891125
1"
#13023100000
1!
#13025890375
0"
#13040800000
0!
#13041690625
1"
#13041900000
1!
#13044690250
0"
#13059600000
0!
#13060490625
1"
#13060700000
1!
#13063490250
0"
#13078400000
0!
#13079290875
1"
#13079500000
1!
#13082290250
0"
#13097200000
0!
#13098090937
1"
#13098300000
1!
#13101090250
0"
#13116000000
0!
#13116890625
1"
#13117100000
1!
#13119890250
0"
#13134800000
0!
#13135690625
1"
#13135900000
1!
#13138690250
0"
#13153600000
0!
#13154491000
1"
#13154700000
1!
#13157490250
0"
#13172400000
0!
#13173290625
1"
#13173500000
1!
#13176290250
0"
#13191200000
0!
#13192090687
1"
#13192300000
1!
#13195090312
0"
#13210000000
0!
#13210890750
1"
#13211100000
1!
#13213890250
0"
#13228800000
0!
#13229690625
1"
#13229900000
1!
#13232690250
0"
#13247600000
0!
#13248490687
1"
#13248700000
1!
#13251490250
0"
#13266400000
0!
#13267290625
1"
#13267500000
1!
#13270290312
0"
#13285200000
0!
#13286090625
1"
#13286300000
1!
#13289090250
0"
#13304000000
0!
#13304890687
1"
#13305100000
1!
#13307890250
0"
#13322800000
0!
#13323690687
1"
#13323900000
1!
#13326690312
0"
#13341600000
0!
#13342490687
1"
#13342700000
1!
#13345490625
0"
#13360400000
0!
#13361290687
1"
#13361500000
1!
#13364290250
0"
#13377100000
0!
#13377444250
1"
#13378200000
1!
#13380442312
0"
#13393800000
0!
#13394144250
1"
#13394900000
1!
#13397142500
0"
#13410500000
0!
#13410844187
1"
#13411600000
1!
#13413842250
0"
#13427200000
0!
#13427544187
1"
#13428300000
1!
#13430542250
0"
#13443900000
0!
#13444244625
1"
#13445000000
1!
#13447242250
0"
#13460600000
0!
#13460944250
1"
#13461700000
1!
#13463942312
0"
#13477300000
0!
#13477644375
1"
#13478400000
1!
#13480642250
0"
#13494000000
0!
#13494344250
1"
#13495100000
1!
#13497342312
0"
#13510700000
0!
#13511044187
1"
#13511800000
1!
#13514042250
0"
#13527400000
0!
#13527744187
1"
#13528500000
1!
#13530742250
0"
#13544100000
0!
#13544444187
1"
#13545200000
1!
#13547442250
0"
#13560800000
0!
#13561144187
1"
#13561900000
1!
#13564142250
0"
#13577500000
0!
#13577844250
1"
#13578600000
1!
#13580842312
0"
#13594200000
0!
#13594544187
1"
#13595300000
1!
#13597542562
0"
