analysis/wokwi-logic.vcd
$version Generated by Wokwi.com $end
$date Sun, 07 Sep 2025 10:54:07 GMT $end
$timescale 1ns $end
$scope module logic $end
$var wire 1 ! D2 $end
$var wire 1 " D3 $end
$var wire 1 # D4 $end
$upscope $end
$enddefinitions $end
#0
0!
#0
0"
#0
0#
#0
1!
#4930125
1"
#4930125
0!
#5930125
1!
#1006698062
1#
#1026698062
0!
#1027364062
1!
#1047364062
0!
#1048030062
1!
#1068030062
0!
#1068696062
1!
#1088696062
0!
#1089362062
1!
#1109362062
0!
#1110028062
1!
#1110731000
0"
#1113732812
1"
#1130028062
0!
#1130694062
1!
#1131397000
0"
#1134398812
1"
#1150694062
0!
#1151360062
1!
#1152063000
0"
#1155064750
1"
#1171360062
0!
#1172026062
1!
#1172729062
0"
#1175730750
1"
#1192026062
0!
#1192692062
1!
#1193395062
0"
#1196396750
1"
#1196396750
0!
#1197396750
1!
#1212692062
0!
#1213358062
1!
#1214061000
0"
#1217062750
1"
#1233358062
0!
#1234024062
1!
#1234727000
0"
#1237728750
1"
#1237728750
0!
#1238728750
1!
#1254024062
0!
#1254690062
1!
#1255393062
0"
#1258394750
1"
#1274690062
0!
#1275356062
1!
#1276059000
0"
#1279060750
1"
#1295356062
0!
#1296022062
1!
#1296725000
0"
#1299726812
1"
#1316022062
0!
#1316688062
1!
#1317391000
0"
#1320392812
1"
#1336688062
0!
#1337354062
1!
#1338057000
0"
#1341058812
1"
#1357354062
0!
#1358020062
1!
#1358723000
0"
#1361724812
1"
#1378020062
0!
#1378686062
1!
#1379389000
0"
#1382390812
1"
#1398686062
0!
#1399352062
1!
#1400055062
0"
#1403056750
1"
#1419352062
0!
#1420018062
1!
#1420721062
0"
#1423722750
1"
#1423722750
0!
#1424722750
1!
#1440018062
0!
#1440684062
1!
#1441387062
0"
#1444388750
1"
#1460684062
0!
#1461350062
1!
#1462053062
0"
#1465054750
1"
#1481350062
0!
#1482016062
1!
#1482719062
0"
#1485720750
1"
#1502016062
0!
#1502682062
1!
#1503385000
0"
#1506386750
1"
#1522682062
0!
#1523348062
1!
#1524051000
0"
#1527052750
1"
#1543348062
0!
#1544014062
1!
#1544717000
0"
#1547718750
1"
#1564014062
0!
#1564680062
1!
#1565383000
0"
#1568384750
1"
#1584680062
0!
#1585346062
1!
#1586049000
0"
#1589050750
1"
#1605346062
0!
#1606012062
1!
#1606715000
0"
#1609716750
1"
#1626012062
0!
#1626678062
1!
#1627381000
0"
#1630382812
1"
#1646678062
0!
#1647344062
1!
#1648047000
0"
#1651048812
1"
#1667344062
0!
#1668010062
1!
#1668713000
0"
#1671714750
1"
#1688010062
0!
#1688676062
1!
#1689379000
0"
#1692380750
1"
#1708676062
0!
#1709342062
1!
#1710045000
0"
#1713046812
1"
#1729342062
0!
#1730008062
1!
#1730711000
0"
#1733712812
1"
#1750008062
0!
#1750674062
1!
#1751377062
0"
#1754378750
1"
#1770674062
0!
#1771340062
1!
#1772043062
0"
#1775044750
1"
#1791340062
0!
#1792006062
1!
#1792709000
0"
#1795710750
1"
#1812006062
0!
#1812672062
1!
#1813375000
0"
#1816376750
1"
#1832672062
0!
#1833338062
1!
#1834041000
0"
#1837042750
1"
#1837042750
0!
#1838042750
1!
#1853338062
0!
#1854004062
1!
#1854707000
0"
#1857708812
1"
#1874004062
0!
#1874670062
1!
#1875373000
0"
#1878374812
1"
#1894670062
0!
#1895336062
1!
#1896039000
0"
#1899040812
1"
#1915336062
0!
#1916002062
1!
#1916705000
0"
#1919706812
1"
#1936002062
0!
#1936668062
1!
#1937371000
0"
#1940372812
1"
#1956668062
0!
#1957334062
1!
#1958037062
0"
#1961038812
1"
#1961038812
0!
#1962038812
1!
#1977334062
0!
#1978000062
1!
#1978703062
0"
#1981704750
1"
#1998000062
0!
#1998666062
1!
#1999369062
0"
#2002370749
1"
#2018666062
0!
#2019332062
1!
#2020035062
0"
#2023036750
1"
#2039332062
0!
#2039998062
1!
#2040701062
0"
#2043702750
1"
#2059998062
0!
#2060664062
1!
#2061367062
0"
#2064368749
1"
#2080664062
0!
#2081330062
1!
#2082033000
0"
#2085034750
1"
#2101330062
0!
#2101996062
1!
#2102698999
0"
#2105700750
1"
#2121853062
0!
#2122510062
1!
#2123191500
0"
#2126193312
1"
#2142129062
0!
#2142779062
1!
#2143404062
0"
#2146406250
1"
#2162168062
0!
#2162810062
1!
#2163382000
0"
#2166383812
1"
#2181977062
0!
#2182612062
1!
#2183121000
0"
#2186122750
1"
#2201564062
0!
#2202192062
1!
#2202650500
0"
#2205652250
1"
#2220937062
0!
#2221558062
1!
#2221979000
0"
#2224980750
1"
#2240102062
0!
#2240716062
1!
#2241090000
0"
#2244091750
1"
#2259065062
0!
#2259673062
1!
#2260000500
0"
#2263002312
1"
#2277834062
0!
#2278436062
1!
#2278719062
0"
#2281720750
1"
#2296414062
0!
#2297010062
1!
#2297249500
0"
#2300251250
1"
#2314810062
0!
#2315400062
1!
#2315597500
0"
#2318599312
1"
#2333028062
0!
#2333612062
1!
#2333768562
0"
#2336770250
1"
#2351073062
0!
#2351652062
1!
#2351768000
0"
#2354769750
1"
#2368950062
0!
#2369524062
1!
#2369601000
0"
#2372602812
1"
#2386664062
0!
#2387232062
1!
#2387272062
0"
#2390273750
1"
#2404218062
0!
#2404781062
1!
#2404793500
0"
#2407795250
1"
#2421617062
0!
#2422151000
0"
#2422175062
1!
#2425152812
1"
#2438865062
0!
#2439359000
0"
#2439418062
1!
#2442360812
1"
#2455965062
0!
#2456410000
0"
#2456514062
1!
#2459411812
1"
#2459411812
0!
#2460411812
1!
#2472923062
0!
#2473339500
0"
#2473467062
1!
#2476341312
1"
#2489740062
0!
#2490118500
0"
#2490280062
1!
#2493120250
1"
#2506421062
0!
#2506763000
0"
#2506956062
1!
#2509764750
1"
#2522969062
0!
#2523275562
0"
#2523500062
1!
#2526277312
1"
#2539387062
0!
#2539667500
0"
#2539914062
1!
#2542669250
1"
#2555678062
0!
#2555924000
0"
#2556201062
1!
#2558925812
1"
#2571845062
0!
#2572057500
0"
#2572364062
1!
#2575059250
1"
#2587890062
0!
#2588095000
0"
#2588405062
1!
#2591077750
1"
#2603817062
0!
#2604021312
0"
#2604328062
1!
#2606972250
1"
#2619628062
0!
#2619832500
0"
#2620136062
1!
#2622751812
1"
#2635326062
0!
#2635530750
0"
#2635830062
1!
#2638418750
1"
#2650912062
0!
#2651116375
0"
#2651412062
1!
#2653982312
1"
#2666389062
0!
#2666593750
0"
#2666886062
1!
#2669429250
1"
#2681760062
0!
#2681965312
0"
#2682254062
1!
#2684771250
1"
#2697027062
0!
#2697517062
1!
#2712191062
0!
#2712678062
1!
#2727255062
0!
#2727739062
1!
#2742221062
0!
#2742702062
1!
#2757091062
0!
#2757569062
1!
#2771850062
0"
#2771866062
0!
#2772341062
1!
#2774851750
1"
#2774851750
0!
#2775851750
1!
#2786503500
0"
#2786548062
0!
#2787020062
1!
#2789505312
1"
#2801074500
0"
#2801139062
0!
#2801608062
1!
#2804076312
1"
#2815549062
0"
#2815641062
0!
#2816107062
1!
#2818550750
1"
#2829944562
0"
#2830055062
0!
#2830518062
1!
#2832946250
1"
#2844245500
0"
#2844383062
0!
#2844843062
1!
#2847247250
1"
#2858471062
0"
#2858626062
0!
#2859084062
1!
#2861472750
1"
#2872605062
0"
#2872786062
0!
#2873241062
1!
#2875606750
1"
#2886666000
0"
#2886864062
0!
#2887316062
1!
#2889667750
1"
#2900638562
0"
#2900862062
0!
#2901312062
1!
#2903640312
1"
#2914541062
0"
#2914781062
0!
#2915228062
1!
#2917542812
1"
#2917542812
0!
#2918542812
1!
#2928358500
0"
#2928622062
0!
#2929067062
1!
#2931360250
1"
#2942106500
0"
#2942387062
0!
#2942829062
1!
#2945108250
1"
#2955773500
0"
#2956076062
0!
#2956516062
1!
#2958775250
1"
#2969364500
0"
#2969692062
0!
#2970130062
1!
#2972366250
1"
#2982893500
0"
#2983236062
0!
#2983671062
1!
#2985895312
1"
#2996352000
0"
#2996707062
0!
#2997140062
1!
#2999353812
1"
#3009728500
0"
#3010108062
0!
#3010539062
1!
#3012730250
1"
#3023046500
0"
#3023440062
0!
#3023868062
1!
#3026048250
1"
#3036289062
0"
#3036703062
0!
#3037129062
1!
#3039290812
1"
#3049470062
0"
#3049899062
0!
#3050323062
1!
#3052471750
1"
#3062579000
0"
#3063029062
0!
#3063451062
1!
#3065580750
1"
#3075630500
0"
#3076094062
0!
#3076514062
1!
#3078632250
1"
#3078632250
0!
#3079632250
1!
#3088618500
0"
#3089095062
0!
#3089513062
1!
#3091620312
1"
#3091620312
0!
#3092620312
1!
#3101536062
0"
#3102032062
0!
#3102448062
1!
#3104537750
1"
#3114397000
0"
#3114907062
0!
#3115321062
1!
#3117398750
1"
#3117398750
0!
#3118398750
1!
#3127191562
0"
#3127720062
0!
#3128132062
1!
#3130193250
1"
#3139931062
0"
#3140473062
0!
#3140883062
1!
#3142932750
1"
#3152605562
0"
#3153166062
0!
#3153574062
1!
#3155607250
1"
#3165227500
0"
#3165800062
0!
#3166206062
1!
#3168229250
1"
#3177791500
0"
#3178376062
0!
#3178780062
1!
#3180793312
1"
#3190291500
0"
#3190894062
0!
#3191296062
1!
#3193293250
1"
#3202741000
0"
#3203355062
0!
#3203756062
1!
#3205742750
1"
#3215134000
0"
#3215761062
0!
#3216160062
1!
#3218135750
1"
#3227468062
0"
#3228112062
0!
#3228509062
1!
#3230469750
1"
#3239754062
0"
#3240408062
0!
#3240803062
1!
#3242755812
1"
#3251978000
0"
#3252651062
0!
#3253045062
1!
#3254979750
1"
#3264158000
0"
#3264841062
0!
#3265233062
1!
#3267159750
1"
#3276278500
0"
#3276979062
0!
#3277369062
1!
#3279280250
1"
#3288355000
0"
#3289065062
0!
#3289453062
1!
#3291356750
1"
#3300379500
0"
#3301100062
0!
#3301487062
1!
#3303381250
1"
#3303381250
0!
#3304381250
1!
#3312354000
0"
#3313085062
0!
#3313470062
1!
#3315355750
1"
#3324273562
0"
#3325020062
0!
#3325404062
1!
#3327275250
1"
#3336149062
0"
#3336906062
0!
#3337288062
1!
#3339150750
1"
#3347977062
0"
#3348743062
0!
#3349124062
1!
#3350978750
1"
#3359756000
0"
#3360533062
0!
#3360912062
1!
#3362757750
1"
#3371484000
0"
#3372275062
0!
#3372653062
1!
#3374485812
1"
#3383169062
0"
#3383971062
0!
#3384347062
1!
#3386170750
1"
#3394811000
0"
#3395621062
0!
#3395996062
1!
#3397812750
1"
#3406406500
0"
#3407225062
0!
#3407598062
1!
#3409408250
1"
#3417949562
0"
#3418784062
0!
#3419156062
1!
#3420951250
1"
#3429455500
0"
#3430299062
0!
#3430669062
1!
#3432457250
1"
#3440918500
0"
#3441769062
0!
#3442138062
1!
#3443920250
1"
#3452335000
0"
#3453196062
0!
#3453563062
1!
#3455336750
1"
#3463705000
0"
#3464579062
0!
#3464945062
1!
#3466706750
1"
#3475036000
0"
#3475920062
0!
#3476285062
1!
#3478037750
1"
#3486327500
0"
#3487219062
0!
#3487582062
1!
#3489329312
1"
#3497576562
0"
#3498476062
0!
#3498838062
1!
#3500578250
1"
#3508778000
0"
#3509692062
0!
#3510052062
1!
#3511779750
1"
#3519945500
0"
#3520866062
0!
#3521225062
1!
#3522947250
1"
#3531069562
0"
#3532000062
0!
#3532358062
1!
#3534071250
1"
#3542156500
0"
#3543095062
0!
#3543452062
1!
#3545158250
1"
#3553199500
0"
#3554151062
0!
#3554506062
1!
#3556201250
1"
#3564209000
0"
#3565167062
0!
#3565521062
1!
#3567210750
1"
#3575178000
0"
#3576145062
0!
#3576498062
1!
#3578179750
1"
#3586111000
0"
#3587085062
0!
#3587437062
1!
#3589112750
1"
#3589112750
0!
#3590112750
1!
#3597000000
0"
#3597987062
0!
#3598338062
1!
#3600001750
1"
#3607857500
0"
#3608852062
0!
#3609201062
1!
#3610859250
1"
#3618678562
0"
#3619679062
0!
#3620027062
1!
#3621680312
1"
#3629461062
0"
#3630470062
0!
#3630817062
1!
#3632462750
1"
#3640203562
0"
#3641224062
0!
#3641570062
1!
#3643205250
1"
#3650913500
0"
#3651943062
0!
#3652288062
1!
#3653915250
1"
#3661591562
0"
#3662626062
0!
#3662969062
1!
#3664593250
1"
#3672232000
0"
#3673273062
0!
#3673615062
1!
#3675238250
1"
#3682836500
0"
#3683885062
0!
#3684226062
1!
#3685838250
1"
#3685838250
0!
#3686838250
1!
#3693401562
0"
#3694463062
0!
#3694803062
1!
#3696403250
1"
#3703939500
0"
#3705007062
0!
#3705346062
1!
#3706941250
1"
#3714443000
0"
#3715517062
0!
#3715855062
1!
#3717444750
1"
#3724913000
0"
#3725994062
0!
#3726331062
1!
#3727914812
1"
#3735351000
0"
#3736438062
0!
#3736774062
1!
#3738352750
1"
#3738352750
0!
#3739352750
1!
#3745756500
0"
#3746849062
0!
#3747184062
1!
#3748758250
1"
#3756128562
0"
#3757227062
0!
#3757561062
1!
#3759130250
1"
#3766467500
0"
#3767573062
0!
#3767906062
1!
#3769469250
1"
#3776776000
0"
#3777887062
0!
#3778219062
1!
#3779777812
1"
#3787046562
0"
#3788169062
0!
#3788500062
1!
#3790048250
1"
#3797290562
0"
#3798420062
0!
#3798750062
1!
#3800292312
1"
#3807505000
0"
#3808640062
0!
#3808969062
1!
#3810506750
1"
#3817688500
0"
#3818829062
0!
#3819157062
1!
#3820690250
1"
#3827841062
0"
#3828987062
0!
#3829314062
1!
#3830842750
1"
#3837962562
0"
#3839115062
0!
#3839441062
1!
#3840964312
1"
#3848055000
0"
#3849213062
0!
#3849538062
1!
#3851056750
1"
#3858118062
0"
#3859281062
0!
#3859605062
1!
#3861119750
1"
#3868150562
0"
#3869319062
0!
#3869642062
1!
#3871152312
1"
#3878147500
0"
#3879328062
0!
#3879650062
1!
#3881149312
1"
#3888122562
0"
#3889308062
0!
#3889629062
1!
#3891124250
1"
#3898068062
0"
#3899259062
0!
#3899579062
1!
#3901069812
1"
#3907985000
0"
#3909182062
0!
#3909501062
1!
#3910986750
1"
#3917875000
0"
#3919076062
0!
#3919394062
1!
#3920876750
1"
#3920876750
0!
#3921876750
1!
#3927735000
0"
#3928942062
0!
#3929259062
1!
#3930736750
1"
#3937568000
0"
#3938780062
0!
#3939097062
1!
#3940569750
1"
#3947373000
0"
#3948592062
0!
#3948908062
1!
#3950374750
1"
#3957154500
0"
#3958377062
0!
#3958692062
1!
#3960156250
1"
#3966902000
0"
#3968134062
0!
#3968448062
1!
#3969903812
1"
#3976626062
0"
#3977864062
0!
#3978177062
1!
#3979627750
1"
#3986324500
0"
#3987567062
0!
#3987879062
1!
#3989326250
1"
#3995995500
0"
#3997244062
0!
#3997555062
1!
#3998997250
1"
#4005642062
0"
#4006894062
0!
#4007204062
1!
#4008643750
1"
#4015260062
0"
#4016518062
0!
#4016827062
1!
#4018261749
1"
#4024853500
0"
#4026117062
0!
#4026426062
1!
#4027855312
1"
#4034423000
0"
#4035691062
0!
#4035999062
1!
#4037424749
1"
#4043967500
0"
#4045239062
0!
#4045546062
1!
#4046969250
1"
#4053480000
0"
#4054762062
0!
#4055068062
1!
#4056481749
1"
#4062973562
0"
#4064259062
0!
#4064564062
1!
#4065975250
1"
#4072440062
0"
#4073732062
0!
#4074037062
1!
#4075441812
1"
#4081884500
0"
#4083181062
0!
#4083485062
1!
#4084886250
1"
#4091305562
0"
#4092605062
0!
#4092908062
1!
#4094307250
1"
#4100700000
0"
#4102005062
0!
#4102307062
1!
#4103701750
1"
#4110071500
0"
#4111381062
0!
#4111683062
1!
#4113073250
1"
#4119419500
0"
#4120733062
0!
#4121034062
1!
#4122421312
1"
#4128743000
0"
#4130062062
0!
#4130362062
1!
#4131744750
1"
#4138045062
0"
#4139367062
0!
#4139666062
1!
#4141046750
1"
#4141046750
0!
#4142046750
1!
#4147322062
0"
#4148648062
0!
#4148947062
1!
#4150323812
1"
#4156574499
0"
#4157907062
0!
#4158205062
1!
#4159576249
1"
#4165808000
0"
#4167143062
0!
#4167440062
1!
#4168809750
1"
#4175016562
0"
#4176356062
0!
#4176652062
1!
#4178022312
1"
#4184202562
0"
#4185545062
0!
#4185841062
1!
#4187204312
1"
#4193363500
0"
#4194713062
0!
#4195008062
1!
#4196365250
1"
#4202506500
0"
#4203858062
0!
#4204152062
1!
#4205508250
1"
#4211624500
0"
#4212981062
0!
#4213275062
1!
#4214626250
1"
#4220721500
0"
#4222083062
0!
#4222376062
1!
#4223723250
1"
#4229799000
0"
#4231163062
0!
#4231455062
1!
#4232800750
1"
#4238852999
0"
#4240221062
0!
#4240512062
1!
#4241854750
1"
#4247885000
0"
#4249257062
0!
#4249548062
1!
#4250886812
1"
#4250886812
0!
#4251886812
1!
#4256895499
0"
#4258272062
0!
#4258562062
1!
#4259897250
1"
#4265885500
0"
#4267266062
0!
#4267555062
1!
#4268887249
1"
#4274854999
0"
#4276238062
0!
#4276526062
1!
#4277856750
1"
#4283795999
0"
#4285189062
0!
#4285477062
1!
#4286797812
1"
#4292722500
0"
#4294120062
0!
#4294407062
1!
#4295724312
1"
#4301630062
0"
#4303030062
0!
#4303317062
1!
#4304631750
1"
#4310515000
0"
#4311920062
0!
#4312206062
1!
#4313516812
1"
#4319381500
0"
#4320789062
0!
#4321074062
1!
#4322383250
1"
#4328226000
0"
#4329638062
0!
#4329923062
1!
#4331227750
1"
#4337051562
0"
#4338467062
0!
#4338751062
1!
#4340053250
1"
#4345857000
0"
#4347276062
0!
#4347559062
1!
#4348858750
1"
#4354642562
0"
#4356065062
0!
#4356348062
1!
#4357644250
1"
#4363408000
0"
#4364835062
0!
#4365117062
1!
#4366409750
1"
#4372155562
0"
#4373585062
0!
#4373867062
1!
#4375157312
1"
#4380882000
0"
#4382317062
0!
#4382598062
1!
#4383883750
1"
#4383883750
0!
#4384883750
1!
#4391029062
0!
#4391309062
1!
#4399721062
0!
#4400000062
1!
#4408394062
0!
#4408673062
1!
#4415600500
0"
#4417049062
0!
#4417327062
1!
#4418602312
1"
#4424234000
0"
#4425684062
0!
#4425962062
1!
#4427235750
1"
#4432845500
0"
#4434301062
0!
#4434578062
1!
#4435847250
1"
#4441441500
0"
#4442900062
0!
#4443177062
1!
#4444443250
1"
#4450019500
0"
#4451481062
0!
#4451757062
1!
#4453021250
1"
#4458579000
0"
#4460043062
0!
#4460318062
1!
#4461580750
1"
#4467119000
0"
#4468586062
0!
#4468861062
1!
#4470120812
1"
#4470120812
0!
#4471120812
1!
#4475639500
0"
#4477112062
0!
#4477386062
1!
#4478641250
1"
#4484145500
0"
#4485620062
0!
#4485894062
1!
#4487147312
1"
#4492632500
0"
#4494110062
0!
#4494383062
1!
#4495634250
1"
#4501101000
0"
#4502582062
0!
#4502855062
1!
#4504102750
1"
#4509556562
0"
#4511037062
0!
#4511309062
1!
#4512558312
1"
#4517991500
0"
#4519474062
0!
#4519745062
1!
#4520993250
1"
#4526407500
0"
#4527893062
0!
#4528164062
1!
#4529409250
1"
#4534805562
0"
#4536296062
0!
#4536566062
1!
#4537807250
1"
#4543189500
0"
#4544681062
0!
#4544951062
1!
#4546191250
1"
#4551553500
0"
#4553049062
0!
#4553318062
1!
#4554555312
1"
#4559901500
0"
#4561400062
0!
#4561669062
1!
#4562903312
1"
#4568232500
0"
#4569735062
0!
#4570003062
1!
#4571238250
1"
#4571238250
0!
#4572238250
1!
#4576548500
0"
#4578053062
0!
#4578321062
1!
#4579550250
1"
#4584846562
0"
#4586355062
0!
#4586622062
1!
#4587848250
1"
#4593129500
0"
#4594639062
0!
#4594905062
1!
#4596131312
1"
#4601392500
0"
#4602907062
0!
#4603173062
1!
#4604394312
1"
#4609641562
0"
#4611159062
0!
#4611424062
1!
#4612643312
1"
#4617875000
0"
#4619394062
0!
#4619659062
1!
#4620876812
1"
#4626090000
0"
#4627613062
0!
#4627878062
1!
#4629091750
1"
#4629091750
0!
#4630091750
1!
#4634290062
0"
#4635817062
0!
#4636081062
1!
#4637291750
1"
#4642476562
0"
#4644004062
0!
#4644268062
1!
#4645478250
1"
#4650643562
0"
#4652176062
0!
#4652439062
1!
#4653645312
1"
#4658797562
0"
#4660332062
0!
#4660594062
1!
#4661799250
1"
#4666935000
0"
#4668471062
0!
#4668733062
1!
#4669936812
1"
#4675054000
0"
#4676595062
0!
#4676856062
1!
#4678055750
1"
#4683160062
0"
#4684703062
0!
#4684964062
1!
#4686161750
1"
#4691249562
0"
#4692797062
0!
#4693057062
1!
#4694251250
1"
#4699327000
0"
#4700874062
0!
#4701134062
1!
#4702328750
1"
#4702328750
0!
#4703328750
1!
#4707384000
0"
#4708937062
0!
#4709197062
1!
#4710385750
1"
#4710385750
0!
#4711385750
1!
#4715430500
0"
#4716985062
0!
#4717244062
1!
#4718432250
1"
#4723461000
0"
#4725017062
0!
#4725275062
1!
#4726462812
1"
#4731474000
0"
#4733034062
0!
#4733292062
1!
#4734475750
1"
#4739473500
0"
#4741037062
0!
#4741294062
1!
#4742475312
1"
#4747460062
0"
#4749024062
0!
#4749281062
1!
#4750461750
1"
#4755428000
0"
#4756997062
0!
#4757253062
1!
#4758429812
1"
#4763384562
0"
#4764955062
0!
#4765211062
1!
#4766386312
1"
#4771325000
0"
#4772899062
0!
#4773155062
1!
#4774326750
1"
#4779252562
0"
#4780828062
0!
#4781083062
1!
#4782254250
1"
#4787168000
0"
#4788742062
0!
#4788996062
1!
#4790169750
1"
#4795064500
0"
#4796642062
0!
#4796896062
1!
#4798066312
1"
#4802948000
0"
#4804528062
0!
#4804782062
1!
#4805949750
1"
#4810817500
0"
#4812400062
0!
#4812653062
1!
#4813819250
1"
#4818673062
0"
#4820257062
0!
#4820510062
1!
#4821674750
1"
#4826512500
0"
#4828101062
0!
#4828353062
1!
#4829514250
1"
#4834341062
0"
#4835930062
0!
#4836182062
1!
#4837342750
1"
#4842152500
0"
#4843746062
0!
#4843998062
1!
#4845154250
1"
#4845154250
0!
#4846154250
1!
#4849953062
0"
#4851548062
0!
#4851799062
1!
#4852954750
1"
#4857738500
0"
#4859336062
0!
#4859586062
1!
#4860740250
1"
#4865510000
0"
#4867110062
0!
#4867360062
1!
#4868511750
1"
#4873267500
0"
#4874871062
0!
#4875120062
1!
#4876269250
1"
#4881013562
0"
#4882618062
0!
#4882867062
1!
#4884015250
1"
#4888744062
0"
#4890352062
0!
#4890601062
1!
#4891750312
1"
#4891750312
0!
#4892750312
1!
#4896462500
0"
#4898073062
0!
#4898321062
1!
#4899464250
1"
#4904168500
0"
#4905780062
0!
#4906028062
1!
#4907170312
1"
#4911859062
0"
#4913474062
0!
#4913721062
1!
#4914860812
1"
#4919537500
0"
#4921154062
0!
#4921401062
1!
#4922539250
1"
#4927201062
0"
#4928822062
0!
#4929069062
1!
#4930202750
1"
#4934855000
0"
#4936477062
0!
#4936723062
1!
#4937856750
1"
#4942494500
0"
#4944118062
0!
#4944364062
1!
#4945496312
1"
#4950119312
0"
#4951747062
0!
#4951992062
1!
#4953120750
1"
#4953120750
0!
#4954120750
1!
#4957734062
0"
#4959362062
0!
#4959607062
1!
#4960735750
1"
#4965332562
0"
#4966965062
0!
#4967210062
1!
#4968334250
1"
#4972925562
0"
#4974555062
0!
#4974799062
1!
#4975927250
1"
#4980500500
0"
#4982132062
0!
#4982376062
1!
#4983502250
1"
#4988062062
0"
#4989697062
0!
#4989940062
1!
#4991063750
1"
#4991063750
0!
#4992063750
1!
#4995613062
0"
#4997249062
0!
#4997492062
1!
#4998614812
1"
#5003149500
0"
#5004789062
0!
#5005032062
1!
#5006151250
1"
#5010675500
0"
#5012317062
0!
#5012559062
1!
#5013677250
1"
#5018189500
0"
#5019832062
0!
#5020073062
1!
#5021191250
1"
#5025689000
0"
#5027334062
0!
#5027575062
1!
#5028690812
1"
#5033175500
0"
#5034824062
0!
#5035065062
1!
#5036177250
1"
#5040651500
0"
#5042303062
0!
#5042544062
1!
#5043653250
1"
#5048117562
0"
#5049770062
0!
#5050010062
1!
#5051119250
1"
#5055591062
0"
#5057224062
0!
#5057464062
1!
#5058572812
1"
#5063029000
0"
#5064667062
0!
#5064907062
1!
#5066010750
1"
#5070459000
0"
#5072098062
0!
#5072337062
1!
#5073440750
1"
#5077876062
0"
#5079516062
0!
#5079755062
1!
#5080857750
1"
#5085299000
0"
#5086923062
0!
#5087161062
1!
#5088260750
1"
#5092693000
0"
#5094318062
0!
#5094556062
1!
#5095654812
1"
#5100073562
0"
#5101701062
0!
#5101938062
1!
#5103035250
1"
#5107446500
0"
#5109072062
0!
#5109309062
1!
#5110408250
1"
#5114823562
0"
#5116432062
0!
#5116669062
1!
#5117765250
1"
#5122170500
0"
#5123780062
0!
#5124016062
1!
#5125112250
1"
#5129504500
0"
#5131117062
0!
#5131353062
1!
#5132446250
1"
#5136828562
0"
#5138442062
0!
#5138678062
1!
#5139770250
1"
#5144139500
0"
#5145756062
0!
#5145991062
1!
#5147081250
1"
#5151460500
0"
#5153058062
0!
#5153293062
1!
#5154382312
1"
#5158748000
0"
#5160349062
0!
#5160584062
1!
#5161669750
1"
#5166026000
0"
#5167630062
0!
#5167864062
1!
#5168947812
1"
#5173295500
0"
#5174899062
0!
#5175133062
1!
#5176217250
1"
#5180570500
0"
#5182157062
0!
#5182391062
1!
#5183472250
1"
#5187815500
0"
#5189404062
0!
#5189637062
1!
#5190717312
1"
#5195049562
0"
#5196640062
0!
#5196873062
1!
#5197951250
1"
#5202272500
0"
#5203865062
0!
#5204097062
1!
#5205174250
1"
#5209484500
0"
#5211079062
0!
#5211311062
1!
#5212386250
1"
#5216705500
0"
#5218282062
0!
#5218514062
1!
#5219587250
1"
#5223895500
0"
#5225474062
0!
#5225705062
1!
#5226777312
1"
#5231074500
0"
#5232655062
0!
#5232886062
1!
#5233956250
1"
#5238242500
0"
#5239826062
0!
#5240057062
1!
#5241124250
1"
#5241124250
0!
#5242124250
1!
#5245426000
0"
#5246986062
0!
#5247216062
1!
#5248287750
1"
#5252573000
0"
#5254135062
0!
#5254365062
1!
#5255434812
1"
#5255434812
0!
#5256434812
1!
#5259709062
0"
#5261274062
0!
#5261504062
1!
#5262570750
1"
#5262570750
0!
#5263570750
1!
#5266836062
0"
#5268403062
0!
#5268632062
1!
#5269697750
1"
#5273953500
0"
#5275520062
0!
#5275749062
1!
#5276815312
1"
#5276815312
0!
#5277815312
1!
#5281076000
0"
#5282627062
0!
#5282855062
1!
#5283917750
1"
#5288171500
0"
#5289723062
0!
#5289951062
1!
#5291013250
1"
#5295254562
0"
#5296809062
0!
#5297037062
1!
#5298096250
1"
#5302328500
0"
#5303885062
0!
#5304113062
1!
#5305170250
1"
#5309393000
0"
#5310951062
0!
#5311178062
1!
#5312234750
1"
#5316467000
0"
#5318006062
0!
#5318233062
1!
#5319288750
1"
#5323509000
0"
#5325051062
0!
#5325278062
1!
#5326330750
1"
#5330542500
0"
#5332087062
0!
#5332313062
1!
#5333364312
1"
#5333364312
0!
#5334364312
1!
#5337567500
0"
#5339112062
0!
#5339338062
1!
#5340389250
1"
#5340389250
0!
#5341389250
1!
#5344579500
0"
#5346127062
0!
#5346353062
1!
#5347401250
1"
#5351603000
0"
#5353132062
0!
#5353358062
1!
#5354404750
1"
#5358596000
0"
#5360128062
0!
#5360353062
1!
#5361397750
1"
#5365581500
0"
#5367113062
0!
#5367338062
1!
#5368383250
1"
#5372553562
0"
#5374089062
0!
#5374313062
1!
#5375355250
1"
#5379523000
0"
#5381054062
0!
#5381278062
1!
#5382324750
1"
#5386495000
0"
#5388010062
0!
#5388234062
1!
#5389276750
1"
#5393440062
0"
#5394956062
0!
#5395179062
1!
#5396221750
1"
#5400374562
0"
#5401892062
0!
#5402115062
1!
#5403156250
1"
#5407298562
0"
#5408818062
0!
#5409041062
1!
#5410080250
1"
#5414213000
0"
#5415735062
0!
#5415957062
1!
#5416994750
1"
#5421139000
0"
#5422642062
0!
#5422864062
1!
#5423900812
1"
#5428034562
0"
#5429540062
0!
#5429762062
1!
#5430796250
1"
#5434922000
0"
#5436429062
0!
#5436651062
1!
#5437683750
1"
#5441800000
0"
#5443308062
0!
#5443530062
1!
#5444561750
1"
#5448667500
0"
#5450178062
0!
#5450399062
1!
#5451429250
1"
#5455547062
0"
#5457038062
0!
#5457259062
1!
#5458288750
1"
#5462395000
0"
#5463889062
0!
#5464109062
1!
#5465136750
1"
#5469235500
0"
#5470730062
0!
#5470950062
1!
#5471977250
1"
#5476068500
0"
#5477562062
0!
#5477782062
1!
#5478810250
1"
#5482890062
0"
#5484385062
0!
#5484604062
1!
#5485631750
1"
#5489722062
0"
#5491198062
0!
#5491417062
1!
#5492443750
1"
#5496523500
0"
#5498002062
0!
#5498221062
1!
#5499245250
1"
#5503316500
0"
#5504797062
0!
#5505016062
1!
#5506038312
1"
#5506038312
0!
#5507038312
1!
#5510101000
0"
#5511584062
0!
#5511802062
1!
#5512822750
1"
#5516878562
0"
#5518361062
0!
#5518579062
1!
#5519600312
1"
#5523644062
0"
#5525129062
0!
#5525347062
1!
#5526365750
1"
#5530421000
0"
#5531888062
0!
#5532105062
1!
#5533122750
1"
#5537169500
0"
#5538638062
0!
#5538855062
1!
#5539871312
1"
#5543909000
0"
#5545379062
0!
#5545596062
1!
#5546610750
1"
#5550639500
0"
#5552112062
0!
#5552329062
1!
#5553341250
1"
#5553341250
0!
#5554341250
1!
#5557363000
0"
#5558836062
0!
#5559053062
1!
#5560064750
1"
#5564096500
0"
#5565552062
0!
#5565768062
1!
#5566778312
1"
#5570803000
0"
#5572258062
0!
#5572474062
1!
#5573484812
1"
#5577497000
0"
#5578956062
0!
#5579171062
1!
#5580178750
1"
#5584185500
0"
#5585644062
0!
#5585859062
1!
#5586867312
1"
#5590862000
0"
#5592324062
0!
#5592539062
1!
#5593543812
1"
