analysis/wokwi-logic.vcd
$version Generated by Wokwi.com $end
$date Mon, 08 Sep 2025 10:17:09 GMT $end
$timescale 1ns $end
$scope module logic $end
$var wire 1 ! D2 $end
$var wire 1 " D3 $end
$var wire 1 # D4 $end
$upscope $end
$enddefinitions $end
#0
0!
#0
0"
#0
0#
#0
1!
#4935375
1"
#4935375
0!
#5935375
1!
#1006704812
1#
#1026704812
0!
#1027370812
1!
#1047370812
0!
#1048036812
1!
#1068036812
0!
#1068702812
1!
#1088702812
0!
#1089368812
1!
#1109368812
0!
#1110034812
1!
#1110738312
0"
#1113740500
1"
#1130034812
0!
#1130700812
1!
#1131403812
0"
#1134405500
1"
#1150700812
0!
#1151366812
1!
#1152070312
0"
#1155072000
1"
#1171366812
0!
#1172032812
1!
#1172735312
0"
#1175737000
1"
#1192032812
0!
#1192698812
1!
#1193402312
0"
#1196404062
1"
#1196404062
0!
#1197404062
1!
#1212698812
0!
#1213364812
1!
#1214067312
0"
#1217069250
1"
#1233364812
0!
#1234030812
1!
#1234733875
0"
#1237736062
1"
#1237736062
0!
#1238736062
1!
#1254030812
0!
#1254696812
1!
#1255399937
0"
#1258401500
1"
#1274696812
0!
#1275362812
1!
#1276065750
0"
#1279067500
1"
#1295362812
0!
#1296028812
1!
#1296731750
0"
#1299733500
1"
#1316028812
0!
#1316694812
1!
#1317397750
0"
#1320399812
1"
#1336694812
0!
#1337360812
1!
#1338063750
0"
#1341065500
1"
#1357360812
0!
#1358026812
1!
#1358729750
0"
#1361731937
1"
#1378026812
0!
#1378692812
1!
#1379395750
0"
#1382397500
1"
#1398692812
0!
#1399358812
1!
#1400061750
0"
#1403063500
1"
#1419358812
0!
#1420024812
1!
#1420727750
0"
#1423729937
1"
#1423729937
0!
#1424729937
1!
#1440024812
0!
#1440690812
1!
#1441393750
0"
#1444395687
1"
#1460690812
0!
#1461356812
1!
#1462059750
0"
#1465061500
1"
#1481356812
0!
#1482022812
1!
#1482725750
0"
#1485727812
1"
#1502022812
0!
#1502688812
1!
#1503391750
0"
#1506393500
1"
#1522688812
0!
#1523354812
1!
#1524058312
0"
#1527060500
1"
#1543354812
0!
#1544020812
1!
#1544723750
0"
#1547725812
1"
#1564020812
0!
#1564686812
1!
#1565389750
0"
#1568391500
1"
#1584686812
0!
#1585352812
1!
#1586055750
0"
#1589057937
1"
#1605352812
0!
#1606018812
1!
#1606721750
0"
#1609723500
1"
#1626018812
0!
#1626684812
1!
#1627387750
0"
#1630389500
1"
#1646684812
0!
#1647350812
1!
#1648053812
0"
#1651055625
1"
#1667350812
0!
#1668016812
1!
#1668719750
0"
#1671721500
1"
#1688016812
0!
#1688682812
1!
#1689385812
0"
#1692387750
1"
#1708682812
0!
#1709348812
1!
#1710051812
0"
#1713053562
1"
#1729348812
0!
#1730014812
1!
#1730718250
0"
#1733720000
1"
#1750014812
0!
#1750680812
1!
#1751383812
0"
#1754385750
1"
#1770680812
0!
#1771346812
1!
#1772049750
0"
#1775051562
1"
#1791346812
0!
#1792012812
1!
#1792715812
0"
#1795717875
1"
#1812012812
0!
#1812678812
1!
#1813381812
0"
#1816383500
1"
#1832678812
0!
#1833344812
1!
#1834047750
0"
#1837050000
1"
#1837050000
0!
#1838050000
1!
#1853344812
0!
#1854010812
1!
#1854714125
0"
#1857715500
1"
#1874010812
0!
#1874676812
1!
#1875379750
0"
#1878381625
1"
#1894676812
0!
#1895342812
1!
#1896046437
0"
#1899048000
1"
#1915342812
0!
#1916008812
1!
#1916711250
0"
#1919713437
1"
#1936008812
0!
#1936674812
1!
#1937377750
0"
#1940379562
1"
#1956674812
0!
#1957340812
1!
#1958043937
0"
#1961045562
1"
#1961045562
0!
#1962045562
1!
#1977340812
0!
#1978006812
1!
#1978710000
0"
#1981711500
1"
#1998006812
0!
#1998672812
1!
#1999375812
0"
#2002377562
1"
#2018672812
0!
#2019338812
1!
#2020042312
0"
#2023044500
1"
#2039338812
0!
#2040004812
1!
#2040707250
0"
#2043709312
1"
#2060004812
0!
#2060670812
1!
#2061374437
0"
#2064376000
1"
#2080670812
0!
#2081336812
1!
#2082039812
0"
#2085042000
1"
#2101336812
0!
#2102002812
1!
#2102705750
0"
#2105707562
1"
#2121859812
0!
#2122516812
1!
#2123198437
0"
#2126199999
1"
#2142135812
0!
#2142785812
1!
#2143411312
0"
#2146413500
1"
#2162174812
0!
#2162816812
1!
#2163389250
0"
#2166391437
1"
#2181983812
0!
#2182618812
1!
#2183128062
0"
#2186129562
1"
#2201570812
0!
#2202198812
1!
#2202657750
0"
#2205659937
1"
#2220943812
0!
#2221564812
1!
#2221985750
0"
#2224987500
1"
#2240108812
0!
#2240722812
1!
#2241096812
0"
#2244098750
1"
#2259071812
0!
#2259679812
1!
#2260007250
0"
#2263009187
1"
#2277840812
0!
#2278442812
1!
#2278725750
0"
#2281727562
1"
#2296420812
0!
#2297016812
1!
#2297256562
0"
#2300258062
1"
#2314816812
0!
#2315406812
1!
#2315604750
0"
#2318606812
1"
#2333034812
0!
#2333618812
1!
#2333775250
0"
#2336777000
1"
#2351078812
0!
#2351657812
1!
#2351774250
0"
#2354776062
1"
#2368955812
0!
#2369529812
1!
#2369606750
0"
#2372608562
1"
#2386668812
0!
#2387236812
1!
#2387277250
0"
#2390279062
1"
#2404222812
0!
#2404785812
1!
#2404797812
0"
#2407799500
1"
#2421621812
0!
#2422155750
0"
#2422179812
1!
#2425157562
1"
#2438869812
0!
#2439363750
0"
#2439422812
1!
#2442365500
1"
#2455969812
0!
#2456414750
0"
#2456518812
1!
#2459416562
1"
#2459416562
0!
#2460416562
1!
#2472927812
0!
#2473344562
0"
#2473471812
1!
#2476346062
1"
#2489744812
0!
#2490123250
0"
#2490284812
1!
#2493125187
1"
#2506425812
0!
#2506767750
0"
#2506960812
1!
#2509769500
1"
#2522973812
0!
#2523280250
0"
#2523504812
1!
#2526282000
1"
#2539391812
0!
#2539672250
0"
#2539918812
1!
#2542674000
1"
#2555682812
0!
#2555930937
0"
#2556205812
1!
#2558928000
1"
#2571849812
0!
#2572099500
0"
#2572368812
1!
#2575061750
1"
#2587894812
0!
#2588144250
0"
#2588409812
1!
#2591082500
1"
#2603821812
0!
#2604070125
0"
#2604332812
1!
#2606977062
1"
#2619632812
0!
#2619881937
0"
#2620140812
1!
#2622756500
1"
#2635330812
0!
#2635579562
0"
#2635834812
1!
#2638423812
1"
#2650916812
0!
#2651165312
0"
#2651416812
1!
#2653987062
1"
#2666393812
0!
#2666642375
0"
#2666890812
1!
#2669434062
1"
#2681764812
0!
#2682014312
0"
#2682258812
1!
#2684776000
1"
#2697031812
0!
#2697521812
1!
#2712195812
0!
#2712682812
1!
#2727259812
0!
#2727743812
1!
#2742225812
0!
#2742706812
1!
#2757095812
0!
#2757572812
1!
#2771854750
0"
#2771869812
0!
#2772344812
1!
#2774856937
1"
#2774856937
0!
#2775856937
1!
#2786506312
0"
#2786551812
0!
#2787023812
1!
#2789508062
1"
#2801078312
0"
#2801142812
0!
#2801611812
1!
#2804080000
1"
#2815552812
0"
#2815644812
0!
#2816110812
1!
#2818554500
1"
#2829948250
0"
#2830058812
0!
#2830521812
1!
#2832950000
1"
#2844249687
0"
#2844386812
0!
#2844846812
1!
#2847251000
1"
#2858474812
0"
#2858629812
0!
#2859087812
1!
#2861476562
1"
#2872608937
0"
#2872789812
0!
#2873244812
1!
#2875610500
1"
#2886670187
0"
#2886867812
0!
#2887319812
1!
#2889672062
1"
#2900642250
0"
#2900865812
0!
#2901315812
1!
#2903644062
1"
#2914544875
0"
#2914784812
0!
#2915231812
1!
#2917546500
1"
#2917546500
0!
#2918546500
1!
#2928362812
0"
#2928625812
0!
#2929070812
1!
#2931364562
1"
#2942110250
0"
#2942390812
0!
#2942832812
1!
#2945112250
1"
#2955777250
0"
#2956079812
0!
#2956519812
1!
#2958779062
1"
#2969368250
0"
#2969695812
0!
#2970133812
1!
#2972370312
1"
#2982897687
0"
#2983239812
0!
#2983674812
1!
#2985899125
1"
#2996355812
0"
#2996710812
0!
#2997143812
1!
#2999357500
1"
#3009732250
0"
#3010111812
0!
#3010542812
1!
#3012734062
1"
#3023050312
0"
#3023443812
0!
#3023871812
1!
#3026052000
1"
#3036292750
0"
#3036706812
0!
#3037132812
1!
#3039294500
1"
#3049473750
0"
#3049902812
0!
#3050326812
1!
#3052476000
1"
#3062582875
0"
#3063032812
0!
#3063454812
1!
#3065584750
1"
#3075634312
0"
#3076097812
0!
#3076517812
1!
#3078636000
1"
#3078636000
0!
#3079636000
1!
#3088622250
0"
#3089098812
0!
#3089516812
1!
#3091624000
1"
#3091624000
0!
#3092624000
1!
#3101540750
0"
#3102035812
0!
#3102451812
1!
#3104542500
1"
#3114400250
0"
#3114910812
0!
#3115324812
1!
#3117402437
1"
#3117402437
0!
#3118402437
1!
#3127195812
0"
#3127723812
0!
#3128135812
1!
#3130197562
1"
#3139934750
0"
#3140476812
0!
#3140886812
1!
#3142936500
1"
#3152609312
0"
#3153169812
0!
#3153577812
1!
#3155611437
1"
#3165231312
0"
#3165803812
0!
#3166209812
1!
#3168233000
1"
#3177795312
0"
#3178379812
0!
#3178783812
1!
#3180797125
1"
#3190295250
0"
#3190897812
0!
#3191299812
1!
#3193297000
1"
#3202744812
0"
#3203358812
0!
#3203759812
1!
#3205746500
1"
#3215138187
0"
#3215764812
0!
#3216163812
1!
#3218139562
1"
#3227471812
0"
#3228115812
0!
#3228512812
1!
#3230473500
1"
#3239758187
0"
#3240411812
0!
#3240806812
1!
#3242759812
1"
#3251982750
0"
#3252654812
0!
#3253048812
1!
#3254984562
1"
#3264161312
0"
#3264844812
0!
#3265236812
1!
#3267163312
1"
#3276282312
0"
#3276982812
0!
#3277372812
1!
#3279284000
1"
#3288358750
0"
#3289068812
0!
#3289457812
1!
#3291361062
1"
#3300383312
0"
#3301104812
0!
#3301491812
1!
#3303385437
1"
#3303385437
0!
#3304385437
1!
#3312360250
0"
#3313089812
0!
#3313474812
1!
#3315362187
1"
#3324278250
0"
#3325024812
0!
#3325408812
1!
#3327280062
1"
#3336153750
0"
#3336910812
0!
#3337292812
1!
#3339155500
1"
#3347981812
0"
#3348747812
0!
#3349128812
1!
#3350983500
1"
#3359760750
0"
#3360537812
0!
#3360916812
1!
#3362762875
1"
#3371488750
0"
#3372279812
0!
#3372656812
1!
#3374490750
1"
#3383173812
0"
#3383974812
0!
#3384350812
1!
#3386175750
1"
#3394813250
0"
#3395624812
0!
#3395999812
1!
#3397815187
1"
#3406410250
0"
#3407228812
0!
#3407601812
1!
#3409412062
1"
#3417953812
0"
#3418787812
0!
#3419159812
1!
#3420955500
1"
#3429459312
0"
#3430301812
0!
#3430671812
1!
#3432461000
1"
#3440919750
0"
#3441771812
0!
#3442140812
1!
#3443921500
1"
#3452337812
0"
#3453198812
0!
#3453565812
1!
#3455339875
1"
#3463708750
0"
#3464581812
0!
#3464947812
1!
#3466710500
1"
#3475038250
0"
#3475922812
0!
#3476287812
1!
#3478040250
1"
#3486330250
0"
#3487221812
0!
#3487584812
1!
#3489332562
1"
#3497579250
0"
#3498478812
0!
#3498840812
1!
#3500581125
1"
#3508781937
0"
#3509694812
0!
#3510055812
1!
#3511783500
1"
#3519947812
0"
#3520869812
0!
#3521228812
1!
#3522949500
1"
#3531075000
0"
#3532004812
0!
#3532362812
1!
#3534076562
1"
#3542162250
0"
#3543099812
0!
#3543456812
1!
#3545164312
1"
#3553204312
0"
#3554155812
0!
#3554510812
1!
#3556206000
1"
#3564213750
0"
#3565171812
0!
#3565525812
1!
#3567215500
1"
#3575183750
0"
#3576149812
0!
#3576502812
1!
#3578185500
1"
#3586115312
0"
#3587089812
0!
#3587441812
1!
#3589117437
1"
#3589117437
0!
#3590117437
1!
#3597005000
0"
#3597991812
0!
#3598342812
1!
#3600006500
1"
#3607862812
0"
#3608856812
0!
#3609205812
1!
#3610864562
1"
#3618683250
0"
#3619683812
0!
#3620031812
1!
#3621685062
1"
#3629465812
0"
#3630474812
0!
#3630821812
1!
#3632467500
1"
#3640208312
0"
#3641228812
0!
#3641574812
1!
#3643210000
1"
#3650918250
0"
#3651947812
0!
#3652292812
1!
#3653920500
1"
#3661597312
0"
#3662630812
0!
#3662973812
1!
#3664599000
1"
#3672236312
0"
#3673277812
0!
#3673619812
1!
#3675243500
1"
#3682842250
0"
#3683889812
0!
#3684230812
1!
#3685844375
1"
#3685844375
0!
#3686844375
1!
#3693406937
0"
#3694467812
0!
#3694807812
1!
#3696408500
1"
#3703943500
0"
#3705011812
0!
#3705350812
1!
#3706945562
1"
#3714447750
0"
#3715521812
0!
#3715859812
1!
#3717449562
1"
#3724917750
0"
#3725998812
0!
#3726335812
1!
#3727919812
1"
#3735355750
0"
#3736442812
0!
#3736778812
1!
#3738357562
1"
#3738357562
0!
#3739357562
1!
#3745761250
0"
#3746853812
0!
#3747188812
1!
#3748763312
1"
#3756133750
0"
#3757231812
0!
#3757565812
1!
#3759135562
1"
#3766472687
0"
#3767577812
0!
#3767910812
1!
#3769474312
1"
#3776781000
0"
#3777891812
0!
#3778223812
1!
#3779782500
1"
#3787051250
0"
#3788173812
0!
#3788504812
1!
#3790053000
1"
#3797295250
0"
#3798424812
0!
#3798754812
1!
#3800297062
1"
#3807509750
0"
#3808644812
0!
#3808973812
1!
#3810511500
1"
#3817693250
0"
#3818833812
0!
#3819161812
1!
#3820695062
1"
#3827845750
0"
#3828991812
0!
#3829317812
1!
#3830848000
1"
#3837967312
0"
#3839118812
0!
#3839444812
1!
#3840969000
1"
#3848058875
0"
#3849216812
0!
#3849541812
1!
#3851060562
1"
#3858120750
0"
#3859284812
0!
#3859608812
1!
#3861122500
1"
#3868154250
0"
#3869322812
0!
#3869645812
1!
#3871156062
1"
#3878151687
0"
#3879331812
0!
#3879653812
1!
#3881153500
1"
#3888126437
0"
#3889311812
0!
#3889632812
1!
#3891128250
1"
#3898071750
0"
#3899262812
0!
#3899582812
1!
#3901073562
1"
#3907988750
0"
#3909185812
0!
#3909504812
1!
#3910990500
1"
#3917878750
0"
#3919079812
0!
#3919397812
1!
#3920880687
1"
#3920880687
0!
#3921880687
1!
#3927738750
0"
#3928945812
0!
#3929262812
1!
#3930741062
1"
#3937571750
0"
#3938783812
0!
#3939099812
1!
#3940573500
1"
#3947376812
0"
#3948594812
0!
#3948910812
1!
#3950378500
1"
#3957155750
0"
#3958379812
0!
#3958694812
1!
#3960157500
1"
#3966904812
0"
#3968136812
0!
#3968450812
1!
#3969906500
1"
#3976628750
0"
#3977866812
0!
#3978179812
1!
#3979630500
1"
#3986327375
0"
#3987569812
0!
#3987881812
1!
#3989329062
1"
#3995998312
0"
#3997246812
0!
#3997557812
1!
#3999000000
1"
#4005644812
0"
#4006896812
0!
#4007207812
1!
#4008646500
1"
#4015262750
0"
#4016521812
0!
#4016830812
1!
#4018264500
1"
#4024858812
0"
#4026120812
0!
#4026429812
1!
#4027860750
1"
#4034427750
0"
#4035694812
0!
#4036002812
1!
#4037429937
1"
#4043970749
0"
#4045242812
0!
#4045549812
1!
#4046972562
1"
#4053483875
0"
#4054765812
0!
#4055071812
1!
#4056485812
1"
#4062977250
0"
#4064262812
0!
#4064567812
1!
#4065979062
1"
#4072443749
0"
#4073735812
0!
#4074040812
1!
#4075445750
1"
#4081888250
0"
#4083184812
0!
#4083488812
1!
#4084890062
1"
#4091310562
0"
#4092608812
0!
#4092911812
1!
#4094312000
1"
#4100703249
0"
#4102008812
0!
#4102310812
1!
#4103705312
1"
#4110075312
0"
#4111384812
0!
#4111686812
1!
#4113077374
1"
#4119423249
0"
#4120736812
0!
#4121037812
1!
#4122425000
1"
#4128748312
0"
#4130065812
0!
#4130365812
1!
#4131750562
1"
#4138048249
0"
#4139370812
0!
#4139669812
1!
#4141050062
1"
#4141050062
0!
#4142050062
1!
#4147325750
0"
#4148651812
0!
#4148950812
1!
#4150327500
1"
#4156578250
0"
#4157910812
0!
#4158208812
1!
#4159580062
1"
#4165811749
0"
#4167146812
0!
#4167443812
1!
#4168814000
1"
#4175020312
0"
#4176359812
0!
#4176655812
1!
#4178027500
1"
#4184206312
0"
#4185549812
0!
#4185845812
1!
#4187208062
1"
#4193369312
0"
#4194717812
0!
#4195012812
1!
#4196371062
1"
#4202511375
0"
#4203862812
0!
#4204156812
1!
#4205513000
1"
#4211629249
0"
#4212985812
0!
#4213279812
1!
#4214631062
1"
#4220726312
0"
#4222087812
0!
#4222380812
1!
#4223728062
1"
#4229803812
0"
#4231166812
0!
#4231458812
1!
#4232805500
1"
#4238855812
0"
#4240224812
0!
#4240515812
1!
#4241857999
1"
#4247888750
0"
#4249260812
0!
#4249551812
1!
#4250890937
1"
#4250890937
0!
#4251890937
1!
#4256899625
0"
#4258275812
0!
#4258565812
1!
#4259901062
1"
#4265889375
0"
#4267269812
0!
#4267558812
1!
#4268891000
1"
#4274858937
0"
#4276241812
0!
#4276530812
1!
#4277860500
1"
#4283799750
0"
#4285193812
0!
#4285481812
1!
#4286801562
1"
#4292728249
0"
#4294124812
0!
#4294411812
1!
#4295730062
1"
#4301635812
0"
#4303034812
0!
#4303321812
1!
#4304637625
1"
#4310519437
0"
#4311924812
0!
#4312210812
1!
#4313521062
1"
#4319386250
0"
#4320793812
0!
#4321078812
1!
#4322388500
1"
#4328230750
0"
#4329642812
0!
#4329927812
1!
#4331232562
1"
#4337056750
0"
#4338472812
0!
#4338756812
1!
#4340058750
1"
#4345863812
0"
#4347281812
0!
#4347564812
1!
#4348865562
1"
#4354648562
0"
#4356070812
0!
#4356353812
1!
#4357650500
1"
#4363414187
0"
#4364840812
0!
#4365122812
1!
#4366415937
1"
#4372161500
0"
#4373590812
0!
#4373872812
1!
#4375163000
1"
#4380888750
0"
#4382322812
0!
#4382603812
1!
#4383890500
1"
#4383890500
0!
#4384890500
1!
#4391034812
0!
#4391314812
1!
#4399726812
0!
#4400005812
1!
#4408399812
0!
#4408678812
1!
#4415606312
0"
#4417054812
0!
#4417332812
1!
#4418608062
1"
#4424239750
0"
#4425689812
0!
#4425967812
1!
#4427241500
1"
#4432851812
0"
#4434306812
0!
#4434583812
1!
#4435853500
1"
#4441447250
0"
#4442905812
0!
#4443182812
1!
#4444449000
1"
#4450025250
0"
#4451486812
0!
#4451762812
1!
#4453027000
1"
#4458586312
0"
#4460048812
0!
#4460323812
1!
#4461588062
1"
#4467125312
0"
#4468591812
0!
#4468866812
1!
#4470127062
1"
#4470127062
0!
#4471127062
1!
#4475645312
0"
#4477117812
0!
#4477391812
1!
#4478647437
1"
#4484151687
0"
#4485625812
0!
#4485899812
1!
#4487153437
1"
#4492638250
0"
#4494115812
0!
#4494388812
1!
#4495640000
1"
#4501107062
0"
#4502587812
0!
#4502860812
1!
#4504109000
1"
#4509562312
0"
#4511042812
0!
#4511314812
1!
#4512564000
1"
#4517998750
0"
#4519479812
0!
#4519750812
1!
#4521000500
1"
#4526412750
0"
#4527898812
0!
#4528169812
1!
#4529414500
1"
#4534811250
0"
#4536301812
0!
#4536571812
1!
#4537813062
1"
#4543195562
0"
#4544686812
0!
#4544956812
1!
#4546197000
1"
#4551559562
0"
#4553054812
0!
#4553323812
1!
#4554561062
1"
#4559907312
0"
#4561405812
0!
#4561674812
1!
#4562909250
1"
#4568238250
0"
#4569740812
0!
#4570008812
1!
#4571243562
1"
#4571243562
0!
#4572243562
1!
#4576554312
0"
#4578058812
0!
#4578326812
1!
#4579556000
1"
#4584853312
0"
#4586360812
0!
#4586627812
1!
#4587855125
1"
#4593134812
0"
#4594644812
0!
#4594910812
1!
#4596136500
1"
#4601398687
0"
#4602912812
0!
#4603178812
1!
#4604400062
1"
#4609647250
0"
#4611164812
0!
#4611429812
1!
#4612649437
1"
#4617880812
0"
#4619399812
0!
#4619664812
1!
#4620883000
1"
#4626095750
0"
#4627619812
0!
#4627884812
1!
#4629097500
1"
#4629097500
0!
#4630097500
1!
#4634297812
0"
#4635823812
0!
#4636087812
1!
#4637299875
1"
#4642483250
0"
#4644010812
0!
#4644274812
1!
#4645485312
1"
#4650651250
0"
#4652182812
0!
#4652445812
1!
#4653653062
1"
#4658803750
0"
#4660338812
0!
#4660600812
1!
#4661805750
1"
#4666941750
0"
#4668477812
0!
#4668739812
1!
#4669943562
1"
#4675060937
0"
#4676601812
0!
#4676862812
1!
#4678062500
1"
#4683166750
0"
#4684709812
0!
#4684970812
1!
#4686168562
1"
#4691256312
0"
#4692803812
0!
#4693063812
1!
#4694258000
1"
#4699333750
0"
#4700880812
0!
#4701140812
1!
#4702335500
1"
#4702335500
0!
#4703335500
1!
#4707391000
0"
#4708943812
0!
#4709202812
1!
#4710392500
1"
#4710392500
0!
#4711392500
1!
#4715437375
0"
#4716990812
0!
#4717249812
1!
#4718439000
1"
#4723465250
0"
#4725023812
0!
#4725281812
1!
#4726467062
1"
#4731481750
0"
#4733040812
0!
#4733298812
1!
#4734483500
1"
#4739480250
0"
#4741042812
0!
#4741300812
1!
#4742482062
1"
#4747465812
0"
#4749030812
0!
#4749287812
1!
#4750467562
1"
#4755435312
0"
#4757003812
0!
#4757259812
1!
#4758437000
1"
#4763391375
0"
#4764961812
0!
#4765217812
1!
#4766393250
1"
#4771331812
0"
#4772905812
0!
#4773161812
1!
#4774333500
1"
#4779259437
0"
#4780834812
0!
#4781089812
1!
#4782261000
1"
#4787174750
0"
#4788748812
0!
#4789003812
1!
#4790176562
1"
#4795071500
0"
#4796649812
0!
#4796903812
1!
#4798073125
1"
#4802957187
0"
#4804535812
0!
#4804788812
1!
#4805958562
1"
#4810825375
0"
#4812406812
0!
#4812659812
1!
#4813827000
1"
#4818679250
0"
#4820263812
0!
#4820516812
1!
#4821681500
1"
#4826519250
0"
#4828107812
0!
#4828359812
1!
#4829521062
1"
#4834348125
0"
#4835936812
0!
#4836188812
1!
#4837349500
1"
#4842159250
0"
#4843752812
0!
#4844004812
1!
#4845161000
1"
#4845161000
0!
#4846161000
1!
#4849959750
0"
#4851554812
0!
#4851805812
1!
#4852961750
1"
#4857745562
0"
#4859342812
0!
#4859593812
1!
#4860747562
1"
#4865516750
0"
#4867117812
0!
#4867367812
1!
#4868518500
1"
#4873276750
0"
#4874878812
0!
#4875127812
1!
#4876278562
1"
#4881021250
0"
#4882625812
0!
#4882874812
1!
#4884023000
1"
#4888751812
0"
#4890359812
0!
#4890608812
1!
#4891755500
1"
#4891755500
0!
#4892755500
1!
#4896470375
0"
#4898080812
0!
#4898328812
1!
#4899472062
1"
#4904176250
0"
#4905787812
0!
#4906035812
1!
#4907178000
1"
#4911866750
0"
#4913481812
0!
#4913729812
1!
#4914868500
1"
#4919545250
0"
#4921162812
0!
#4921409812
1!
#4922547125
1"
#4927211312
0"
#4928830812
0!
#4929077812
1!
#4930213000
1"
#4934863937
0"
#4936485812
0!
#4936731812
1!
#4937865500
1"
#4942503250
0"
#4944126812
0!
#4944372812
1!
#4945505062
1"
#4950127750
0"
#4951755812
0!
#4952000812
1!
#4953129500
1"
#4953129500
0!
#4954129500
1!
#4957743000
0"
#4959370812
0!
#4959615812
1!
#4960744500
1"
#4965341312
0"
#4966973812
0!
#4967218812
1!
#4968343125
1"
#4972934250
0"
#4974564812
0!
#4974808812
1!
#4975936000
1"
#4980511250
0"
#4982141812
0!
#4982385812
1!
#4983513062
1"
#4988071750
0"
#4989706812
0!
#4989949812
1!
#4991074000
1"
#4991074000
0!
#4992074000
1!
#4995622750
0"
#4997258812
0!
#4997501812
1!
#4998624750
1"
#5003159250
0"
#5004798812
0!
#5005041812
1!
#5006161062
1"
#5010685250
0"
#5012326812
0!
#5012568812
1!
#5013687062
1"
#5018199250
0"
#5019841812
0!
#5020083812
1!
#5021201125
1"
#5025698812
0"
#5027344812
0!
#5027585812
1!
#5028701062
1"
#5033188187
0"
#5034834812
0!
#5035075812
1!
#5036189937
1"
#5040662250
0"
#5042312812
0!
#5042553812
1!
#5043664000
1"
#5048126437
0"
#5049779812
0!
#5050019812
1!
#5051128000
1"
#5055600500
0"
#5057233812
0!
#5057473812
1!
#5058582000
1"
#5063039000
0"
#5064676812
0!
#5064916812
1!
#5066020875
1"
#5070470312
0"
#5072107812
0!
#5072346812
1!
#5073452312
1"
#5077885312
0"
#5079525812
0!
#5079764812
1!
#5080867375
1"
#5085309187
0"
#5086932812
0!
#5087170812
1!
#5088271062
1"
#5092702812
0"
#5094327812
0!
#5094564812
1!
#5095664625
1"
#5100083250
0"
#5101709812
0!
#5101946812
1!
#5103045000
1"
#5107455312
0"
#5109080812
0!
#5109317812
1!
#5110417000
1"
#5114831750
0"
#5116440812
0!
#5116676812
1!
#5117774062
1"
#5122179250
0"
#5123787812
0!
#5124023812
1!
#5125121000
1"
#5129510750
0"
#5131124812
0!
#5131360812
1!
#5132452500
1"
#5136836250
0"
#5138449812
0!
#5138685812
1!
#5139778062
1"
#5144147250
0"
#5145763812
0!
#5145998812
1!
#5147089000
1"
#5151468250
0"
#5153065812
0!
#5153300812
1!
#5154390062
1"
#5158755750
0"
#5160356812
0!
#5160591812
1!
#5161677500
1"
#5166033750
0"
#5167637812
0!
#5167871812
1!
#5168955562
1"
#5173303250
0"
#5174906812
0!
#5175140812
1!
#5176225000
1"
#5180578250
0"
#5182164812
0!
#5182398812
1!
#5183480000
1"
#5187824250
0"
#5189411812
0!
#5189644812
1!
#5190726562
1"
#5195056812
0"
#5196647812
0!
#5196880812
1!
#5197958500
1"
#5202280250
0"
#5203872812
0!
#5204104812
1!
#5205182000
1"
#5209492250
0"
#5211085812
0!
#5211317812
1!
#5212394000
1"
#5216711312
0"
#5218288812
0!
#5218520812
1!
#5219593000
1"
#5223903312
0"
#5225480812
0!
#5225711812
1!
#5226785125
1"
#5231080750
0"
#5232661812
0!
#5232892812
1!
#5233962562
1"
#5238249250
0"
#5239832812
0!
#5240063812
1!
#5241131062
1"
#5241131062
0!
#5242131062
1!
#5245433062
0"
#5246992812
0!
#5247223812
1!
#5248294625
1"
#5252580812
0"
#5254142812
0!
#5254372812
1!
#5255442500
1"
#5255442500
0!
#5256442500
1!
#5259717250
0"
#5261280812
0!
#5261510812
1!
#5262579000
1"
#5262579000
0!
#5263579000
1!
#5266842125
0"
#5268408812
0!
#5268637812
1!
#5269703500
1"
#5273957812
0"
#5275525812
0!
#5275754812
1!
#5276819500
1"
#5276819500
0!
#5277819500
1!
#5281081750
0"
#5282632812
0!
#5282860812
1!
#5283923500
1"
#5288177437
0"
#5289728812
0!
#5289956812
1!
#5291019000
1"
#5295260812
0"
#5296814812
0!
#5297042812
1!
#5298102875
1"
#5302334250
0"
#5303890812
0!
#5304118812
1!
#5305176500
1"
#5309398812
0"
#5310956812
0!
#5311183812
1!
#5312240687
1"
#5316472812
0"
#5318011812
0!
#5318238812
1!
#5319294937
1"
#5323515062
0"
#5325056812
0!
#5325282812
1!
#5326336500
1"
#5330548312
0"
#5332091812
0!
#5332317812
1!
#5333370062
1"
#5333370062
0!
#5334370062
1!
#5337571250
0"
#5339116812
0!
#5339342812
1!
#5340393062
1"
#5340393062
0!
#5341393062
1!
#5344584250
0"
#5346131812
0!
#5346357812
1!
#5347406062
1"
#5351607750
0"
#5353136812
0!
#5353361812
1!
#5354409500
1"
#5358600812
0"
#5360131812
0!
#5360356812
1!
#5361402562
1"
#5365584500
0"
#5367116812
0!
#5367341812
1!
#5368386000
1"
#5372557250
0"
#5374092812
0!
#5374316812
1!
#5375359000
1"
#5379526875
0"
#5381057812
0!
#5381281812
1!
#5382328562
1"
#5386499250
0"
#5388013812
0!
#5388236812
1!
#5389281375
1"
#5393445312
0"
#5394958812
0!
#5395182812
1!
#5396227000
1"
#5400375250
0"
#5401895812
0!
#5402118812
1!
#5403157062
1"
#5407303750
0"
#5408822812
0!
#5409045812
1!
#5410085562
1"
#5414218750
0"
#5415739812
0!
#5415961812
1!
#5417000500
1"
#5421144187
0"
#5422646812
0!
#5422868812
1!
#5423905500
1"
#5428039312
0"
#5429544812
0!
#5429766812
1!
#5430801000
1"
#5434926750
0"
#5436433812
0!
#5436655812
1!
#5437688500
1"
#5441804750
0"
#5443312812
0!
#5443533812
1!
#5444566562
1"
#5448672250
0"
#5450181812
0!
#5450402812
1!
#5451434125
1"
#5455550250
0"
#5457041812
0!
#5457261812
1!
#5458292062
1"
#5462398312
0"
#5463891812
0!
#5464111812
1!
#5465140062
1"
#5469236812
0"
#5470732812
0!
#5470952812
1!
#5471978812
1"
#5476071250
0"
#5477564812
0!
#5477784812
1!
#5478813062
1"
#5482892750
0"
#5484387812
0!
#5484606812
1!
#5485634562
1"
#5489724875
0"
#5491200812
0!
#5491419812
1!
#5492446562
1"
#5496526312
0"
#5498004812
0!
#5498223812
1!
#5499248375
1"
#5503319250
0"
#5504799812
0!
#5505018812
1!
#5506041000
1"
#5506041000
0!
#5507041000
1!
#5510103750
0"
#5511586812
0!
#5511804812
1!
#5512825500
1"
#5516881562
0"
#5518363812
0!
#5518581812
1!
#5519603375
1"
#5523646812
0"
#5525131812
0!
#5525349812
1!
#5526368500
1"
#5530423812
0"
#5531890812
0!
#5532108812
1!
#5533125875
1"
#5537172250
0"
#5538641812
0!
#5538858812
1!
#5539874062
1"
#5543913812
0"
#5545382812
0!
#5545599812
1!
#5546615500
1"
#5550643312
0"
#5552115812
0!
#5552332812
1!
#5553345000
1"
#5553345000
0!
#5554345000
1!
#5557367312
0"
#5558839812
0!
#5559055812
1!
#5560069437
1"
#5564100250
0"
#5565554812
0!
#5565770812
1!
#5566782000
1"
#5570804312
0"
#5572260812
0!
#5572476812
1!
#5573486062
1"
#5577499812
0"
#5578958812
0!
#5579174812
1!
#5580181562
1"
#5584188500
0"
#5585647812
0!
#5585862812
1!
#5586870000
1"
#5590867125
0"
#5592327812
0!
#5592542812
1!
#5593548500
1"
