analysis/wokwi-logic.vcd
$version Generated by Wokwi.com $end
$date Thu, 28 Aug 2025 12:28:40 GMT $end
$timescale 1ns $end
$scope module logic $end
$var wire 1 ! D2 $end
$var wire 1 " D3 $end
$upscope $end
$enddefinitions $end
#0
0!
#0
0"
#0
1!
#6654500000
0!
#6655600000
1!
#6692000000
0!
#6693100000
1!
#6724261125
1"
#6727260625
0"
#6729500000
0!
#6730600000
1!
#6735320750
1"
#6738320625
0"
#6767000000
0!
#6768100000
1!
#6772820750
1"
#6775820875
0"
#6804500000
0!
#6805600000
1!
#6810320750
1"
#6813320687
0"
#6842000000
0!
#6843100000
1!
#6847820937
1"
#6850820625
0"
#6879500000
0!
#6880600000
1!
#6885320750
1"
#6888320625
0"
#6917000000
0!
#6918100000
1!
#6922820812
1"
#6925820625
0"
#6954500000
0!
#6955600000
1!
#6960320750
1"
#6963320625
0"
#6992000000
0!
#6993100000
1!
#6997820750
1"
#7000820625
0"
#7029500000
0!
#7030600000
1!
#7035320812
1"
#7038320625
0"
#7067000000
0!
#7068100000
1!
#7072820750
1"
#7075821187
0"
#7104500000
0!
#7105600000
1!
#7110320812
1"
#7113320625
0"
#7142000000
0!
#7143100000
1!
#7147821250
1"
#7150820625
0"
#7179500000
0!
#7180600000
1!
#7185320812
1"
#7188320625
0"
#7217000000
0!
#7218100000
1!
#7222821000
1"
#7225820625
0"
#7254500000
0!
#7255600000
1!
#7260320812
1"
#7263320687
0"
#7292000000
0!
#7293100000
1!
#7297836812
1"
#7300836625
0"
#7329500000
0!
#7330600000
1!
#7335320812
1"
#7338320625
0"
#7367000000
0!
#7368100000
1!
#7372820812
1"
#7375820625
0"
#7404500000
0!
#7405600000
1!
#7410321250
1"
#7413320625
0"
#7442000000
0!
#7443100000
1!
#7447820750
1"
#7450821062
0"
#7479500000
0!
#7480600000
1!
#7485321000
1"
#7488320625
0"
#7517000000
0!
#7518100000
1!
#7522820812
1"
#7525820812
0"
#7554500000
0!
#7555600000
1!
#7560320750
1"
#7563320625
0"
#7592000000
0!
#7593100000
1!
#7597820750
1"
#7600820687
0"
#7629500000
0!
#7630600000
1!
#7635320812
1"
#7638320625
0"
#7667000000
0!
#7668100000
1!
#7672820875
1"
#7675820625
0"
#7704500000
0!
#7705600000
1!
#7710320750
1"
#7713320687
0"
#7742000000
0!
#7743100000
1!
#7747820750
1"
#7750820687
0"
#7779500000
0!
#7780600000
1!
#7785321312
1"
#7788320687
0"
#7817000000
0!
#7818100000
1!
#7822820750
1"
#7825821125
0"
#7854500000
0!
#7855600000
1!
#7860321062
1"
#7863320687
0"
#7892000000
0!
#7893100000
1!
#7897820750
1"
#7900820875
0"
#7929500000
0!
#7930600000
1!
#7935320750
1"
#7938320687
0"
#7967000000
0!
#7968100000
1!
#7972821187
1"
#7975820687
0"
#8004500000
0!
#8005599999
1!
#8010320750
1"
#8013320999
0"
#8042000000
0!
#8043100000
1!
#8047820750
1"
#8050820687
0"
#8079499999
0!
#8080600000
1!
#8085320749
1"
#8088320749
0"
#8117000000
0!
#8118100000
1!
#8122820750
1"
#8125820624
0"
#8154500000
0!
#8155600000
1!
#8160320750
1"
#8163320625
0"
#8192000000
0!
#8193099999
1!
#8197820750
1"
#8200821187
0"
#8229500000
0!
#8230600000
1!
#8235320812
1"
#8238320625
0"
#8266999999
0!
#8268100000
1!
#8272820812
1"
#8275820625
0"
#8304500000
0!
#8305600000
1!
#8310320750
1"
#8313320624
0"
#8342000000
0!
#8343100000
1!
#8347820812
1"
#8350820625
0"
#8379500000
0!
#8380599999
1!
#8385320750
1"
#8388321062
0"
#8417000000
0!
#8418100000
1!
#8422820812
1"
#8425820625
0"
#8454499999
0!
#8455600000
1!
#8460320812
1"
#8463320812
0"
#8492000000
0!
#8493100000
1!
#8497820750
1"
#8500820624
0"
#8529500000
0!
#8530600000
1!
#8535320875
1"
#8538320625
0"
#8567000000
0!
#8568099999
1!
#8572820812
1"
#8575820937
0"
#8604500000
0!
#8605600000
1!
#8610320812
1"
#8613320625
0"
#8634600000
0!
#8635700000
1!
#8638469062
1"
#8641468687
0"
#8664700000
0!
#8665800000
1!
#8668568750
1"
#8671568687
0"
#8694800000
0!
#8695900000
1!
#8698668750
1"
#8701668625
0"
#8724900000
0!
#8726000000
1!
#8728768750
1"
#8731768625
0"
#8755000000
0!
#8756100000
1!
#8758868812
1"
#8761868812
0"
#8785100000
0!
#8786200000
1!
#8788968750
1"
#8791968625
0"
#8815200000
0!
#8816300000
1!
#8819068750
1"
#8822068625
0"
#8845300000
0!
#8846400000
1!
#8849168812
1"
#8852168937
0"
#8875400000
0!
#8876500000
1!
#8879268750
1"
#8882268625
0"
#8905500000
0!
#8906600000
1!
#8909368875
1"
#8912368625
0"
#8935600000
0!
#8936700000
1!
#8939468750
1"
#8942469062
0"
#8965700000
0!
#8966800000
1!
#8969568750
1"
#8972568687
0"
#8995800000
0!
#8996900000
1!
#8999669000
1"
#9002668625
0"
#9025900000
0!
#9027000000
1!
#9029768812
1"
#9032769187
0"
#9056000000
0!
#9057100000
1!
#9059868750
1"
#9062868687
0"
#9086100000
0!
#9087200000
1!
#9089968750
1"
#9092968687
0"
#9116200000
0!
#9117300000
1!
#9120068750
1"
#9123068750
0"
#9146300000
0!
#9147400000
1!
#9150168750
1"
#9153168625
0"
#9176400000
0!
#9177500000
1!
#9180269000
1"
#9183268687
0"
#9206500000
0!
#9207600000
1!
#9210368750
1"
#9213368875
0"
#9236600000
0!
#9237700000
1!
#9240468750
1"
#9243468625
0"
#9266700000
0!
#9267800000
1!
#9270569125
1"
#9273568625
0"
#9296800000
0!
#9297900000
1!
#9300668750
1"
#9303668625
0"
#9326900000
0!
#9328000000
1!
#9330768750
1"
#9333768625
0"
#9357000000
0!
#9358100000
1!
#9360869250
1"
#9363868625
0"
#9387100000
0!
#9388200000
1!
#9390968750
1"
#9393968625
0"
#9417200000
0!
#9418300000
1!
#9421068812
1"
#9424068625
0"
#9447300000
0!
#9448400000
1!
#9451168750
1"
#9454168625
0"
#9477400000
0!
#9478500000
1!
#9481268750
1"
#9484268687
0"
#9507500000
0!
#9508600000
1!
#9511368812
1"
#9514368625
0"
#9537600000
0!
#9538700000
1!
#9541468812
1"
#9544468625
0"
#9567700000
0!
#9568800000
1!
#9571568750
1"
#9574569125
0"
#9597800000
0!
#9598900000
1!
#9601668875
1"
#9604668625
0"
#9627900000
0!
#9629000000
1!
#9631768750
1"
#9634768750
0"
#9658000000
0!
#9659100000
1!
#9661868750
1"
#9664868625
0"
#9688100000
0!
#9689200000
1!
#9691969000
1"
#9694968625
0"
#9718200000
0!
#9719300000
1!
#9722069187
1"
#9725068687
0"
#9748300000
0!
#9749400000
1!
#9752168750
1"
#9755168687
0"
#9778400000
0!
#9779500000
1!
#9782269125
1"
#9785268625
0"
#9808500000
0!
#9809600000
1!
#9812369312
1"
#9815368750
0"
#9838600000
0!
#9839700000
1!
#9842468750
1"
#9845468625
0"
#9868700000
0!
#9869800000
1!
#9872568812
1"
#9875568625
0"
#9898800000
0!
#9899900000
1!
#9902668750
1"
#9905668875
0"
#9928900000
0!
#9930000000
1!
#9932768812
1"
#9935768625
0"
#9959000000
0!
#9960100000
1!
#9962868812
1"
#9965868625
0"
#9989100000
0!
#9990200000
1!
#9992968750
1"
#9995969000
0"
#10019200000
0!
#10020300000
1!
#10023069250
1"
#10026068937
0"
#10049300000
0!
#10050400000
1!
#10053168750
1"
#10056168625
0"
#10079400000
0!
#10080500000
1!
#10083269187
1"
#10086268687
0"
#10109500000
0!
#10110600000
1!
#10113368812
1"
#10116368812
0"
#10139600000
0!
#10140700000
1!
#10143468750
1"
#10146468687
0"
#10169700000
0!
#10170800000
1!
#10173568750
1"
#10176568687
0"
#10199800000
0!
#10200900000
1!
#10203668812
1"
#10206668937
0"
#10229900000
0!
#10231000000
1!
#10233768750
1"
#10236768687
0"
#10260000000
0!
#10261100000
1!
#10263868875
1"
#10266868625
0"
#10290100000
0!
#10291200000
1!
#10293968750
1"
#10296969062
0"
#10320200000
0!
#10321300000
1!
#10324068750
1"
#10327068625
0"
#10350300000
0!
#10351400000
1!
#10354169000
1"
#10357168625
0"
#10380400000
0!
#10381500000
1!
#10384268750
1"
#10387269187
0"
#10410500000
0!
#10411600000
1!
#10414368750
1"
#10417368687
0"
#10440600000
0!
#10441700000
1!
#10444469125
1"
#10447468625
0"
#10470700000
0!
#10471800000
1!
#10474568750
1"
#10477568625
0"
#10500800000
0!
#10501900000
1!
#10504668750
1"
#10507668625
0"
#10530900000
0!
#10532000000
1!
#10534769250
1"
#10537768625
0"
#10561000000
0!
#10562100000
1!
#10564868750
1"
#10567868875
0"
#10591100000
0!
#10592200000
1!
#10594968750
1"
#10597968625
0"
#10616600000
0!
#10617700000
1!
#10619248812
1"
#10622248625
0"
#10641700000
0!
#10642800000
1!
#10644244750
1"
#10647244625
0"
#10666800000
0!
#10667900000
1!
#10669344812
1"
#10672344625
0"
#10691900000
0!
#10693000000
1!
#10694444750
1"
#10697444687
0"
#10717000000
0!
#10718100000
1!
#10719544750
1"
#10722544875
0"
#10742100000
0!
#10743200000
1!
#10744645312
1"
#10747644687
0"
#10767200000
0!
#10768300000
1!
#10769744750
1"
#10772744625
0"
#10792300000
0!
#10793400000
1!
#10794844750
1"
#10797844625
0"
#10817400000
0!
#10818500000
1!
#10819944812
1"
#10822944812
0"
#10842500000
0!
#10843600000
1!
#10845044750
1"
#10848044687
0"
#10867600000
0!
#10868700000
1!
#10870144812
1"
#10873144625
0"
#10892700000
0!
#10893800000
1!
#10895244812
1"
#10898244625
0"
#10917800000
0!
#10918900000
1!
#10920344750
1"
#10923345062
0"
#10942900000
0!
#10944000000
1!
#10945444812
1"
#10948444625
0"
#10968000000
0!
#10969100000
1!
#10970544812
1"
#10973544625
0"
#10993100000
0!
#10994200000
1!
#10995644750
1"
#10998644687
0"
#11018200000
0!
#11019300000
1!
#11020744750
1"
#11023745000
0"
#11043300000
0!
#11044400000
1!
#11045844750
1"
#11048844687
0"
#11068400000
0!
#11069500000
1!
#11070944750
1"
#11073944625
0"
#11093500000
0!
#11094600000
1!
#11096044750
1"
#11099044625
0"
#11118600000
0!
#11119700000
1!
#11121144812
1"
#11124144937
0"
#11143700000
0!
#11144800000
1!
#11146244812
1"
#11149244812
0"
#11168800000
0!
#11169900000
1!
#11171344812
1"
#11174344625
0"
#11193900000
0!
#11195000000
1!
#11196444812
1"
#11199444625
0"
#11219000000
0!
#11220100000
1!
#11221544750
1"
#11224545187
0"
#11244100000
0!
#11245200000
1!
#11246644750
1"
#11249644750
0"
#11269200000
0!
#11270300000
1!
#11271744937
1"
#11274744625
0"
#11294300000
0!
#11295400000
1!
#11296844750
1"
#11299844625
0"
#11319400000
0!
#11320500000
1!
#11321944750
1"
#11324945125
0"
#11344500000
0!
#11345600000
1!
#11347044750
1"
#11350044687
0"
#11369600000
0!
#11370700000
1!
#11372144875
1"
#11375144625
0"
#11394700000
0!
#11395800000
1!
#11397244750
1"
#11400244625
0"
#11419800000
0!
#11420900000
1!
#11422344750
1"
#11425345062
0"
#11444900000
0!
#11446000000
1!
#11447445250
1"
#11450444937
0"
#11470000000
0!
#11471100000
1!
#11472544812
1"
#11475544625
0"
#11495100000
0!
#11496200000
1!
#11497644750
1"
#11500644625
0"
#11520200000
0!
#11521300000
1!
#11522744750
1"
#11525744625
0"
#11545300000
0!
#11546400000
1!
#11547845187
1"
#11550844687
0"
#11570400000
0!
#11571500000
1!
#11572945062
1"
#11575944687
0"
#11595500000
0!
#11596600000
1!
#11598044750
1"
#11601044687
0"
#11620600000
0!
#11621700000
1!
#11623144750
1"
#11626144625
0"
#11645700000
0!
#11646800000
1!
#11648244750
1"
#11651244687
0"
#11670800000
0!
#11671900000
1!
#11673345000
1"
#11676344625
0"
#11695900000
0!
#11697000000
1!
#11698444812
1"
#11701444625
0"
#11721000000
0!
#11722100000
1!
#11723544750
1"
#11726545187
0"
#11746100000
0!
#11747200000
1!
#11748644750
1"
#11751644625
0"
#11771200000
0!
#11772300000
1!
#11773744937
1"
#11776744625
0"
#11796300000
0!
#11797400000
1!
#11798844750
1"
#11801844687
0"
#11821400000
0!
#11822500000
1!
#11823944750
1"
#11826944625
0"
#11846500000
0!
#11847600000
1!
#11849045312
1"
#11852044687
0"
#11871600000
0!
#11872700000
1!
#11874145187
1"
#11877144687
0"
#11896700000
0!
#11897800000
1!
#11899244750
1"
#11902244625
0"
#11921800000
0!
#11922900000
1!
#11924344750
1"
#11927344687
0"
#11946900000
0!
#11948000000
1!
#11949444750
1"
#11952444687
0"
#11972000000
0!
#11973100000
1!
#11974545125
1"
#11977544625
0"
#11997100000
0!
#11998200000
1!
#11999644812
1"
#12002644625
0"
#12022200000
0!
#12023300000
1!
#12024744750
1"
#12027744625
0"
#12047300000
0!
#12048400000
1!
#12049844812
1"
#12052844625
0"
#12072400000
0!
#12073500000
1!
#12074945062
1"
#12077944625
0"
#12097500000
0!
#12098600000
1!
#12100044750
1"
#12103044687
0"
#12122600000
0!
#12123700000
1!
#12125144750
1"
#12128144687
0"
#12147700000
0!
#12148800000
1!
#12150244750
1"
#12153244687
0"
#12172800000
0!
#12173900000
1!
#12175345312
1"
#12178344687
0"
#12197900000
0!
#12199000000
1!
#12200444812
1"
#12203444625
0"
#12223000000
0!
#12224100000
1!
#12225544750
1"
#12228544625
0"
#12248100000
0!
#12249200000
1!
#12250644812
1"
#12253644812
0"
#12273200000
0!
#12274300000
1!
#12275745250
1"
#12278744625
0"
#12298300000
0!
#12299400000
1!
#12300844812
1"
#12303844625
0"
#12323400000
0!
#12324500000
1!
#12325944750
1"
#12328944625
0"
#12348500000
0!
#12349600000
1!
#12351044750
1"
#12354044750
0"
#12373600000
0!
#12374700000
1!
#12376144812
1"
#12379144625
0"
#12398700000
0!
#12399800000
1!
#12401244750
1"
#12404244625
0"
#12423800000
0!
#12424900000
1!
#12426347312
1"
#12429344687
0"
#12448900000
0!
#12450000000
1!
#12451444750
1"
#12454444687
0"
#12474000000
0!
#12475100000
1!
#12476544875
1"
#12479544687
0"
#12499100000
0!
#12500200000
1!
#12501644812
1"
#12504644625
0"
#12524200000
0!
#12525300000
1!
#12526744750
1"
#12529744625
0"
#12549300000
0!
#12550400000
1!
#12551844812
1"
#12554844937
0"
#12574400000
0!
#12575500000
1!
#12576944812
1"
#12579947125
0"
#12599500000
0!
#12600600000
1!
#12602044812
1"
#12605044625
0"
#12621000000
0!
#12622100000
1!
#12622597062
1"
#12625596687
0"
#12642500000
0!
#12643600000
1!
#12644096750
1"
#12647096687
0"
#12664000000
0!
#12665100000
1!
#12665596750
1"
#12668596687
0"
#12685500000
0!
#12686600000
1!
#12687096875
1"
#12690096625
0"
#12707000000
0!
#12708100000
1!
#12708596750
1"
#12711597187
0"
#12728500000
0!
#12729600000
1!
#12730096750
1"
#12733096625
0"
#12750000000
0!
#12751100000
1!
#12751596750
1"
#12754596687
0"
#12771500000
0!
#12772600000
1!
#12773096750
1"
#12776097000
0"
#12793000000
0!
#12794100000
1!
#12794596875
1"
#12797596625
0"
#12814500000
0!
#12815600000
1!
#12816096750
1"
#12819096625
0"
#12836000000
0!
#12837100000
1!
#12837596750
1"
#12840596625
0"
#12857500000
0!
#12858600000
1!
#12859096812
1"
#12862096625
0"
#12879000000
0!
#12880100000
1!
#12880596750
1"
#12883597000
0"
#12900500000
0!
#12901600000
1!
#12902097187
1"
#12905096687
0"
#12922000000
0!
#12923100000
1!
#12923596750
1"
#12926596625
0"
#12943500000
0!
#12944600000
1!
#12945096812
1"
#12948096812
0"
#12965000000
0!
#12966100000
1!
#12966596812
1"
#12969596625
0"
#12986500000
0!
#12987600000
1!
#12988096750
1"
#12991096625
0"
#13008000000
0!
#13009100000
1!
#13009597187
1"
#13012596687
0"
#13029500000
0!
#13030600000
1!
#13031096750
1"
#13034096625
0"
#13051000000
0!
#13052100000
1!
#13052596812
1"
#13055596812
0"
#13072500000
0!
#13073600000
1!
#13074097000
1"
#13077096625
0"
#13094000000
0!
#13095100000
1!
#13095596750
1"
#13098596625
0"
#13115500000
0!
#13116600000
1!
#13117096812
1"
#13120096625
0"
#13137000000
0!
#13138100000
1!
#13138596750
1"
#13141596625
0"
#13158500000
0!
#13159600000
1!
#13160096750
1"
#13163097125
0"
#13180000000
0!
#13181100000
1!
#13181600750
1"
#13184600812
0"
#13201500000
0!
#13202600000
1!
#13203096812
1"
#13206096625
0"
#13223000000
0!
#13224100000
1!
#13224596812
1"
#13227596937
0"
#13244500000
0!
#13245600000
1!
#13246096812
1"
#13249096625
0"
#13266000000
0!
#13267100000
1!
#13267596750
1"
#13270596625
0"
#13287500000
0!
#13288600000
1!
#13289097312
1"
#13292096687
0"
#13309000000
0!
#13310100000
1!
#13310596812
1"
#13313596625
0"
#13330500000
0!
#13331600000
1!
#13332096812
1"
#13335096937
0"
#13352000000
0!
#13353100000
1!
#13353596812
1"
#13356596625
0"
#13373500000
0!
#13374600000
1!
#13375096750
1"
#13378096625
0"
#13395000000
0!
#13396100000
1!
#13396597312
1"
#13399596750
0"
#13416500000
0!
#13417600000
1!
#13418096750
1"
#13421096625
0"
#13438000000
0!
#13439100000
1!
#13439596812
1"
#13442596625
0"
#13459500000
0!
#13460600000
1!
#13461097125
1"
#13464096625
0"
#13481000000
0!
#13482100000
1!
#13482596750
1"
#13485596625
0"
#13502500000
0!
#13503600000
1!
#13504096750
1"
#13507096750
0"
#13524000000
0!
#13525100000
1!
#13525596750
1"
#13528596625
0"
#13545500000
0!
#13546600000
1!
#13547096750
1"
#13550096625
0"
#13567000000
0!
#13568100000
1!
#13568596750
1"
#13571596687
0"
#13588500000
0!
#13589600000
1!
#13590096812
1"
#13593096625
0"
#13610000000
0!
#13611100000
1!
#13611596750
1"
#13614597062
0"
#13631500000
0!
#13632600000
1!
#13633096937
1"
#13636096625
0"
#13653000000
0!
#13654100000
1!
#13654596750
1"
#13657596687
0"
#13674500000
0!
#13675600000
1!
#13676096750
1"
#13679096687
0"
#13696000000
0!
#13697100000
1!
#13697596750
1"
#13700596625
0"
#13717500000
0!
#13718600000
1!
#13719096750
1"
#13722097062
0"
#13739000000
0!
#13740100000
1!
#13740597250
1"
#13743596625
0"
#13760500000
0!
#13761600000
1!
#13762096750
1"
#13765096687
0"
#13782000000
0!
#13783100000
1!
#13783596750
1"
#13786596875
0"
#13803500000
0!
#13804600000
1!
#13805096750
1"
#13808096625
0"
#13825000000
0!
#13826100000
1!
#13826596750
1"
#13829596687
0"
#13846500000
0!
#13847600000
1!
#13848097250
1"
#13851096625
0"
#13868000000
0!
#13869100000
1!
#13869596812
1"
#13872596625
0"
#13889500000
0!
#13890600000
1!
#13891096750
1"
#13894096875
0"
#13911000000
0!
#13912100000
1!
#13912597062
1"
#13915596687
0"
#13932500000
0!
#13933600000
1!
#13934096750
1"
#13937096687
0"
#13954000000
0!
#13955100000
1!
#13955596750
1"
#13958596687
0"
#13975500000
0!
#13976600000
1!
#13977096812
1"
#13980096625
0"
#13997000000
0!
#13998100000
1!
#13998596750
1"
#14001597187
0"
#14018500000
0!
#14019600000
1!
#14020097062
1"
#14023096687
0"
#14040000000
0!
#14041100000
1!
#14041596750
1"
#14044596687
0"
#14061500000
0!
#14062600000
1!
#14063096750
1"
#14066096687
0"
#14083000000
0!
#14084100000
1!
#14084596875
1"
#14087596625
0"
#14104500000
0!
#14105600000
1!
#14106096750
1"
#14109097187
0"
#14126000000
0!
#14127100000
1!
#14127596750
1"
#14130596625
0"
#14147500000
0!
#14148600000
1!
#14149096750
1"
#14152096687
0"
#14169000000
0!
#14170100000
1!
#14170596750
1"
#14173597000
0"
#14190500000
0!
#14191600000
1!
#14192096875
1"
#14195096625
0"
#14212000000
0!
#14213100000
1!
#14213596750
1"
#14216596625
0"
#14233500000
0!
#14234600000
1!
#14235096750
1"
#14238096625
0"
#14255000000
0!
#14256100000
1!
#14256596812
1"
#14259596625
0"
#14276500000
0!
#14277600000
1!
#14278096750
1"
#14281097000
0"
#14298000000
0!
#14299100000
1!
#14299597187
1"
#14302596687
0"
#14319500000
0!
#14320600000
1!
#14321096750
1"
#14324096625
0"
#14341000000
0!
#14342100000
1!
#14342596812
1"
#14345596812
0"
#14362500000
0!
#14363600000
1!
#14364096812
1"
#14367096625
0"
#14384000000
0!
#14385100000
1!
#14385596750
1"
#14388596625
0"
#14405500000
0!
#14406600000
1!
#14407097187
1"
#14410096687
0"
#14427000000
0!
#14428100000
1!
#14428596750
1"
#14431596625
0"
#14448500000
0!
#14449600000
1!
#14450096812
1"
#14453096812
0"
#14470000000
0!
#14471100000
1!
#14471597000
1"
#14474596625
0"
#14491500000
0!
#14492600000
1!
#14493096750
1"
#14496096625
0"
#14513000000
0!
#14514100000
1!
#14514596812
1"
#14517596625
0"
#14534500000
0!
#14535600000
1!
#14536096750
1"
#14539096625
0"
#14556000000
0!
#14557100000
1!
#14557596750
1"
#14560597125
0"
#14577500000
0!
#14578600000
1!
#14579097000
1"
#14582096625
0"
#14599000000
0!
#14600100000
1!
#14600596812
1"
#14603596625
0"
#14617800000
0!
#14618696750
1"
#14618900000
1!
#14621697000
0"
#14636600000
0!
#14637496812
1"
#14637700000
1!
#14640496625
0"
#14655400000
0!
#14656296750
1"
#14656500000
1!
#14659296687
0"
#14674200000
0!
#14675096750
1"
#14675300000
1!
#14678096687
0"
#14693000000
0!
#14693897000
1"
#14694100000
1!
#14696896625
0"
#14711800000
0!
#14712696750
1"
#14712900000
1!
#14715697125
0"
#14730600000
0!
#14731496812
1"
#14731700000
1!
#14734496625
0"
#14749400000
0!
#14750296750
1"
#14750500000
1!
#14753296687
0"
#14768200000
0!
#14769096812
1"
#14769300000
1!
#14772096625
0"
#14787000000
0!
#14787897125
1"
#14788100000
1!
#14790896625
0"
#14805800000
0!
#14806696750
1"
#14806900000
1!
#14809696687
0"
#14824600000
0!
#14825497250
1"
#14825700000
1!
#14828496625
0"
#14843400000
0!
#14844296812
1"
#14844500000
1!
#14847296812
0"
#14862200000
0!
#14863096812
1"
#14863300000
1!
#14866096625
0"
#14881000000
0!
#14881899437
1"
#14882100000
1!
#14884896937
0"
#14899800000
0!
#14900696750
1"
#14900900000
1!
#14903696687
0"
#14918600000
0!
#14919496750
1"
#14919700000
1!
#14922496625
0"
#14937400000
0!
#14938296750
1"
#14938500000
1!
#14941296625
0"
#14956200000
0!
#14957096937
1"
#14957300000
1!
#14960096625
0"
#14975000000
0!
#14975896750
1"
#14976100000
1!
#14978896687
0"
#14993800000
0!
#14994696750
1"
#14994900000
1!
#14997696625
0"
#15012600000
0!
#15013496750
1"
#15013700000
1!
#15016496687
0"
#15031400000
0!
#15032296750
1"
#15032500000
1!
#15035296625
0"
#15050200000
0!
#15051096937
1"
#15051300000
1!
#15054096625
0"
#15069000000
0!
#15069896750
1"
#15070100000
1!
#15072896687
0"
#15087800000
0!
#15088697062
1"
#15088900000
1!
#15091696687
0"
#15106600000
0!
#15107496812
1"
#15107700000
1!
#15110496937
0"
#15125400000
0!
#15126296750
1"
#15126500000
1!
#15129296625
0"
#15144200000
0!
#15145097062
1"
#15145300000
1!
#15148097062
0"
#15163000000
0!
#15163896750
1"
#15164100000
1!
#15166896625
0"
#15181800000
0!
#15182697187
1"
#15182900000
1!
#15185696687
0"
#15200600000
0!
#15201496750
1"
#15201700000
1!
#15204497062
0"
#15219400000
0!
#15220296750
1"
#15220500000
1!
#15223296625
0"
#15238200000
0!
#15239096750
1"
#15239300000
1!
#15242097187
0"
#15257000000
0!
#15257896812
1"
#15258100000
1!
#15260896625
0"
#15275800000
0!
#15276696750
1"
#15276900000
1!
#15279696750
0"
#15294600000
0!
#15295496812
1"
#15295700000
1!
#15298496625
0"
#15313400000
0!
#15314296875
1"
#15314500000
1!
#15317296625
0"
#15332200000
0!
#15333096750
1"
#15333300000
1!
#15336096625
0"
#15351000000
0!
#15351897000
1"
#15352100000
1!
#15354896625
0"
#15369800000
0!
#15370696750
1"
#15370900000
1!
#15373696875
0"
#15388600000
0!
#15389496812
1"
#15389700000
1!
#15392496625
0"
#15407400000
0!
#15408297312
1"
#15408500000
1!
#15411297000
0"
#15426200000
0!
#15427096750
1"
#15427300000
1!
#15430096625
0"
#15445000000
0!
#15445897125
1"
#15446100000
1!
#15448896687
0"
#15463800000
0!
#15464696750
1"
#15464900000
1!
#15467697000
0"
#15482600000
0!
#15483496812
1"
#15483700000
1!
#15486496625
0"
#15501400000
0!
#15502296750
1"
#15502500000
1!
#15505297125
0"
#15520200000
0!
#15521096750
1"
#15521300000
1!
#15524096687
0"
#15539000000
0!
#15539896750
1"
#15540100000
1!
#15542896687
0"
#15557800000
0!
#15558696750
1"
#15558900000
1!
#15561696687
0"
#15576600000
0!
#15577497125
1"
#15577700000
1!
#15580496625
0"
#15595400000
0!
#15596296750
1"
#15596500000
1!
#15599296625
0"
#15614200000
0!
#15615096750
1"
#15615300000
1!
#15618096625
0"
#15633000000
0!
#15633896812
1"
#15634100000
1!
#15636896812
0"
#15651800000
0!
#15652696750
1"
#15652900000
1!
#15655696625
0"
#15670600000
0!
#15671497250
1"
#15671700000
1!
#15674496625
0"
#15689400000
0!
#15690296750
1"
#15690500000
1!
#15693296687
0"
#15708200000
0!
#15709096750
1"
#15709300000
1!
#15712096625
0"
#15727000000
0!
#15727896812
1"
#15728100000
1!
#15730896937
0"
#15745800000
0!
#15746696937
1"
#15746900000
1!
#15749696625
0"
#15764600000
0!
#15765496750
1"
#15765700000
1!
#15768497062
0"
#15783400000
0!
#15784296750
1"
#15784500000
1!
#15787296625
0"
#15802200000
0!
#15803096812
1"
#15803300000
1!
#15806096625
0"
#15821000000
0!
#15821896812
1"
#15822100000
1!
#15824896625
0"
#15839800000
0!
#15840697062
1"
#15840900000
1!
#15843696687
0"
#15858600000
0!
#15859496750
1"
#15859700000
1!
#15862497187
0"
#15877400000
0!
#15878296750
1"
#15878500000
1!
#15881296687
0"
#15896200000
0!
#15897096750
1"
#15897300000
1!
#15900096750
0"
#15915000000
0!
#15915896750
1"
#15916100000
1!
#15918896625
0"
#15933800000
0!
#15934697187
1"
#15934900000
1!
#15937696687
0"
#15952600000
0!
#15953496750
1"
#15953700000
1!
#15956496625
0"
#15971400000
0!
#15972297312
1"
#15972500000
1!
#15975296687
0"
#15990200000
0!
#15991096750
1"
#15991300000
1!
#15994096875
0"
#16009000000
0!
#16009896874
1"
#16010100000
1!
#16012896625
0"
#16027800000
0!
#16028696750
1"
#16028900000
1!
#16031697000
0"
#16046600000
0!
#16047496812
1"
#16047699999
1!
#16050496625
0"
#16065400000
0!
#16066296750
1"
#16066500000
1!
#16069296687
0"
#16084200000
0!
#16085099249
1"
#16085300000
1!
#16088096624
0"
#16103000000
0!
#16103897000
1"
#16104099999
1!
#16106896625
0"
#16121800000
0!
#16122696750
1"
#16122900000
1!
#16125697124
0"
#16140600000
0!
#16141496812
1"
#16141700000
1!
#16144496624
0"
#16159400000
0!
#16160296750
1"
#16160499999
1!
#16163296687
0"
#16178200000
0!
#16179096812
1"
#16179300000
1!
#16182096625
0"
#16197000000
0!
#16197897125
1"
#16198100000
1!
#16200896624
0"
#16215800000
0!
#16216696750
1"
#16216899999
1!
#16219696687
0"
#16234600000
0!
#16235497250
1"
#16235700000
1!
#16238496625
0"
#16253400000
0!
#16254296812
1"
#16254500000
1!
#16257297125
0"
#16272200000
0!
#16273096812
1"
#16273299999
1!
#16276096625
0"
#16291000000
0!
#16291896812
1"
#16292100000
1!
#16294896937
0"
#16309800000
0!
#16310696750
1"
#16310900000
1!
#16313696687
0"
#16328600000
0!
#16329496750
1"
#16329699999
1!
#16332496625
0"
#16347400000
0!
#16348296750
1"
#16348500000
1!
#16351296625
0"
#16366200000
0!
#16367096937
1"
#16367300000
1!
#16370096624
0"
#16385000000
0!
#16385896750
1"
#16386099999
1!
#16388896687
0"
#16403800000
0!
#16404696750
1"
#16404900000
1!
#16407696625
0"
#16422600000
0!
#16423496812
1"
#16423700000
1!
#16426496624
0"
#16441400000
0!
#16442296750
1"
#16442499999
1!
#16445296625
0"
#16460200000
0!
#16461097062
1"
#16461300000
1!
#16464096687
0"
#16479000000
0!
#16479896750
1"
#16480100000
1!
#16482896624
0"
#16497800000
0!
#16498697187
1"
#16498899999
1!
#16501696687
0"
#16516600000
0!
#16517496750
1"
#16517700000
1!
#16520497062
0"
#16535400000
0!
#16536296750
1"
#16536500000
1!
#16539296624
0"
#16554200000
0!
#16555096750
1"
#16555299999
1!
#16558097187
0"
#16573000000
0!
#16573896812
1"
#16574100000
1!
#16576896625
0"
#16591800000
0!
#16592697312
1"
#16592900000
1!
#16595696687
0"
#16610600000
0!
#16611496750
1"
#16611699999
1!
#16614496625
0"
#16627300000
0!
#16628400000
1!
#16643999999
0!
#16645100000
1!
#16660699999
0!
#16661800000
1!
#16677399999
0!
#16678500000
1!
#16694099999
0!
#16695200000
1!
#16710799999
0!
#16711900000
1!
#16727500000
0!
#16728600000
1!
#16744200000
0!
#16745300000
1!
#16760900000
0!
#16762000000
1!
#16777600000
0!
#16778700000
1!
#16794300000
0!
#16795400000
1!
#16811000000
0!
#16812100000
1!
#16827700000
0!
#16828800000
1!
#16844400000
0!
#16845500000
1!
#16861100000
0!
#16862200000
1!
#16877800000
0!
#16878900000
1!
#16894500000
0!
#16895600000
1!
#16911200000
0!
#16912299999
1!
#16927900000
0!
#16928999999
1!
#16944600000
0!
#16945699999
1!
#16961300000
0!
#16962399999
1!
#16978000000
0!
#16979099999
1!
#16994700000
0!
#16995800000
1!
#17011399999
0!
#17012500000
1!
#17028099999
0!
#17029200000
1!
#17044799999
0!
#17045900000
1!
#17061499999
0!
#17062600000
1!
#17078199999
0!
#17079300000
1!
