analysis/wokwi-logic.vcd
$version Generated by Wokwi.com $end
$date Sun, 31 Aug 2025 08:27:48 GMT $end
$timescale 1ns $end
$scope module logic $end
$var wire 1 ! D2 $end
$var wire 1 " D3 $end
$var wire 1 # D4 $end
$upscope $end
$enddefinitions $end
#0
0!
#0
0"
#0
0#
#0
1!
#315250
1"
#1002599124
1#
#4954300000
0!
#4955400000
1!
#4991800000
0!
#4992900000
1!
#5029300000
0!
#5030400000
1!
#5066800000
0!
#5067900000
1!
#5072615625
0"
#5075614875
1"
#5104300000
0!
#5105400000
1!
#5110115187
0"
#5113114812
1"
#5141800000
0!
#5142900000
1!
#5147615187
0"
#5150614812
1"
#5179300000
0!
#5180400000
1!
#5185115500
0"
#5188114812
1"
#5216800000
0!
#5217900000
1!
#5222615187
0"
#5225614812
1"
#5254300000
0!
#5255400000
1!
#5260115187
0"
#5263114812
1"
#5291800000
0!
#5292900000
1!
#5297615375
0"
#5300615312
1"
#5329300000
0!
#5330400000
1!
#5335115500
0"
#5338114812
1"
#5366800000
0!
#5367900000
1!
#5372615187
0"
#5375614812
1"
#5404300000
0!
#5405400000
1!
#5410115187
0"
#5413114875
1"
#5441800000
0!
#5442900000
1!
#5447615187
0"
#5450615000
1"
#5479300000
0!
#5480400000
1!
#5485115187
0"
#5488114812
1"
#5516800000
0!
#5517900000
1!
#5522615187
0"
#5525614875
1"
#5554300000
0!
#5555400000
1!
#5560115187
0"
#5563114875
1"
#5591800000
0!
#5592900000
1!
#5597615187
0"
#5600614812
1"
#5629300000
0!
#5630400000
1!
#5635115187
0"
#5638114812
1"
#5666800000
0!
#5667900000
1!
#5672615187
0"
#5675614875
1"
#5704300000
0!
#5705400000
1!
#5710115625
0"
#5713114875
1"
#5741800000
0!
#5742900000
1!
#5747615750
0"
#5750614812
1"
#5779300000
0!
#5780400000
1!
#5785115187
0"
#5788114812
1"
#5816800000
0!
#5817900000
1!
#5822615500
0"
#5825614812
1"
#5854300000
0!
#5855400000
1!
#5860131187
0"
#5863131125
1"
#5891800000
0!
#5892900000
1!
#5897615187
0"
#5900614875
1"
#5929300000
0!
#5930400000
1!
#5935115187
0"
#5938114875
1"
#5966800000
0!
#5967900000
1!
#5972615750
0"
#5975614812
1"
#6004300000
0!
#6005400000
1!
#6010115187
0"
#6013114812
1"
#6041800000
0!
#6042900000
1!
#6047615187
0"
#6050614812
1"
#6079300000
0!
#6080400000
1!
#6085115625
0"
#6088114875
1"
#6116800000
0!
#6117900000
1!
#6122615187
0"
#6125614812
1"
#6154300000
0!
#6155400000
1!
#6160115187
0"
#6163114812
1"
#6191800000
0!
#6192900000
1!
#6197615500
0"
#6200614812
1"
#6229300000
0!
#6230400000
1!
#6235115625
0"
#6238114875
1"
#6266800000
0!
#6267900000
1!
#6272615187
0"
#6275614812
1"
#6304300000
0!
#6305400000
1!
#6310115187
0"
#6313115000
1"
#6341800000
0!
#6342900000
1!
#6347615187
0"
#6350615125
1"
#6379300000
0!
#6380400000
1!
#6385115187
0"
#6388114812
1"
#6416800000
0!
#6417900000
1!
#6422615187
0"
#6425614812
1"
#6454300000
0!
#6455400000
1!
#6460115187
0"
#6463115000
1"
#6491800000
0!
#6492900000
1!
#6497615187
0"
#6500614812
1"
#6529300000
0!
#6530400000
1!
#6535115187
0"
#6538114812
1"
#6566800000
0!
#6567900000
1!
#6572615187
0"
#6575614875
1"
#6604300000
0!
#6605400000
1!
#6610115750
0"
#6613114812
1"
#6641800000
0!
#6642900000
1!
#6647615187
0"
#6650614812
1"
#6679300000
0!
#6680400000
1!
#6685115187
0"
#6688114812
1"
#6716800000
0!
#6717900000
1!
#6722615187
0"
#6725614812
1"
#6754300000
0!
#6755400000
1!
#6760115750
0"
#6763114812
1"
#6791800000
0!
#6792900000
1!
#6797615187
0"
#6800614812
1"
#6829300000
0!
#6830400000
1!
#6835115187
0"
#6838114812
1"
#6866800000
0!
#6867900000
1!
#6872615625
0"
#6875614875
1"
#6904300000
0!
#6905400000
1!
#6910115187
0"
#6913114812
1"
#6934400000
0!
#6935500000
1!
#6938263250
0"
#6941262812
1"
#6964500000
0!
#6965600000
1!
#6968363562
0"
#6971362812
1"
#6994600000
0!
#6995700000
1!
#6998463250
0"
#7001462812
1"
#7024700000
0!
#7025800000
1!
#7028563375
0"
#7031563312
1"
#7054800000
0!
#7055900000
1!
#7058663187
0"
#7061662875
1"
#7084900000
0!
#7086000000
1!
#7088763500
0"
#7091762812
1"
#7115000000
0!
#7116100000
1!
#7118863187
0"
#7121862812
1"
#7145100000
0!
#7146200000
1!
#7148963312
0"
#7151963250
1"
#7175200000
0!
#7176300000
1!
#7179063250
0"
#7182062812
1"
#7205300000
0!
#7206400000
1!
#7209163250
0"
#7212163375
1"
#7235400000
0!
#7236500000
1!
#7239263250
0"
#7242262875
1"
#7265500000
0!
#7266600000
1!
#7269363187
0"
#7272362812
1"
#7295600000
0!
#7296700000
1!
#7299463187
0"
#7302462812
1"
#7325700000
0!
#7326800000
1!
#7329563250
0"
#7332562812
1"
#7355800000
0!
#7356900000
1!
#7359663187
0"
#7362662812
1"
#7385900000
0!
#7387000000
1!
#7389763187
0"
#7392762812
1"
#7416000000
0!
#7417100000
1!
#7419863187
0"
#7422862875
1"
#7446100000
0!
#7447200000
1!
#7449963187
0"
#7452962812
1"
#7476200000
0!
#7477300000
1!
#7480063187
0"
#7483062875
1"
#7506300000
0!
#7507400000
1!
#7510163187
0"
#7513162875
1"
#7536400000
0!
#7537500000
1!
#7540263187
0"
#7543262812
1"
#7566500000
0!
#7567600000
1!
#7570363437
0"
#7573363375
1"
#7596600000
0!
#7597700000
1!
#7600463250
0"
#7603462812
1"
#7626700000
0!
#7627800000
1!
#7630563250
0"
#7633563187
1"
#7656800000
0!
#7657900000
1!
#7660663187
0"
#7663662812
1"
#7686900000
0!
#7688000000
1!
#7690763375
0"
#7693763312
1"
#7717000000
0!
#7718100000
1!
#7720863187
0"
#7723862812
1"
#7747100000
0!
#7748200000
1!
#7750963187
0"
#7753963125
1"
#7777200000
0!
#7778300000
1!
#7781063187
0"
#7784062812
1"
#7807300000
0!
#7808400000
1!
#7811163187
0"
#7814162812
1"
#7837400000
0!
#7838500000
1!
#7841263187
0"
#7844262875
1"
#7867500000
0!
#7868600000
1!
#7871363187
0"
#7874362812
1"
#7897600000
0!
#7898700000
1!
#7901463250
0"
#7904462875
1"
#7927700000
0!
#7928800000
1!
#7931563187
0"
#7934562812
1"
#7957800000
0!
#7958900000
1!
#7961663250
0"
#7964662812
1"
#7987900000
0!
#7989000000
1!
#7991763250
0"
#7994762812
1"
#8018000000
0!
#8019100000
1!
#8021863187
0"
#8024862812
1"
#8048100000
0!
#8049200000
1!
#8051963187
0"
#8054962812
1"
#8078200000
0!
#8079300000
1!
#8082063187
0"
#8085062875
1"
#8108300000
0!
#8109400000
1!
#8112163499
0"
#8115162812
1"
#8138400000
0!
#8139500000
1!
#8142263187
0"
#8145262812
1"
#8168500000
0!
#8169600000
1!
#8172363312
0"
#8175363250
1"
#8198600000
0!
#8199700000
1!
#8202463187
0"
#8205462812
1"
#8228700000
0!
#8229799999
1!
#8232563250
0"
#8235563375
1"
#8258800000
0!
#8259900000
1!
#8262663249
0"
#8265662875
1"
#8288900000
0!
#8289999999
1!
#8292763250
0"
#8295763187
1"
#8319000000
0!
#8320100000
1!
#8322863187
0"
#8325862812
1"
#8349100000
0!
#8350199999
1!
#8352963187
0"
#8355962999
1"
#8379200000
0!
#8380300000
1!
#8383063187
0"
#8386062812
1"
#8409300000
0!
#8410399999
1!
#8413163187
0"
#8416162812
1"
#8439399999
0!
#8440500000
1!
#8443263687
0"
#8446262812
1"
#8469500000
0!
#8470599999
1!
#8473363187
0"
#8476362812
1"
#8499599999
0!
#8500700000
1!
#8503463187
0"
#8506466500
1"
#8529700000
0!
#8530799999
1!
#8533563187
0"
#8536562812
1"
#8559799999
0!
#8560900000
1!
#8563663187
0"
#8566662812
1"
#8589900000
0!
#8591000000
1!
#8593763187
0"
#8596762812
1"
#8620000000
0!
#8621100000
1!
#8623863250
0"
#8626862812
1"
#8650100000
0!
#8651200000
1!
#8653963250
0"
#8656963187
1"
#8680200000
0!
#8681300000
1!
#8684063187
0"
#8687062875
1"
#8710300000
0!
#8711400000
1!
#8714163375
0"
#8717163312
1"
#8740400000
0!
#8741500000
1!
#8744263187
0"
#8747262875
1"
#8770500000
0!
#8771600000
1!
#8774363187
0"
#8777363125
1"
#8800600000
0!
#8801700000
1!
#8804463187
0"
#8807462812
1"
#8830700000
0!
#8831800000
1!
#8834563312
0"
#8837563250
1"
#8860800000
0!
#8861900000
1!
#8864663187
0"
#8867662875
1"
#8890900000
0!
#8892000000
1!
#8894763250
0"
#8897763062
1"
#8916400000
0!
#8917500000
1!
#8919043250
0"
#8922043062
1"
#8941500000
0!
#8942600000
1!
#8944039187
0"
#8947038812
1"
#8966600000
0!
#8967700000
1!
#8969139187
0"
#8972138812
1"
#8991700000
0!
#8992800000
1!
#8994239187
0"
#8997238875
1"
#9016800000
0!
#9017900000
1!
#9019339187
0"
#9022338812
1"
#9041900000
0!
#9043000000
1!
#9044439187
0"
#9047438875
1"
#9067000000
0!
#9068100000
1!
#9069539187
0"
#9072538812
1"
#9092100000
0!
#9093200000
1!
#9094639250
0"
#9097638937
1"
#9117200000
0!
#9118300000
1!
#9119739187
0"
#9122738812
1"
#9142300000
0!
#9143400000
1!
#9144839187
0"
#9147839000
1"
#9167400000
0!
#9168500000
1!
#9169939187
0"
#9172938875
1"
#9192500000
0!
#9193600000
1!
#9195039250
0"
#9198039062
1"
#9217600000
0!
#9218700000
1!
#9220139187
0"
#9223138875
1"
#9242700000
0!
#9243800000
1!
#9245239187
0"
#9248239125
1"
#9267800000
0!
#9268900000
1!
#9270339250
0"
#9273338812
1"
#9292900000
0!
#9294000000
1!
#9295439250
0"
#9298439187
1"
#9318000000
0!
#9319100000
1!
#9320539187
0"
#9323538875
1"
#9343100000
0!
#9344200000
1!
#9345639625
0"
#9348638875
1"
#9368200000
0!
#9369300000
1!
#9370739187
0"
#9373738937
1"
#9393300000
0!
#9394400000
1!
#9395839687
0"
#9398838812
1"
#9418400000
0!
#9419500000
1!
#9420939187
0"
#9423939000
1"
#9443500000
0!
#9444600000
1!
#9446039750
0"
#9449038812
1"
#9468600000
0!
#9469700000
1!
#9471139250
0"
#9474139375
1"
#9493700000
0!
#9494800000
1!
#9496239187
0"
#9499238875
1"
#9518800000
0!
#9519900000
1!
#9521339187
0"
#9524338812
1"
#9543900000
0!
#9545000000
1!
#9546439187
0"
#9549438812
1"
#9569000000
0!
#9570100000
1!
#9571539250
0"
#9574538812
1"
#9594100000
0!
#9595200000
1!
#9596639250
0"
#9599638875
1"
#9619200000
0!
#9620300000
1!
#9621739187
0"
#9624738812
1"
#9644300000
0!
#9645400000
1!
#9646839187
0"
#9649838812
1"
#9669400000
0!
#9670500000
1!
#9671939187
0"
#9674938812
1"
#9694500000
0!
#9695600000
1!
#9697039187
0"
#9700038812
1"
#9719600000
0!
#9720700000
1!
#9722139187
0"
#9725138812
1"
#9744700000
0!
#9745800000
1!
#9747239187
0"
#9750238812
1"
#9769800000
0!
#9770900000
1!
#9772339187
0"
#9775338812
1"
#9794900000
0!
#9796000000
1!
#9797439187
0"
#9800438812
1"
#9820000000
0!
#9821100000
1!
#9822539187
0"
#9825538875
1"
#9845100000
0!
#9846200000
1!
#9847639250
0"
#9850638812
1"
#9870200000
0!
#9871300000
1!
#9872739250
0"
#9875738812
1"
#9895300000
0!
#9896400000
1!
#9897839187
0"
#9900838875
1"
#9920400000
0!
#9921500000
1!
#9922939187
0"
#9925938875
1"
#9945500000
0!
#9946600000
1!
#9948039187
0"
#9951038812
1"
#9970600000
0!
#9971700000
1!
#9973139250
0"
#9976138812
1"
#9995700000
0!
#9996800000
1!
#9998239187
0"
#10001238875
1"
#10020800000
0!
#10021900000
1!
#10023339187
0"
#10026338875
1"
#10045900000
0!
#10047000000
1!
#10048439187
0"
#10051438812
1"
#10071000000
0!
#10072100000
1!
#10073539187
0"
#10076538875
1"
#10096100000
0!
#10097200000
1!
#10098639187
0"
#10101638812
1"
#10121200000
0!
#10122300000
1!
#10123739250
0"
#10126738937
1"
#10146300000
0!
#10147400000
1!
#10148839187
0"
#10151838812
1"
#10171400000
0!
#10172500000
1!
#10173939187
0"
#10176939000
1"
#10196500000
0!
#10197600000
1!
#10199039250
0"
#10202038812
1"
#10221600000
0!
#10222700000
1!
#10224139250
0"
#10227139062
1"
#10246700000
0!
#10247800000
1!
#10249239187
0"
#10252238875
1"
#10271800000
0!
#10272900000
1!
#10274339187
0"
#10277339125
1"
#10296900000
0!
#10298000000
1!
#10299439250
0"
#10302438812
1"
#10322000000
0!
#10323100000
1!
#10324539250
0"
#10327538812
1"
#10347100000
0!
#10348200000
1!
#10349639187
0"
#10352638875
1"
#10372200000
0!
#10373300000
1!
#10374739625
0"
#10377738875
1"
#10397300000
0!
#10398400000
1!
#10399842875
0"
#10402838937
1"
#10422400000
0!
#10423500000
1!
#10424939687
0"
#10427938812
1"
#10447500000
0!
#10448600000
1!
#10450039187
0"
#10453039000
1"
#10472600000
0!
#10473700000
1!
#10475139750
0"
#10478138812
1"
#10497700000
0!
#10498800000
1!
#10500239187
0"
#10503239375
1"
#10522800000
0!
#10523900000
1!
#10525339187
0"
#10528338875
1"
#10547900000
0!
#10549000000
1!
#10550439187
0"
#10553442937
1"
#10573000000
0!
#10574100000
1!
#10575539187
0"
#10578538812
1"
#10598100000
0!
#10599200000
1!
#10600639250
0"
#10603638812
1"
#10623200000
0!
#10624300000
1!
#10625739250
0"
#10628738875
1"
#10648300000
0!
#10649400000
1!
#10650839187
0"
#10653838812
1"
#10673400000
0!
#10674500000
1!
#10675939187
0"
#10678938812
1"
#10698500000
0!
#10699600000
1!
#10701039187
0"
#10704038812
1"
#10723600000
0!
#10724700000
1!
#10726139187
0"
#10729138812
1"
#10748700000
0!
#10749800000
1!
#10751239187
0"
#10754238875
1"
#10773800000
0!
#10774900000
1!
#10776339187
0"
#10779338812
1"
#10798900000
0!
#10800000000
1!
#10801439187
0"
#10804438812
1"
#10824000000
0!
#10825100000
1!
#10826539187
0"
#10829538812
1"
#10849100000
0!
#10850200000
1!
#10851639187
0"
#10854638875
1"
#10874200000
0!
#10875300000
1!
#10876739250
0"
#10879738812
1"
#10899300000
0!
#10900400000
1!
#10901839250
0"
#10904838812
1"
#10920800000
0!
#10921900000
1!
#10922391437
0"
#10925390812
1"
#10942300000
0!
#10943400000
1!
#10943891187
0"
#10946890875
1"
#10963800000
0!
#10964900000
1!
#10965391625
0"
#10968390875
1"
#10985300000
0!
#10986400000
1!
#10986891187
0"
#10989890812
1"
#11006800000
0!
#11007900000
1!
#11008391250
0"
#11011390812
1"
#11028300000
0!
#11029400000
1!
#11029891187
0"
#11032890875
1"
#11049800000
0!
#11050900000
1!
#11051391187
0"
#11054390812
1"
#11071300000
0!
#11072400000
1!
#11072891250
0"
#11075890937
1"
#11092800000
0!
#11093900000
1!
#11094391187
0"
#11097390812
1"
#11114300000
0!
#11115400000
1!
#11115891187
0"
#11118891125
1"
#11135800000
0!
#11136900000
1!
#11137391187
0"
#11140390812
1"
#11157300000
0!
#11158400000
1!
#11158891375
0"
#11161891312
1"
#11178800000
0!
#11179900000
1!
#11180391187
0"
#11183390812
1"
#11200300000
0!
#11201400000
1!
#11201891562
0"
#11204890812
1"
#11221800000
0!
#11222900000
1!
#11223391187
0"
#11226390875
1"
#11243300000
0!
#11244400000
1!
#11244891750
0"
#11247890812
1"
#11264800000
0!
#11265900000
1!
#11266391250
0"
#11269390812
1"
#11286300000
0!
#11287400000
1!
#11287891250
0"
#11290890875
1"
#11307800000
0!
#11308900000
1!
#11309391187
0"
#11312390875
1"
#11329300000
0!
#11330400000
1!
#11330891250
0"
#11333890812
1"
#11350800000
0!
#11351900000
1!
#11352391250
0"
#11355391062
1"
#11372300000
0!
#11373400000
1!
#11373891187
0"
#11376890812
1"
#11393800000
0!
#11394900000
1!
#11395391312
0"
#11398391250
1"
#11415300000
0!
#11416400000
1!
#11416891187
0"
#11419890812
1"
#11436800000
0!
#11437900000
1!
#11438391500
0"
#11441390812
1"
#11458300000
0!
#11459400000
1!
#11459891187
0"
#11462890812
1"
#11479800000
0!
#11480900000
1!
#11481391687
0"
#11484390812
1"
#11501300000
0!
#11502400000
1!
#11502891187
0"
#11505890812
1"
#11522800000
0!
#11523900000
1!
#11524391187
0"
#11527390812
1"
#11544300000
0!
#11545400000
1!
#11545891187
0"
#11548890875
1"
#11565800000
0!
#11566900000
1!
#11567391187
0"
#11570390812
1"
#11587300000
0!
#11588400000
1!
#11588891250
0"
#11591890812
1"
#11608800000
0!
#11609900000
1!
#11610391250
0"
#11613390875
1"
#11630300000
0!
#11631400000
1!
#11631891187
0"
#11634890875
1"
#11651800000
0!
#11652900000
1!
#11653391187
0"
#11656390812
1"
#11673300000
0!
#11674400000
1!
#11674891250
0"
#11677891062
1"
#11694800000
0!
#11695900000
1!
#11696391187
0"
#11699390812
1"
#11716300000
0!
#11717400000
1!
#11717891312
0"
#11720891250
1"
#11737800000
0!
#11738900000
1!
#11739391187
0"
#11742390812
1"
#11759300000
0!
#11760400000
1!
#11760891500
0"
#11763890812
1"
#11780800000
0!
#11781900000
1!
#11782391187
0"
#11785390812
1"
#11802300000
0!
#11803400000
1!
#11803891687
0"
#11806890812
1"
#11823800000
0!
#11824900000
1!
#11825391187
0"
#11828390875
1"
#11845300000
0!
#11846400000
1!
#11846891187
0"
#11849890812
1"
#11866800000
0!
#11867900000
1!
#11868391250
0"
#11871390812
1"
#11888300000
0!
#11889400000
1!
#11889891187
0"
#11892890812
1"
#11909800000
0!
#11910900000
1!
#11911391187
0"
#11914391000
1"
#11931300000
0!
#11932400000
1!
#11932891250
0"
#11935890875
1"
#11952800000
0!
#11953900000
1!
#11954391250
0"
#11957391187
1"
#11974300000
0!
#11975400000
1!
#11975891187
0"
#11978890812
1"
#11995800000
0!
#11996900000
1!
#11997391437
0"
#12000391375
1"
#12017300000
0!
#12018400000
1!
#12018891187
0"
#12021890812
1"
#12038800000
0!
#12039900000
1!
#12040391625
0"
#12043390875
1"
#12060300000
0!
#12061400000
1!
#12061891187
0"
#12064890812
1"
#12081800000
0!
#12082900000
1!
#12083391187
0"
#12086390875
1"
#12103300000
0!
#12104400000
1!
#12104891187
0"
#12107890812
1"
#12124800000
0!
#12125900000
1!
#12126391187
0"
#12129390812
1"
#12146300000
0!
#12147400000
1!
#12147891187
0"
#12150890875
1"
#12167800000
0!
#12168900000
1!
#12169391187
0"
#12172390812
1"
#12189300000
0!
#12190400000
1!
#12190891250
0"
#12193890812
1"
#12210800000
0!
#12211900000
1!
#12212391187
0"
#12215394812
1"
#12232300000
0!
#12233400000
1!
#12233891187
0"
#12236890812
1"
#12253800000
0!
#12254900000
1!
#12255391250
0"
#12258390812
1"
#12275300000
0!
#12276400000
1!
#12276891250
0"
#12279890812
1"
#12296800000
0!
#12297900000
1!
#12298391187
0"
#12301390812
1"
#12318300000
0!
#12319400000
1!
#12319891437
0"
#12322890875
1"
#12339800000
0!
#12340900000
1!
#12341391187
0"
#12344390875
1"
#12361300000
0!
#12362400000
1!
#12362891625
0"
#12365890812
1"
#12382800000
0!
#12383900000
1!
#12384391187
0"
#12387390812
1"
#12404300000
0!
#12405400000
1!
#12405891187
0"
#12408890875
1"
#12425800000
0!
#12426900000
1!
#12427391187
0"
#12430390812
1"
#12447300000
0!
#12448400000
1!
#12448891187
0"
#12451890937
1"
#12468800000
0!
#12469900000
1!
#12470391250
0"
#12473390812
1"
#12490300000
0!
#12491400000
1!
#12491891187
0"
#12494891125
1"
#12511800000
0!
#12512900000
1!
#12513391187
0"
#12516390812
1"
#12533300000
0!
#12534400000
1!
#12534891187
0"
#12537891312
1"
#12554800000
0!
#12555900000
1!
#12556391375
0"
#12559390812
1"
#12576300000
0!
#12577400000
1!
#12577891250
0"
#12580890812
1"
#12597800000
0!
#12598900000
1!
#12599394812
0"
#12602390875
1"
#12619300000
0!
#12620400000
1!
#12620891750
0"
#12623890812
1"
#12640800000
0!
#12641900000
1!
#12642391250
0"
#12645390812
1"
#12662300000
0!
#12663400000
1!
#12663891250
0"
#12666890875
1"
#12683800000
0!
#12684900000
1!
#12685391187
0"
#12688390875
1"
#12705300000
0!
#12706400000
1!
#12706891250
0"
#12709890812
1"
#12726800000
0!
#12727900000
1!
#12728391250
0"
#12731391062
1"
#12748300000
0!
#12749400000
1!
#12749891187
0"
#12752890812
1"
#12769800000
0!
#12770900000
1!
#12771391312
0"
#12774391250
1"
#12791300000
0!
#12792400000
1!
#12792891187
0"
#12795890812
1"
#12812800000
0!
#12813900000
1!
#12814391500
0"
#12817390812
1"
#12834300000
0!
#12835400000
1!
#12835891187
0"
#12838890812
1"
#12855800000
0!
#12856900000
1!
#12857391687
0"
#12860390812
1"
#12877300000
0!
#12878400000
1!
#12878891187
0"
#12881890812
1"
#12898800000
0!
#12899900000
1!
#12900391187
0"
#12903390812
1"
#12917600000
0!
#12918491250
0"
#12918700000
1!
#12921490937
1"
#12936400000
0!
#12937291187
0"
#12937500000
1!
#12940290875
1"
#12955200000
0!
#12956091187
0"
#12956300000
1!
#12959090875
1"
#12974000000
0!
#12974891187
0"
#12975100000
1!
#12977890812
1"
#12992800000
0!
#12993691187
0"
#12993900000
1!
#12996690875
1"
#13011600000
0!
#13012491750
0"
#13012700000
1!
#13015490812
1"
#13030400000
0!
#13031291187
0"
#13031500000
1!
#13034291125
1"
#13049200000
0!
#13050091312
0"
#13050300000
1!
#13053091250
1"
#13068000000
0!
#13068891250
0"
#13069100000
1!
#13071890812
1"
#13086800000
0!
#13087691187
0"
#13087900000
1!
#13090690812
1"
#13105600000
0!
#13106491187
0"
#13106700000
1!
#13109490812
1"
#13124400000
0!
#13125291250
0"
#13125500000
1!
#13128290875
1"
#13143200000
0!
#13144091375
0"
#13144300000
1!
#13147091312
1"
#13162000000
0!
#13162891500
0"
#13163100000
1!
#13165890812
1"
#13180800000
0!
#13181691187
0"
#13181900000
1!
#13184690875
1"
#13199600000
0!
#13200491187
0"
#13200700000
1!
#13203490812
1"
#13218400000
0!
#13219291187
0"
#13219500000
1!
#13222290812
1"
#13237200000
0!
#13238091250
0"
#13238300000
1!
#13241090812
1"
#13256000000
0!
#13256891250
0"
#13257100000
1!
#13259890875
1"
#13274800000
0!
#13275691687
0"
#13275900000
1!
#13278690812
1"
#13293600000
0!
#13294491187
0"
#13294700000
1!
#13297490875
1"
#13312400000
0!
#13313291250
0"
#13313500000
1!
#13316291187
1"
#13331200000
0!
#13332091187
0"
#13332300000
1!
#13335090812
1"
#13350000000
0!
#13350891187
0"
#13351100000
1!
#13353890812
1"
#13368800000
0!
#13369691187
0"
#13369900000
1!
#13372690812
1"
#13387600000
0!
#13388491562
0"
#13388700000
1!
#13391490812
1"
#13406400000
0!
#13407291250
0"
#13407500000
1!
#13410290937
1"
#13425200000
0!
#13426091250
0"
#13426300000
1!
#13429091062
1"
#13444000000
0!
#13444891187
0"
#13445100000
1!
#13447890875
1"
#13462800000
0!
#13463691187
0"
#13463900000
1!
#13466690812
1"
#13481600000
0!
#13482491187
0"
#13482700000
1!
#13485490812
1"
#13500400000
0!
#13501291750
0"
#13501500000
1!
#13504290812
1"
#13519200000
0!
#13520091187
0"
#13520300000
1!
#13523090812
1"
#13538000000
0!
#13538891312
0"
#13539100000
1!
#13541891250
1"
#13556800000
0!
#13557691187
0"
#13557900000
1!
#13560690875
1"
#13575600000
0!
#13576491250
0"
#13576700000
1!
#13579490812
1"
#13594400000
0!
#13595291187
0"
#13595500000
1!
#13598290812
1"
#13613200000
0!
#13614091250
0"
#13614300000
1!
#13617090875
1"
#13632000000
0!
#13632891187
0"
#13633100000
1!
#13635890812
1"
#13650800000
0!
#13651691187
0"
#13651900000
1!
#13654690812
1"
#13669600000
0!
#13670491187
0"
#13670700000
1!
#13673490812
1"
#13688400000
0!
#13689291250
0"
#13689500000
1!
#13692290812
1"
#13707200000
0!
#13708091187
0"
#13708300000
1!
#13711090812
1"
#13726000000
0!
#13726891187
0"
#13727100000
1!
#13729890812
1"
#13744800000
0!
#13745691250
0"
#13745900000
1!
#13748690875
1"
#13763600000
0!
#13764491375
0"
#13764700000
1!
#13767491312
1"
#13782400000
0!
#13783291187
0"
#13783500000
1!
#13786290875
1"
#13801200000
0!
#13802091187
0"
#13802300000
1!
#13805090875
1"
#13820000000
0!
#13820891250
0"
#13821100000
1!
#13823890812
1"
#13838800000
0!
#13839691187
0"
#13839900000
1!
#13842690812
1"
#13857600000
0!
#13858491250
0"
#13858700000
1!
#13861490812
1"
#13876400000
0!
#13877291562
0"
#13877500000
1!
#13880290812
1"
#13895200000
0!
#13896091687
0"
#13896300000
1!
#13899090812
1"
#13914000000
0!
#13914891250
0"
#13915100000
1!
#13917891062
1"
#13932800000
0!
#13933691250
0"
#13933900000
1!
#13936690812
1"
#13951600000
0!
#13952491187
0"
#13952700000
1!
#13955490875
1"
#13970400000
0!
#13971291187
0"
#13971500000
1!
#13974290812
1"
#13989200000
0!
#13990091187
0"
#13990300000
1!
#13993090812
1"
#14008000000
0!
#14008891187
0"
#14009100000
1!
#14011890812
1"
#14026800000
0!
#14027691250
0"
#14027900000
1!
#14030690937
1"
#14045600000
0!
#14046491437
0"
#14046700000
1!
#14049491375
1"
#14064400000
0!
#14065291187
0"
#14065500000
1!
#14068290875
1"
#14083200000
0!
#14084091187
0"
#14084300000
1!
#14087090812
1"
#14102000000
0!
#14102891187
0"
#14103100000
1!
#14105890812
1"
#14120800000
0!
#14121691750
0"
#14121900000
1!
#14124690812
1"
#14139600000
0!
#14140491187
0"
#14140700000
1!
#14143491125
1"
#14158400000
0!
#14159291312
0"
#14159500000
1!
#14162291250
1"
#14177200000
0!
#14178091250
0"
#14178300000
1!
#14181090812
1"
#14196000000
0!
#14196891250
0"
#14197100000
1!
#14199890812
1"
#14214800000
0!
#14215691187
0"
#14215900000
1!
#14218690812
1"
#14233600000
0!
#14234491250
0"
#14234700000
1!
#14237490875
1"
#14252400000
0!
#14253291187
0"
#14253500000
1!
#14256290812
1"
#14271200000
0!
#14272091500
0"
#14272300000
1!
#14275090812
1"
#14290000000
0!
#14290891187
0"
#14291100000
1!
#14293890812
1"
#14308800000
0!
#14309691187
0"
#14309900000
1!
#14312691000
1"
#14327600000
0!
#14328491187
0"
#14328700000
1!
#14331490812
1"
#14346400000
0!
#14347291250
0"
#14347500000
1!
#14350290812
1"
#14365200000
0!
#14366091250
0"
#14366300000
1!
#14369090875
1"
#14384000000
0!
#14384891687
0"
#14385100000
1!
#14387890812
1"
#14402800000
0!
#14403691187
0"
#14403900000
1!
#14406690875
1"
#14421600000
0!
#14422491250
0"
#14422700000
1!
#14425491187
1"
#14440400000
0!
#14441291187
0"
#14441500000
1!
#14444290812
1"
#14459200000
0!
#14460091187
0"
#14460300000
1!
#14463090812
1"
#14478000000
0!
#14478891187
0"
#14479100000
1!
#14481890812
1"
#14496800000
0!
#14497691562
0"
#14497900000
1!
#14500690812
1"
#14515600000
0!
#14516491187
0"
#14516700000
1!
#14519490812
1"
#14534400000
0!
#14535291250
0"
#14535500000
1!
#14538291062
1"
#14553200000
0!
#14554091187
0"
#14554300000
1!
#14557090875
1"
#14572000000
0!
#14572891187
0"
#14573100000
1!
#14575890875
1"
#14590800000
0!
#14591691187
0"
#14591900000
1!
#14594690812
1"
#14609600000
0!
#14610491750
0"
#14610700000
1!
#14613490812
1"
#14628400000
0!
#14629291187
0"
#14629500000
1!
#14632290812
1"
#14647200000
0!
#14648091312
0"
#14648300000
1!
#14651091250
1"
#14666000000
0!
#14666891437
0"
#14667100000
1!
#14669890875
1"
#14684800000
0!
#14685691250
0"
#14685900000
1!
#14688690812
1"
#14703600000
0!
#14704491187
0"
#14704700000
1!
#14707490812
1"
#14722400000
0!
#14723291187
0"
#14723500000
1!
#14726290875
1"
#14741200000
0!
#14742091187
0"
#14742300000
1!
#14745090812
1"
#14760000000
0!
#14760891187
0"
#14761100000
1!
#14763890812
1"
#14778800000
0!
#14779691625
0"
#14779900000
1!
#14782690875
1"
#14797600000
0!
#14798491250
0"
#14798700000
1!
#14801490812
1"
#14816400000
0!
#14817291187
0"
#14817500000
1!
#14820290812
1"
#14835200000
0!
#14836091187
0"
#14836300000
1!
#14839090812
1"
#14854000000
0!
#14854891250
0"
#14855100000
1!
#14857890875
1"
#14872800000
0!
#14873691375
0"
#14873900000
1!
#14876691312
1"
#14891600000
0!
#14892491187
0"
#14892700000
1!
#14895490875
1"
#14910400000
0!
#14911291187
0"
#14911500000
1!
#14914290875
1"
#14927100000
0!
#14927445187
0"
#14928200000
1!
#14930442875
1"
#14943800000
0!
#14944144750
0"
#14944900000
1!
#14947142812
1"
#14960500000
0!
#14960844687
0"
#14961600000
1!
#14963842812
1"
#14977200000
0!
#14977544687
0"
#14978300000
1!
#14980542812
1"
#14993900000
0!
#14994244687
0"
#14995000000
1!
#14997242875
1"
#15010600000
0!
#15010944750
0"
#15011700000
1!
#15013942812
1"
#15027300000
0!
#15027644750
0"
#15028400000
1!
#15030642875
1"
#15044000000
0!
#15044344687
0"
#15045100000
1!
#15047342812
1"
#15060700000
0!
#15061045250
0"
#15061800000
1!
#15064043000
1"
#15077400000
0!
#15077744812
0"
#15078500000
1!
#15080743250
1"
#15094100000
0!
#15094445062
0"
#15095200000
1!
#15097442875
1"
#15110800000
0!
#15111144750
0"
#15111900000
1!
#15114142812
1"
#15127500000
0!
#15127844687
0"
#15128600000
1!
#15130842812
1"
#15144200000
0!
#15144544687
0"
#15145300000
1!
#15147542812
1"
