analysis/wokwi-logic.vcd
$version Generated by Wokwi.com $end
$date Sun, 31 Aug 2025 07:04:50 GMT $end
$timescale 1ns $end
$scope module logic $end
$var wire 1 ! D2 $end
$var wire 1 " D3 $end
$var wire 1 # D4 $end
$upscope $end
$enddefinitions $end
#0
0!
#0
0"
#0
0#
#0
1!
#315250
1"
#1002599937
1#
#3537500000
0!
#3538600000
1!
#3575000000
0!
#3576100000
1!
#3612500000
0!
#3613600000
1!
#3618315187
0"
#3621314875
1"
#3650000000
0!
#3651100000
1!
#3655815250
0"
#3658814812
1"
#3687500000
0!
#3688600000
1!
#3693315312
0"
#3696314812
1"
#3725000000
0!
#3726100000
1!
#3730815250
0"
#3733814812
1"
#3762500000
0!
#3763600000
1!
#3768315187
0"
#3771314812
1"
#3800000000
0!
#3801100000
1!
#3805815187
0"
#3808814875
1"
#3837500000
0!
#3838600000
1!
#3843315187
0"
#3846314812
1"
#3875000000
0!
#3876100000
1!
#3880815250
0"
#3883814812
1"
#3912500000
0!
#3913600000
1!
#3918315312
0"
#3921314812
1"
#3950000000
0!
#3951100000
1!
#3955815562
0"
#3958814812
1"
#3987500000
0!
#3988600000
1!
#3993315187
0"
#3996314875
1"
#4025000000
0!
#4026099999
1!
#4030815187
0"
#4033814812
1"
#4062500000
0!
#4063600000
1!
#4068315187
0"
#4071314812
1"
#4099999999
0!
#4101099999
1!
#4105815312
0"
#4108814812
1"
#4137500000
0!
#4138600000
1!
#4143315249
0"
#4146314812
1"
#4175000000
0!
#4176100000
1!
#4180815187
0"
#4183814812
1"
#4212500000
0!
#4213599999
1!
#4218315187
0"
#4221314937
1"
#4250000000
0!
#4251100000
1!
#4255815562
0"
#4258814812
1"
#4287499999
0!
#4288599999
1!
#4293315250
0"
#4296314812
1"
#4325000000
0!
#4326100000
1!
#4330815250
0"
#4333814812
1"
#4362500000
0!
#4363600000
1!
#4368315437
0"
#4371314812
1"
#4400000000
0!
#4401100000
1!
#4405815187
0"
#4408814812
1"
#4437500000
0!
#4438600000
1!
#4443315312
0"
#4446314812
1"
#4475000000
0!
#4476100000
1!
#4480815312
0"
#4483815375
1"
#4512500000
0!
#4513600000
1!
#4518315187
0"
#4521314812
1"
#4550000000
0!
#4551100000
1!
#4555815250
0"
#4558814875
1"
#4587500000
0!
#4588600000
1!
#4593315250
0"
#4596314937
1"
#4625000000
0!
#4626100000
1!
#4630815250
0"
#4633814812
1"
#4662500000
0!
#4663600000
1!
#4668315187
0"
#4671314875
1"
#4700000000
0!
#4701100000
1!
#4705815250
0"
#4708814812
1"
#4737500000
0!
#4738600000
1!
#4743315187
0"
#4746314812
1"
#4775000000
0!
#4776100000
1!
#4780815250
0"
#4783814812
1"
#4812500000
0!
#4813600000
1!
#4818315187
0"
#4821314875
1"
#4850000000
0!
#4851100000
1!
#4855815187
0"
#4858814937
1"
#4887500000
0!
#4888600000
1!
#4893315687
0"
#4896314875
1"
#4925000000
0!
#4926100000
1!
#4930815187
0"
#4933814812
1"
#4962500000
0!
#4963600000
1!
#4968315312
0"
#4971314812
1"
#5000000000
0!
#5001100000
1!
#5005815312
0"
#5008814937
1"
#5037500000
0!
#5038600000
1!
#5043315187
0"
#5046314937
1"
#5075000000
0!
#5076100000
1!
#5080815250
0"
#5083814812
1"
#5112500000
0!
#5113600000
1!
#5118315250
0"
#5121315250
1"
#5150000000
0!
#5151100000
1!
#5155815250
0"
#5158814812
1"
#5187500000
0!
#5188600000
1!
#5193315187
0"
#5196314875
1"
#5225000000
0!
#5226100000
1!
#5230815250
0"
#5233814812
1"
#5262500000
0!
#5263600000
1!
#5268315312
0"
#5271314812
1"
#5300000000
0!
#5301100000
1!
#5305815250
0"
#5308814812
1"
#5337500000
0!
#5338600000
1!
#5343315187
0"
#5346314812
1"
#5375000000
0!
#5376100000
1!
#5380815187
0"
#5383814875
1"
#5412500000
0!
#5413600000
1!
#5418315687
0"
#5421314812
1"
#5450000000
0!
#5451100000
1!
#5455815250
0"
#5458814812
1"
#5487500000
0!
#5488600000
1!
#5493315312
0"
#5496314812
1"
#5517600000
0!
#5518700000
1!
#5521463187
0"
#5524462812
1"
#5547700000
0!
#5548800000
1!
#5551563250
0"
#5554562812
1"
#5577800000
0!
#5578900000
1!
#5581663187
0"
#5584662812
1"
#5607900000
0!
#5609000000
1!
#5611763250
0"
#5614762812
1"
#5638000000
0!
#5639100000
1!
#5641863250
0"
#5644862812
1"
#5668100000
0!
#5669200000
1!
#5671963250
0"
#5674962812
1"
#5698200000
0!
#5699300000
1!
#5702063187
0"
#5705062812
1"
#5728300000
0!
#5729400000
1!
#5732163187
0"
#5735162812
1"
#5758400000
0!
#5759500000
1!
#5762263187
0"
#5765262812
1"
#5788500000
0!
#5789600000
1!
#5792363250
0"
#5795362812
1"
#5818600000
0!
#5819700000
1!
#5822463250
0"
#5825462812
1"
#5848700000
0!
#5849800000
1!
#5852563250
0"
#5855562937
1"
#5878800000
0!
#5879900000
1!
#5882663187
0"
#5885662875
1"
#5908900000
0!
#5910000000
1!
#5912763375
0"
#5915762812
1"
#5939000000
0!
#5940100000
1!
#5942863375
0"
#5945862812
1"
#5969100000
0!
#5970200000
1!
#5972963187
0"
#5975962812
1"
#5999200000
0!
#6000300000
1!
#6003063187
0"
#6006062812
1"
#6029300000
0!
#6030400000
1!
#6033163187
0"
#6036162812
1"
#6059400000
0!
#6060500000
1!
#6063263250
0"
#6066262812
1"
#6089500000
0!
#6090600000
1!
#6093363250
0"
#6096362875
1"
#6119600000
0!
#6120700000
1!
#6123463250
0"
#6126462875
1"
#6149700000
0!
#6150800000
1!
#6153563187
0"
#6156562937
1"
#6179800000
0!
#6180900000
1!
#6183663312
0"
#6186662812
1"
#6209900000
0!
#6211000000
1!
#6213763187
0"
#6216762812
1"
#6240000000
0!
#6241100000
1!
#6243863187
0"
#6246862812
1"
#6270100000
0!
#6271200000
1!
#6273963187
0"
#6276962812
1"
#6300200000
0!
#6301300000
1!
#6304063187
0"
#6307062937
1"
#6330300000
0!
#6331400000
1!
#6334163187
0"
#6337162937
1"
#6360400000
0!
#6361500000
1!
#6364263187
0"
#6367262937
1"
#6390500000
0!
#6391600000
1!
#6394363187
0"
#6397362812
1"
#6420600000
0!
#6421700000
1!
#6424463187
0"
#6427462812
1"
#6450700000
0!
#6451800000
1!
#6454563187
0"
#6457562875
1"
#6480800000
0!
#6481900000
1!
#6484663187
0"
#6487662875
1"
#6510900000
0!
#6512000000
1!
#6514763187
0"
#6517762812
1"
#6541000000
0!
#6542100000
1!
#6544863187
0"
#6547862875
1"
#6571100000
0!
#6572200000
1!
#6574967187
0"
#6577966812
1"
#6601200000
0!
#6602300000
1!
#6605063312
0"
#6608063375
1"
#6631300000
0!
#6632400000
1!
#6635163312
0"
#6638163375
1"
#6661400000
0!
#6662500000
1!
#6665263312
0"
#6668263375
1"
#6691500000
0!
#6692600000
1!
#6695363187
0"
#6698362812
1"
#6721600000
0!
#6722700000
1!
#6725463187
0"
#6728462812
1"
#6751700000
0!
#6752800000
1!
#6755563187
0"
#6758562937
1"
#6781800000
0!
#6782900000
1!
#6785663187
0"
#6788662937
1"
#6811900000
0!
#6813000000
1!
#6815763187
0"
#6818762812
1"
#6842000000
0!
#6843100000
1!
#6845863187
0"
#6848862875
1"
#6872100000
0!
#6873200000
1!
#6875963187
0"
#6878962875
1"
#6902200000
0!
#6903300000
1!
#6906063312
0"
#6909062812
1"
#6932300000
0!
#6933400000
1!
#6936163312
0"
#6939162812
1"
#6962400000
0!
#6963500000
1!
#6966263312
0"
#6969262812
1"
#6992500000
0!
#6993600000
1!
#6996363187
0"
#6999362875
1"
#7022600000
0!
#7023700000
1!
#7026463187
0"
#7029462875
1"
#7052700000
0!
#7053800000
1!
#7056563187
0"
#7059562812
1"
#7082800000
0!
#7083900000
1!
#7086663187
0"
#7089662812
1"
#7112900000
0!
#7114000000
1!
#7116763312
0"
#7119762812
1"
#7143000000
0!
#7144100000
1!
#7146863187
0"
#7149862812
1"
#7173100000
0!
#7174200000
1!
#7176963187
0"
#7179962812
1"
#7203200000
0!
#7204300000
1!
#7207063250
0"
#7210062812
1"
#7233300000
0!
#7234400000
1!
#7237163250
0"
#7240162812
1"
#7263400000
0!
#7264500000
1!
#7267263250
0"
#7270262812
1"
#7293500000
0!
#7294600000
1!
#7297363562
0"
#7300362812
1"
#7323600000
0!
#7324700000
1!
#7327463250
0"
#7330463312
1"
#7353700000
0!
#7354800000
1!
#7357563187
0"
#7360563312
1"
#7383800000
0!
#7384900000
1!
#7387663187
0"
#7390662812
1"
#7413900000
0!
#7415000000
1!
#7417763750
0"
#7420762812
1"
#7444000000
0!
#7445100000
1!
#7447863187
0"
#7450862875
1"
#7474100000
0!
#7475200000
1!
#7477963187
0"
#7480962875
1"
#7499600000
0!
#7500700000
1!
#7502243250
0"
#7505242812
1"
#7524700000
0!
#7525800000
1!
#7527239187
0"
#7530238812
1"
#7549800000
0!
#7550900000
1!
#7552339187
0"
#7555338812
1"
#7574900000
0!
#7576000000
1!
#7577439187
0"
#7580439000
1"
#7600000000
0!
#7601100000
1!
#7602539187
0"
#7605538875
1"
#7625100000
0!
#7626200000
1!
#7627639187
0"
#7630638812
1"
#7650200000
0!
#7651300000
1!
#7652739312
0"
#7655738812
1"
#7675300000
0!
#7676400000
1!
#7677839187
0"
#7680838812
1"
#7700400000
0!
#7701500000
1!
#7702939187
0"
#7705938812
1"
#7725500000
0!
#7726600000
1!
#7728039187
0"
#7731038812
1"
#7750600000
0!
#7751700000
1!
#7753139187
0"
#7756138812
1"
#7775700000
0!
#7776800000
1!
#7778239187
0"
#7781239000
1"
#7800800000
0!
#7801900000
1!
#7803339187
0"
#7806338812
1"
#7825900000
0!
#7827000000
1!
#7828439187
0"
#7831438812
1"
#7851000000
0!
#7852100000
1!
#7853539312
0"
#7856538812
1"
#7876100000
0!
#7877200000
1!
#7878639187
0"
#7881638812
1"
#7901200000
0!
#7902300000
1!
#7903739187
0"
#7906738812
1"
#7926300000
0!
#7927400000
1!
#7928839187
0"
#7931838812
1"
#7951400000
0!
#7952500000
1!
#7953939187
0"
#7956938812
1"
#7976500000
0!
#7977600000
1!
#7979039187
0"
#7982039000
1"
#8001600000
0!
#8002700000
1!
#8004139187
0"
#8007138812
1"
#8026700000
0!
#8027799999
1!
#8029239187
0"
#8032238812
1"
#8051800000
0!
#8052899999
1!
#8054339312
0"
#8057338812
1"
#8076900000
0!
#8077999999
1!
#8079439187
0"
#8082438812
1"
#8102000000
0!
#8103100000
1!
#8104539187
0"
#8107538812
1"
#8127100000
0!
#8128200000
1!
#8129639250
0"
#8132638812
1"
#8152200000
0!
#8153300000
1!
#8154739187
0"
#8157738812
1"
#8177300000
0!
#8178400000
1!
#8179839437
0"
#8182838812
1"
#8202400000
0!
#8203500000
1!
#8204939187
0"
#8207938812
1"
#8227499999
0!
#8228600000
1!
#8230039250
0"
#8233038875
1"
#8252599999
0!
#8253700000
1!
#8255139312
0"
#8258138812
1"
#8277699999
0!
#8278800000
1!
#8280239187
0"
#8283238937
1"
#8302799999
0!
#8303900000
1!
#8305339187
0"
#8308338812
1"
#8327900000
0!
#8329000000
1!
#8330439249
0"
#8333438812
1"
#8353000000
0!
#8354100000
1!
#8355539562
0"
#8358538812
1"
#8378100000
0!
#8379200000
1!
#8380639437
0"
#8383638812
1"
#8403200000
0!
#8404299999
1!
#8405739187
0"
#8408738812
1"
#8428300000
0!
#8429399999
1!
#8430839250
0"
#8433838812
1"
#8453400000
0!
#8454499999
1!
#8455939312
0"
#8458938812
1"
#8478500000
0!
#8479600000
1!
#8481039187
0"
#8484038937
1"
#8503600000
0!
#8504700000
1!
#8506139187
0"
#8509138812
1"
#8528700000
0!
#8529800000
1!
#8531239187
0"
#8534238812
1"
#8553800000
0!
#8554900000
1!
#8556339562
0"
#8559338812
1"
#8578900000
0!
#8580000000
1!
#8581439437
0"
#8584438812
1"
#8604000000
0!
#8605100000
1!
#8606539187
0"
#8609538812
1"
#8629100000
0!
#8630200000
1!
#8631639250
0"
#8634638812
1"
#8654200000
0!
#8655300000
1!
#8656739312
0"
#8659738812
1"
#8679300000
0!
#8680400000
1!
#8681839187
0"
#8684838937
1"
#8704400000
0!
#8705500000
1!
#8706939187
0"
#8709938812
1"
#8729500000
0!
#8730600000
1!
#8732039187
0"
#8735038812
1"
#8754600000
0!
#8755700000
1!
#8757139562
0"
#8760138812
1"
#8779700000
0!
#8780800000
1!
#8782239250
0"
#8785239187
1"
#8804800000
0!
#8805900000
1!
#8807339187
0"
#8810338812
1"
#8829900000
0!
#8831000000
1!
#8832439250
0"
#8835438812
1"
#8855000000
0!
#8856100000
1!
#8857539312
0"
#8860538812
1"
#8880100000
0!
#8881200000
1!
#8882639187
0"
#8885638937
1"
#8905200000
0!
#8906300000
1!
#8907739187
0"
#8910738937
1"
#8930300000
0!
#8931400000
1!
#8932839187
0"
#8935838812
1"
#8955400000
0!
#8956500000
1!
#8957939250
0"
#8960938812
1"
#8980500000
0!
#8981600000
1!
#8983039250
0"
#8986039187
1"
#9005600000
0!
#9006700000
1!
#9008139187
0"
#9011138812
1"
#9030700000
0!
#9031800000
1!
#9033239187
0"
#9036238812
1"
#9055800000
0!
#9056900000
1!
#9058339312
0"
#9061338812
1"
#9080900000
0!
#9082000000
1!
#9083439250
0"
#9086438937
1"
#9106000000
0!
#9107100000
1!
#9108539187
0"
#9111538937
1"
#9131100000
0!
#9132200000
1!
#9133643187
0"
#9136642812
1"
#9156200000
0!
#9157300000
1!
#9158739250
0"
#9161739312
1"
#9181300000
0!
#9182400000
1!
#9183839250
0"
#9186839187
1"
#9206400000
0!
#9207500000
1!
#9208939187
0"
#9211938812
1"
#9231500000
0!
#9232600000
1!
#9234039187
0"
#9237038812
1"
#9256600000
0!
#9257700000
1!
#9259139187
0"
#9262138812
1"
#9281700000
0!
#9282800000
1!
#9284239250
0"
#9287238937
1"
#9306800000
0!
#9307900000
1!
#9309339187
0"
#9312338937
1"
#9331900000
0!
#9333000000
1!
#9334439187
0"
#9337438812
1"
#9357000000
0!
#9358100000
1!
#9359539187
0"
#9362538812
1"
#9382100000
0!
#9383200000
1!
#9384639187
0"
#9387639187
1"
#9407200000
0!
#9408300000
1!
#9409739187
0"
#9412738875
1"
#9432300000
0!
#9433400000
1!
#9434839187
0"
#9437838812
1"
#9457400000
0!
#9458500000
1!
#9459939187
0"
#9462938812
1"
#9482500000
0!
#9483600000
1!
#9485039250
0"
#9488038937
1"
#9504000000
0!
#9505100000
1!
#9505591250
0"
#9508590812
1"
#9525500000
0!
#9526600000
1!
#9527091250
0"
#9530090812
1"
#9547000000
0!
#9548100000
1!
#9548591250
0"
#9551591312
1"
#9568500000
0!
#9569600000
1!
#9570091187
0"
#9573090875
1"
#9590000000
0!
#9591100000
1!
#9591591187
0"
#9594590812
1"
#9611500000
0!
#9612600000
1!
#9613091375
0"
#9616090812
1"
#9633000000
0!
#9634100000
1!
#9634591187
0"
#9637590812
1"
#9654500000
0!
#9655600000
1!
#9656091187
0"
#9659090875
1"
#9676000000
0!
#9677100000
1!
#9677591187
0"
#9680591250
1"
#9697500000
0!
#9698600000
1!
#9699091312
0"
#9702090812
1"
#9719000000
0!
#9720100000
1!
#9720591312
0"
#9723590812
1"
#9740500000
0!
#9741600000
1!
#9742091312
0"
#9745091375
1"
#9762000000
0!
#9763100000
1!
#9763591312
0"
#9766590812
1"
#9783500000
0!
#9784600000
1!
#9785091187
0"
#9788090812
1"
#9805000000
0!
#9806100000
1!
#9806591250
0"
#9809591187
1"
#9826500000
0!
#9827600000
1!
#9828091250
0"
#9831090812
1"
#9848000000
0!
#9849100000
1!
#9849591250
0"
#9852590812
1"
#9869500000
0!
#9870600000
1!
#9871091250
0"
#9874091312
1"
#9891000000
0!
#9892100000
1!
#9892591250
0"
#9895590812
1"
#9912500000
0!
#9913600000
1!
#9914091187
0"
#9917090812
1"
#9934000000
0!
#9935100000
1!
#9935591187
0"
#9938591125
1"
#9955500000
0!
#9956600000
1!
#9957091187
0"
#9960090812
1"
#9977000000
0!
#9978100000
1!
#9978591187
0"
#9981590812
1"
#9998500000
0!
#9999600000
1!
#10000091187
0"
#10003091250
1"
#10020000000
0!
#10021100000
1!
#10021591312
0"
#10024590812
1"
#10041500000
0!
#10042600000
1!
#10043091187
0"
#10046090812
1"
#10063000000
0!
#10064100000
1!
#10064591250
0"
#10067591187
1"
#10084500000
0!
#10085600000
1!
#10086091250
0"
#10089090812
1"
#10106000000
0!
#10107100000
1!
#10107591250
0"
#10110590812
1"
#10127500000
0!
#10128600000
1!
#10129091250
0"
#10132091312
1"
#10149000000
0!
#10150100000
1!
#10150591250
0"
#10153590812
1"
#10170500000
0!
#10171600000
1!
#10172091187
0"
#10175090812
1"
#10192000000
0!
#10193100000
1!
#10193591187
0"
#10196591125
1"
#10213500000
0!
#10214600000
1!
#10215091187
0"
#10218090812
1"
#10235000000
0!
#10236100000
1!
#10236591187
0"
#10239590812
1"
#10256500000
0!
#10257600000
1!
#10258091187
0"
#10261091250
1"
#10278000000
0!
#10279100000
1!
#10279591187
0"
#10282590812
1"
#10299500000
0!
#10300600000
1!
#10301091312
0"
#10304090812
1"
#10321000000
0!
#10322100000
1!
#10322591250
0"
#10325591062
1"
#10342500000
0!
#10343600000
1!
#10344091312
0"
#10347090812
1"
#10364000000
0!
#10365100000
1!
#10365591187
0"
#10368590812
1"
#10385500000
0!
#10386600000
1!
#10387095187
0"
#10390094812
1"
#10407000000
0!
#10408100000
1!
#10408591250
0"
#10411590812
1"
#10428500000
0!
#10429600000
1!
#10430091250
0"
#10433090812
1"
#10450000000
0!
#10451100000
1!
#10451591187
0"
#10454591312
1"
#10471500000
0!
#10472600000
1!
#10473091250
0"
#10476090812
1"
#10493000000
0!
#10494100000
1!
#10494591187
0"
#10497590812
1"
#10514500000
0!
#10515600000
1!
#10516091187
0"
#10519091125
1"
#10536000000
0!
#10537100000
1!
#10537591187
0"
#10540590812
1"
#10557500000
0!
#10558600000
1!
#10559091187
0"
#10562090812
1"
#10579000000
0!
#10580100000
1!
#10580591250
0"
#10583591250
1"
#10600500000
0!
#10601600000
1!
#10602091187
0"
#10605090812
1"
#10622000000
0!
#10623100000
1!
#10623591312
0"
#10626590812
1"
#10643500000
0!
#10644600000
1!
#10645091250
0"
#10648091062
1"
#10665000000
0!
#10666100000
1!
#10666591187
0"
#10669590812
1"
#10686500000
0!
#10687600000
1!
#10688091187
0"
#10691090875
1"
#10708000000
0!
#10709100000
1!
#10709591187
0"
#10712591187
1"
#10729500000
0!
#10730600000
1!
#10731091250
0"
#10734090812
1"
#10751000000
0!
#10752100000
1!
#10752591250
0"
#10755590812
1"
#10772500000
0!
#10773600000
1!
#10774091187
0"
#10777091000
1"
#10794000000
0!
#10795100000
1!
#10795591250
0"
#10798590812
1"
#10815500000
0!
#10816600000
1!
#10817091187
0"
#10820090812
1"
#10837000000
0!
#10838100000
1!
#10838591187
0"
#10841591125
1"
#10858500000
0!
#10859600000
1!
#10860091187
0"
#10863090937
1"
#10880000000
0!
#10881100000
1!
#10881591187
0"
#10884590812
1"
#10901500000
0!
#10902600000
1!
#10903091250
0"
#10906090937
1"
#10923000000
0!
#10924100000
1!
#10924591187
0"
#10927590812
1"
#10944500000
0!
#10945600000
1!
#10946091312
0"
#10949090812
1"
#10966000000
0!
#10967100000
1!
#10967591250
0"
#10970591062
1"
#10987500000
0!
#10988600000
1!
#10989091187
0"
#10992090875
1"
#11009000000
0!
#11010100000
1!
#11010591187
0"
#11013590875
1"
#11030500000
0!
#11031600000
1!
#11032091187
0"
#11035090875
1"
#11052000000
0!
#11053100000
1!
#11053591250
0"
#11056590812
1"
#11073500000
0!
#11074600000
1!
#11075091250
0"
#11078090812
1"
#11095000000
0!
#11096100000
1!
#11096591187
0"
#11099591000
1"
#11116500000
0!
#11117600000
1!
#11118091187
0"
#11121090812
1"
#11138000000
0!
#11139100000
1!
#11139591187
0"
#11142590812
1"
#11159500000
0!
#11160600000
1!
#11161091250
0"
#11164090812
1"
#11181000000
0!
#11182100000
1!
#11182591187
0"
#11185590937
1"
#11202500000
0!
#11203600000
1!
#11204091187
0"
#11207090937
1"
#11224000000
0!
#11225100000
1!
#11225591250
0"
#11228590937
1"
#11245500000
0!
#11246600000
1!
#11247091187
0"
#11250090937
1"
#11267000000
0!
#11268100000
1!
#11268591312
0"
#11271590812
1"
#11288500000
0!
#11289600000
1!
#11290091187
0"
#11293090875
1"
#11310000000
0!
#11311100000
1!
#11311591187
0"
#11314590875
1"
#11331500000
0!
#11332600000
1!
#11333091187
0"
#11336090875
1"
#11353000000
0!
#11354100000
1!
#11354591187
0"
#11357590875
1"
#11374500000
0!
#11375600000
1!
#11376091250
0"
#11379090875
1"
#11396000000
0!
#11397100000
1!
#11397591250
0"
#11400590812
1"
#11417500000
0!
#11418600000
1!
#11419091187
0"
#11422090812
1"
#11439000000
0!
#11440100000
1!
#11440591187
0"
#11443590812
1"
#11460500000
0!
#11461600000
1!
#11462091187
0"
#11465090812
1"
#11482000000
0!
#11483100000
1!
#11483591250
0"
#11486590812
1"
#11500800000
0!
#11501691250
0"
#11501900000
1!
#11504690812
1"
#11519600000
0!
#11520491187
0"
#11520700000
1!
#11523490875
1"
#11538400000
0!
#11539291250
0"
#11539500000
1!
#11542290812
1"
#11557200000
0!
#11558091187
0"
#11558300000
1!
#11561090875
1"
#11576000000
0!
#11576891187
0"
#11577100000
1!
#11579890812
1"
#11594800000
0!
#11595691187
0"
#11595900000
1!
#11598690875
1"
#11613600000
0!
#11614491187
0"
#11614700000
1!
#11617490812
1"
#11632400000
0!
#11633291250
0"
#11633500000
1!
#11636291312
1"
#11651200000
0!
#11652091250
0"
#11652300000
1!
#11655090812
1"
#11670000000
0!
#11670891250
0"
#11671100000
1!
#11673890875
1"
#11688800000
0!
#11689691312
0"
#11689900000
1!
#11692690812
1"
#11707600000
0!
#11708491187
0"
#11708700000
1!
#11711490812
1"
#11726400000
0!
#11727291187
0"
#11727500000
1!
#11730290812
1"
#11745200000
0!
#11746091187
0"
#11746300000
1!
#11749090812
1"
#11764000000
0!
#11764891187
0"
#11765100000
1!
#11767890812
1"
#11782800000
0!
#11783691187
0"
#11783900000
1!
#11786690937
1"
#11801600000
0!
#11802491187
0"
#11802700000
1!
#11805490812
1"
#11820400000
0!
#11821291187
0"
#11821500000
1!
#11824290937
1"
#11839200000
0!
#11840091187
0"
#11840300000
1!
#11843091125
1"
#11858000000
0!
#11858891187
0"
#11859100000
1!
#11861890812
1"
#11876800000
0!
#11877691750
0"
#11877900000
1!
#11880690812
1"
#11895600000
0!
#11896491187
0"
#11896700000
1!
#11899490875
1"
#11914400000
0!
#11915291625
0"
#11915500000
1!
#11918290812
1"
#11933200000
0!
#11934091187
0"
#11934300000
1!
#11937090875
1"
#11952000000
0!
#11952891187
0"
#11953100000
1!
#11955890812
1"
#11970800000
0!
#11971691187
0"
#11971900000
1!
#11974690812
1"
#11989600000
0!
#11990491250
0"
#11990700000
1!
#11993490812
1"
#12008400000
0!
#12009291187
0"
#12009500000
1!
#12012290812
1"
#12027200000
0!
#12028091187
0"
#12028300000
1!
#12031090812
1"
#12046000000
0!
#12046891250
0"
#12047100000
1!
#12049890937
1"
#12064800000
0!
#12065691187
0"
#12065900000
1!
#12068690812
1"
#12083600000
0!
#12084491562
0"
#12084700000
1!
#12087490812
1"
#12102400000
0!
#12103291250
0"
#12103500000
1!
#12106290812
1"
#12121200000
0!
#12122091437
0"
#12122300000
1!
#12125090812
1"
#12140000000
0!
#12140891312
0"
#12141100000
1!
#12143890812
1"
#12158800000
0!
#12159691187
0"
#12159900000
1!
#12162690812
1"
#12177600000
0!
#12178491187
0"
#12178700000
1!
#12181490812
1"
#12196400000
0!
#12197291187
0"
#12197500000
1!
#12200290812
1"
#12215200000
0!
#12216091187
0"
#12216300000
1!
#12219090812
1"
#12234000000
0!
#12234891187
0"
#12235100000
1!
#12237890875
1"
#12252800000
0!
#12253691187
0"
#12253900000
1!
#12256690875
1"
#12271600000
0!
#12272491312
0"
#12272700000
1!
#12275490812
1"
#12290400000
0!
#12291291375
0"
#12291500000
1!
#12294290812
1"
#12309200000
0!
#12310091250
0"
#12310300000
1!
#12313090812
1"
#12328000000
0!
#12328891187
0"
#12329100000
1!
#12331891312
1"
#12346800000
0!
#12347691187
0"
#12347900000
1!
#12350690875
1"
#12365600000
0!
#12366491625
0"
#12366700000
1!
#12369490812
1"
#12384400000
0!
#12385291312
0"
#12385500000
1!
#12388290812
1"
#12403200000
0!
#12404091187
0"
#12404300000
1!
#12407090812
1"
#12422000000
0!
#12422891187
0"
#12423100000
1!
#12425890812
1"
#12440800000
0!
#12441691187
0"
#12441900000
1!
#12444690812
1"
#12459600000
0!
#12460491187
0"
#12460700000
1!
#12463490812
1"
#12478400000
0!
#12479291312
0"
#12479500000
1!
#12482290812
1"
#12497200000
0!
#12498091250
0"
#12498300000
1!
#12501090937
1"
#12516000000
0!
#12516891250
0"
#12517100000
1!
#12519890937
1"
#12534800000
0!
#12535691250
0"
#12535900000
1!
#12538690812
1"
#12553600000
0!
#12554491250
0"
#12554700000
1!
#12557490812
1"
#12572400000
0!
#12573291437
0"
#12573500000
1!
#12576290812
1"
#12591200000
0!
#12592091187
0"
#12592300000
1!
#12595090875
1"
#12610000000
0!
#12610891250
0"
#12611100000
1!
#12613890812
1"
#12628800000
0!
#12629691187
0"
#12629900000
1!
#12632690875
1"
#12647600000
0!
#12648491187
0"
#12648700000
1!
#12651490812
1"
#12666400000
0!
#12667291187
0"
#12667500000
1!
#12670290812
1"
#12685200000
0!
#12686091250
0"
#12686300000
1!
#12689090812
1"
#12704000000
0!
#12704891187
0"
#12705100000
1!
#12707890812
1"
#12722800000
0!
#12723691187
0"
#12723900000
1!
#12726690812
1"
#12741600000
0!
#12742491187
0"
#12742700000
1!
#12745490875
1"
#12760400000
0!
#12761291187
0"
#12761500000
1!
#12764290812
1"
#12779200000
0!
#12780091250
0"
#12780300000
1!
#12783091312
1"
#12798000000
0!
#12798891312
0"
#12799100000
1!
#12801890812
1"
#12816800000
0!
#12817691250
0"
#12817900000
1!
#12820690875
1"
#12835600000
0!
#12836491312
0"
#12836700000
1!
#12839490812
1"
#12854400000
0!
#12855291187
0"
#12855500000
1!
#12858290812
1"
#12873200000
0!
#12874091187
0"
#12874300000
1!
#12877090812
1"
#12892000000
0!
#12892891187
0"
#12893100000
1!
#12895890812
1"
#12910800000
0!
#12911691250
0"
#12911900000
1!
#12914690812
1"
#12929600000
0!
#12930491187
0"
#12930700000
1!
#12933490937
1"
#12948400000
0!
#12949291187
0"
#12949500000
1!
#12952290812
1"
#12967200000
0!
#12968091250
0"
#12968300000
1!
#12971090812
1"
#12986000000
0!
#12986891187
0"
#12987100000
1!
#12989891125
1"
#13004800000
0!
#13005691187
0"
#13005900000
1!
#13008690812
1"
#13023600000
0!
#13024491750
0"
#13024700000
1!
#13027490812
1"
#13042400000
0!
#13043291187
0"
#13043500000
1!
#13046290875
1"
#13061200000
0!
#13062091625
0"
#13062300000
1!
#13065090812
1"
#13080000000
0!
#13080891187
0"
#13081100000
1!
#13083890875
1"
#13098800000
0!
#13099691187
0"
#13099900000
1!
#13102690812
1"
#13117600000
0!
#13118491187
0"
#13118700000
1!
#13121490812
1"
#13136400000
0!
#13137291250
0"
#13137500000
1!
#13140290812
1"
#13155200000
0!
#13156091187
0"
#13156300000
1!
#13159090812
1"
#13174000000
0!
#13174891187
0"
#13175100000
1!
#13177890875
1"
#13192800000
0!
#13193691250
0"
#13193900000
1!
#13196690937
1"
#13211600000
0!
#13212491187
0"
#13212700000
1!
#13215490812
1"
#13230400000
0!
#13231291562
0"
#13231500000
1!
#13234290812
1"
#13249200000
0!
#13250091250
0"
#13250300000
1!
#13253090812
1"
#13268000000
0!
#13268891250
0"
#13269100000
1!
#13271890812
1"
#13286800000
0!
#13287691312
0"
#13287900000
1!
#13290690812
1"
#13305600000
0!
#13306491187
0"
#13306700000
1!
#13309490812
1"
#13324400000
0!
#13325291187
0"
#13325500000
1!
#13328290812
1"
#13343200000
0!
#13344091187
0"
#13344300000
1!
#13347090812
1"
#13362000000
0!
#13362891187
0"
#13363100000
1!
#13365890812
1"
#13380800000
0!
#13381691187
0"
#13381900000
1!
#13384690875
1"
#13399600000
0!
#13400491187
0"
#13400700000
1!
#13403490875
1"
#13418400000
0!
#13419291312
0"
#13419500000
1!
#13422290812
1"
#13437200000
0!
#13438091187
0"
#13438300000
1!
#13441090875
1"
#13456000000
0!
#13456891250
0"
#13457100000
1!
#13459890812
1"
#13474800000
0!
#13475691187
0"
#13475900000
1!
#13478691000
1"
#13493600000
0!
#13494491187
0"
#13494700000
1!
#13497490875
1"
#13510300000
0!
#13510644875
0"
#13511400000
1!
#13513643062
1"
#13527000000
0!
#13527344750
0"
#13528100000
1!
#13530342812
1"
#13543700000
0!
#13544044812
0"
#13544800000
1!
#13547042812
1"
#13560400000
0!
#13560744750
0"
#13561500000
1!
#13563742812
1"
#13577100000
0!
#13577444875
0"
#13578200000
1!
#13580442812
1"
#13593800000
0!
#13594144750
0"
#13594900000
1!
#13597142812
1"
#13610500000
0!
#13610844812
0"
#13611600000
1!
#13613842812
1"
#13627200000
0!
#13627544812
0"
#13628300000
1!
#13630542875
1"
#13643900000
0!
#13644244750
0"
#13645000000
1!
#13647242937
1"
#13660600000
0!
#13660945125
0"
#13661700000
1!
#13663942875
1"
#13677300000
0!
#13677644750
0"
#13678400000
1!
#13680642875
1"
#13694000000
0!
#13694344812
0"
#13695100000
1!
#13697342812
1"
#13710700000
0!
#13711044750
0"
#13711800000
1!
#13714042812
1"
#13727400000
0!
#13727744812
0"
