analysis/wokwi-logic.vcd
$version Generated by Wokwi.com $end
$date Tue, 16 Sep 2025 19:04:57 GMT $end
$timescale 1ns $end
$scope module logic $end
$var wire 1 ! D2 $end
$var wire 1 " D3 $end
$var wire 1 # D4 $end
$upscope $end
$enddefinitions $end
#0
0!
#0
0"
#0
0#
#0
1!
#12792062
1"
#12792062
0!
#13792062
1!
#1014912875
1#
#1034912875
0!
#1035578874
1!
#1055578874
0!
#1056244875
1!
#1076244875
0!
#1076910875
1!
#1096910875
0!
#1097576875
1!
#1098281687
0"
#1101283312
1"
#1117576875
0!
#1118242875
1!
#1118947562
0"
#1121949312
1"
#1138242875
0!
#1138908875
1!
#1139613562
0"
#1142615562
1"
#1158908875
0!
#1159574875
1!
#1160279562
0"
#1163281312
1"
#1179574875
0!
#1180240875
1!
#1180945562
0"
#1183947312
1"
#1183947312
0!
#1184947312
1!
#1200240875
0!
#1200906875
1!
#1201611750
0"
#1204613375
1"
#1220906875
0!
#1221572875
1!
#1222277562
0"
#1225279312
1"
#1225279312
0!
#1226279312
1!
#1241572875
0!
#1242238875
1!
#1242943562
0"
#1245945562
1"
#1262238875
0!
#1262904875
1!
#1263609625
0"
#1266611312
1"
#1282904875
0!
#1283570875
1!
#1284275562
0"
#1287277562
1"
#1303570875
0!
#1304236875
1!
#1304941562
0"
#1307943312
1"
#1324236875
0!
#1324902875
1!
#1325608187
0"
#1328609812
1"
#1344902875
0!
#1345568875
1!
#1346273125
0"
#1349274875
1"
#1365568875
0!
#1366234875
1!
#1366939562
0"
#1369941312
1"
#1386234875
0!
#1386900875
1!
#1387605562
0"
#1390607312
1"
#1406900875
0!
#1407566875
1!
#1408271562
0"
#1411273375
1"
#1411273375
0!
#1412273375
1!
#1427566875
0!
#1428232875
1!
#1428937562
0"
#1431939312
1"
#1448232875
0!
#1448898875
1!
#1449603625
0"
#1452605375
1"
#1468898875
0!
#1469564875
1!
#1470269562
0"
#1473271312
1"
#1489564875
0!
#1490230875
1!
#1490935625
0"
#1493937312
1"
#1510230875
0!
#1510896875
1!
#1511601562
0"
#1514603312
1"
#1530896875
0!
#1531562875
1!
#1532267687
0"
#1535269312
1"
#1551562875
0!
#1552228875
1!
#1552933562
0"
#1555935312
1"
#1572228875
0!
#1572894875
1!
#1573599687
0"
#1576601312
1"
#1592894875
0!
#1593560875
1!
#1594265562
0"
#1597267312
1"
#1613560875
0!
#1614226875
1!
#1614931687
0"
#1617933312
1"
#1634226875
0!
#1634892875
1!
#1635597625
0"
#1638599625
1"
#1654892875
0!
#1655558875
1!
#1656263562
0"
#1659265312
1"
#1675558875
0!
#1676224875
1!
#1676929625
0"
#1679931625
1"
#1696224875
0!
#1696890875
1!
#1697595562
0"
#1700597312
1"
#1716890875
0!
#1717556875
1!
#1718261625
0"
#1721263625
1"
#1737556875
0!
#1738222875
1!
#1738927562
0"
#1741929312
1"
#1758222875
0!
#1758888875
1!
#1759593562
0"
#1762595375
1"
#1778888875
0!
#1779554875
1!
#1780259562
0"
#1783261312
1"
#1799554875
0!
#1800220875
1!
#1800926250
0"
#1803927875
1"
#1820220875
0!
#1820886875
1!
#1821591062
0"
#1824592812
1"
#1824592812
0!
#1825592812
1!
#1840886875
0!
#1841552875
1!
#1842257562
0"
#1845259375
1"
#1861552875
0!
#1862218875
1!
#1862923625
0"
#1865925375
1"
#1882218875
0!
#1882884875
1!
#1883589562
0"
#1886591437
1"
#1902884875
0!
#1903550875
1!
#1904255625
0"
#1907257375
1"
#1923550875
0!
#1924216875
1!
#1924921562
0"
#1927923437
1"
#1944216875
0!
#1944882875
1!
#1945587625
0"
#1948589375
1"
#1948589375
0!
#1949589375
1!
#1964882875
0!
#1965548875
1!
#1966253562
0"
#1969255312
1"
#1985548875
0!
#1986214875
1!
#1986919562
0"
#1989921312
1"
#2006214875
0!
#2006880874
1!
#2007585562
0"
#2010587875
1"
#2026880874
0!
#2027546875
1!
#2028251562
0"
#2031253312
1"
#2047546875
0!
#2048212875
1!
#2048917562
0"
#2051919874
1"
#2068212875
0!
#2068878874
1!
#2069583562
0"
#2072585312
1"
#2088878874
0!
#2089544875
1!
#2090249562
0"
#2093251500
1"
#2109544875
0!
#2110210875
1!
#2110915562
0"
#2113917312
1"
#2130210875
0!
#2130876874
1!
#2131582187
0"
#2134583875
1"
#2150876875
0!
#2151542875
1!
#2152247062
0"
#2155248812
1"
#2171542875
0!
#2172208875
1!
#2172914187
0"
#2175915812
1"
#2192208875
0!
#2192874875
1!
#2193579125
0"
#2196580812
1"
#2212874875
0!
#2213540875
1!
#2214246062
0"
#2217247812
1"
#2233540875
0!
#2234206875
1!
#2234911125
0"
#2237912875
1"
#2254206875
0!
#2254872875
1!
#2255577562
0"
#2258579375
1"
#2274872875
0!
#2275538875
1!
#2276243562
0"
#2279245437
1"
#2295538875
0!
#2296204875
1!
#2296909562
0"
#2299911375
1"
#2316204875
0!
#2316870875
1!
#2317575562
0"
#2320577500
1"
#2336870875
0!
#2337536875
1!
#2338241562
0"
#2341243312
1"
#2357536875
0!
#2358202875
1!
#2358907562
0"
#2361909500
1"
#2378202875
0!
#2378868875
1!
#2379573562
0"
#2382575312
1"
#2398868875
0!
#2399534875
1!
#2400239562
0"
#2403241500
1"
#2419534875
0!
#2420200875
1!
#2420905562
0"
#2423907312
1"
#2440200875
0!
#2440866875
1!
#2441572125
0"
#2444573812
1"
#2460866875
0!
#2461532875
1!
#2462237562
0"
#2465239312
1"
#2481532875
0!
#2482198875
1!
#2482904125
0"
#2485905812
1"
#2485905812
0!
#2486905812
1!
#2502198875
0!
#2502864875
1!
#2503569375
0"
#2506570875
1"
#2522864875
0!
#2523530875
1!
#2524235625
0"
#2527237312
1"
#2543530875
0!
#2544196875
1!
#2544901625
0"
#2547903375
1"
#2564196875
0!
#2564862875
1!
#2565567625
0"
#2568569312
1"
#2584862875
0!
#2585528875
1!
#2586233625
0"
#2589235375
1"
#2605528875
0!
#2606194875
1!
#2606899625
0"
#2609901312
1"
#2626194875
0!
#2626860875
1!
#2627565625
0"
#2630567375
1"
#2646860875
0!
#2647526875
1!
#2648231937
0"
#2651233812
1"
#2667526875
0!
#2668192875
1!
#2668897562
0"
#2671899500
1"
#2688192875
0!
#2688858875
1!
#2689563937
0"
#2692565812
1"
#2708858875
0!
#2709524875
1!
#2710229562
0"
#2713231500
1"
#2729524875
0!
#2730190875
1!
#2730895625
0"
#2733897312
1"
#2750190875
0!
#2750856875
1!
#2751561562
0"
#2754563500
1"
#2770856875
0!
#2771522875
1!
#2772227625
0"
#2775229312
1"
#2791522875
0!
#2792188875
1!
#2792893562
0"
#2795895562
1"
#2795895562
0!
#2796895562
1!
#2812188875
0!
#2812854875
1!
#2813560062
0"
#2816561875
1"
#2832854875
0!
#2833520875
1!
#2834225625
0"
#2837227375
1"
#2853520875
0!
#2854186875
1!
#2854892062
0"
#2857893875
1"
#2874186875
0!
#2874852875
1!
#2875557562
0"
#2878559375
1"
#2894852875
0!
#2895518875
1!
#2896223687
0"
#2899225312
1"
#2915518875
0!
#2916184875
1!
#2916889562
0"
#2919891312
1"
#2936184875
0!
#2936850875
1!
#2937555687
0"
#2940557312
1"
#2956850875
0!
#2957516875
1!
#2958221562
0"
#2961223312
1"
#2977516875
0!
#2978182875
1!
#2978887687
0"
#2981889312
1"
#2998182875
0!
#2998848875
1!
#2999553562
0"
#3002555375
1"
#3002555375
0!
#3003555375
1!
#3018848875
0!
#3019514875
1!
#3020219875
0"
#3023221375
1"
#3039514875
0!
#3040180875
1!
#3040885562
0"
#3043887312
1"
#3060180875
0!
#3060846875
1!
#3061551875
0"
#3064553375
1"
#3080846875
0!
#3081512875
1!
#3082217562
0"
#3085219312
1"
#3101512875
0!
#3102178875
1!
#3102883625
0"
#3105885375
1"
#3122178875
0!
#3122844875
1!
#3123549625
0"
#3126551812
1"
#3142844875
0!
#3143510875
1!
#3144215625
0"
#3147217312
1"
#3163510875
0!
#3164176875
1!
#3164881625
0"
#3167883812
1"
#3184176875
0!
#3184842875
1!
#3185547625
0"
#3188549312
1"
#3204842875
0!
#3205508875
1!
#3206213625
0"
#3209215812
1"
#3225508875
0!
#3226174875
1!
#3226879562
0"
#3229881312
1"
#3246174875
0!
#3246840875
1!
#3247545750
0"
#3250547437
1"
#3250547437
0!
#3251547437
1!
#3266840875
0!
#3267506875
1!
#3268211687
0"
#3271213312
1"
#3271213312
0!
#3272213312
1!
#3287506875
0!
#3288172875
1!
#3288877625
0"
#3291879312
1"
#3308172875
0!
#3308838875
1!
#3309543562
0"
#3312545500
1"
#3312545500
0!
#3313545500
1!
#3328838875
0!
#3329504875
1!
#3330209687
0"
#3333211312
1"
#3349504875
0!
#3350170875
1!
#3350875625
0"
#3353877312
1"
#3370170875
0!
#3370836875
1!
#3371541687
0"
#3374543312
1"
#3390836875
0!
#3391502875
1!
#3392207625
0"
#3395209312
1"
#3411502875
0!
#3412168875
1!
#3412873625
0"
#3415875312
1"
#3432168875
0!
#3432834875
1!
#3433539625
0"
#3436541312
1"
#3452834875
0!
#3453500875
1!
#3454205625
0"
#3457207312
1"
#3473500875
0!
#3474166875
1!
#3474871625
0"
#3477873312
1"
#3494166875
0!
#3494832875
1!
#3495537625
0"
#3498539375
1"
#3514832875
0!
#3515498875
1!
#3516203625
0"
#3519205312
1"
#3535498875
0!
#3536164875
1!
#3536869625
0"
#3539871375
1"
#3556164875
0!
#3556830875
1!
#3557535937
0"
#3560537812
1"
#3576830875
0!
#3577496875
1!
#3578201562
0"
#3581203500
1"
#3597496875
0!
#3598162875
1!
#3598867937
0"
#3601869812
1"
#3618162875
0!
#3618828875
1!
#3619533562
0"
#3622535500
1"
#3622535500
0!
#3623535500
1!
#3638828875
0!
#3639494875
1!
#3640199562
0"
#3643201750
1"
#3659494875
0!
#3660160875
1!
#3660865562
0"
#3663867312
1"
#3680160875
0!
#3680826875
1!
#3681531687
0"
#3684533375
1"
#3700826875
0!
#3701492875
1!
#3702197625
0"
#3705199375
1"
#3721492875
0!
#3722158875
1!
#3722863687
0"
#3725865375
1"
#3742158875
0!
#3742824875
1!
#3743529625
0"
#3746531375
1"
#3762824875
0!
#3763490875
1!
#3764195687
0"
#3767197375
1"
#3783490875
0!
#3784156875
1!
#3784861562
0"
#3787863375
1"
#3804156875
0!
#3804822875
1!
#3805527750
0"
#3808529375
1"
#3824822875
0!
#3825488875
1!
#3826193562
0"
#3829195312
1"
#3845488875
0!
#3846154875
1!
#3846859750
0"
#3849861375
1"
#3866154875
0!
#3866820875
1!
#3867525562
0"
#3870527312
1"
#3886820875
0!
#3887486875
1!
#3888191750
0"
#3891193375
1"
#3907486875
0!
#3908152875
1!
#3908857562
0"
#3911859375
1"
#3928152875
0!
#3928818875
1!
#3929523625
0"
#3932525312
1"
#3948818875
0!
#3949484875
1!
#3950189562
0"
#3953191375
1"
#3969484875
0!
#3970150875
1!
#3970855625
0"
#3973857312
1"
#3990150875
0!
#3990816875
1!
#3991521562
0"
#3994523375
1"
#4010816874
0!
#4011482874
1!
#4012187562
0"
#4015189312
1"
#4031482875
0!
#4032148875
1!
#4032854000
0"
#4035855812
1"
#4052148875
0!
#4052814875
1!
#4053519562
0"
#4056521312
1"
#4072814874
0!
#4073480874
1!
#4074186000
0"
#4077187812
1"
#4093480875
0!
#4094146875
1!
#4094851562
0"
#4097853312
1"
#4114146875
0!
#4114812875
1!
#4115518000
0"
#4118519812
1"
#4133220875
0!
#4133814874
1!
#4134181062
0"
#4137182812
1"
#4137182812
0!
#4138182812
1!
#4151160875
0!
#4151722875
1!
#4151826625
0"
#4154828375
1"
#4168171874
0!
#4168705874
1!
#4184384875
0!
#4184894875
1!
#4184939562
0"
#4187606812
1"
#4199901875
0!
#4200390875
1!
#4200456250
0"
#4202951312
1"
#4214649062
0"
#4214805874
0!
#4215276875
1!
#4217701937
1"
#4228854062
0"
#4229164875
0!
#4229618875
1!
#4231931312
1"
#4242593624
0"
#4243033875
0!
#4243472875
1!
#4245683875
1"
#4255928625
0"
#4256460875
0!
#4256886875
1!
#4259003375
1"
#4268867062
0"
#4269484875
0!
#4269897875
1!
#4271929812
1"
#4281449562
0"
#4282139875
0!
#4282541874
1!
#4284501312
1"
#4284501312
0!
#4285501312
1!
#4293692124
0"
#4294455874
0!
#4294846875
1!
#4296733812
1"
#4305635125
0"
#4306458875
0!
#4306840875
1!
#4308672437
1"
#4317289125
0"
#4318171875
0!
#4318544875
1!
#4320319312
1"
#4328673625
0"
#4329613875
0!
#4329977875
1!
#4331698812
1"
#4339818062
0"
#4340802875
0!
#4341158875
1!
#4342835812
1"
#4342835812
0!
#4343835812
1!
#4350715625
0"
#4351755875
0!
#4352104875
1!
#4353739812
1"
#4361405125
0"
#4362486875
0!
#4362828875
1!
#4364418812
1"
#4371886625
0"
#4373008875
0!
#4373344875
1!
#4374897812
1"
#4382168062
0"
#4383333875
0!
#4383662875
1!
#4385182312
1"
#4392276062
0"
#4393471875
0!
#4393795875
1!
#4395286312
1"
#4402198562
0"
#4403433875
0!
#4403751875
1!
#4405211812
1"
#4411960625
0"
#4413227875
0!
#4413540875
1!
#4414969812
1"
#4421565562
0"
#4422861875
0!
#4423169875
1!
#4424575812
1"
#4431019062
0"
#4432343875
0!
#4432646875
1!
#4434025312
1"
#4440331062
0"
#4441680875
0!
#4441978875
1!
#4443336875
1"
#4449503250
0"
#4450878875
0!
#4451172875
1!
#4452510437
1"
#4458547625
0"
#4459943875
0!
#4460233875
1!
#4461551812
1"
#4467458687
0"
#4468881875
0!
#4469167875
1!
#4470462312
1"
#4476254562
0"
#4477698875
0!
#4477980875
1!
#4479258312
1"
#4484933625
0"
#4486397875
0!
#4486675875
1!
#4487936375
1"
#4493500562
0"
#4494984875
0!
#4495259875
1!
#4496505125
1"
#4501962125
0"
#4503463875
0!
#4503734875
1!
#4504963375
1"
#4510321062
0"
#4511837875
0!
#4512105875
1!
#4513323812
1"
#4513323812
0!
#4514323812
1!
#4518577562
0"
#4520111875
0!
#4520376875
1!
#4521579875
1"
#4526737562
0"
#4528288875
0!
#4528550875
1!
#4529739812
1"
#4534805562
0"
#4536372875
0!
#4536631875
1!
#4537808437
1"
#4542786562
0"
#4544365875
0!
#4544621875
1!
#4545784375
1"
#4550677125
0"
#4552270875
0!
#4552523875
1!
#4553678312
1"
#4558482625
0"
#4560090875
0!
#4560340875
1!
#4561483500
1"
#4566205125
0"
#4567828875
0!
#4568076875
1!
#4569209125
1"
#4573850062
0"
#4575487875
0!
#4575732875
1!
#4576851812
1"
#4581425062
0"
#4583069875
0!
#4583312875
1!
#4584424312
1"
#4588919562
0"
#4590576875
0!
#4590816875
1!
#4591917812
1"
#4596339125
0"
#4598010875
0!
#4598248875
1!
#4599338875
1"
#4603713187
0"
#4605374875
0!
#4605610875
1!
#4606694375
1"
#4611039312
0"
#4612669875
0!
#4612903875
1!
#4613977687
1"
#4618273625
0"
#4619898875
0!
#4620130875
1!
#4621194312
1"
#4625453062
0"
#4627062875
0!
#4627292875
1!
#4628350812
1"
#4632581312
0"
#4634163875
0!
#4634391875
1!
#4635440812
1"
#4639629062
0"
#4641202875
0!
#4641428875
1!
#4642468312
1"
#4646618562
0"
#4648181875
0!
#4648405875
1!
#4649436875
1"
#4653551750
0"
#4655102875
0!
#4655324875
1!
#4656351312
1"
#4660445062
0"
#4661966875
0!
#4662186875
1!
#4663204875
1"
#4667268625
0"
#4668774875
0!
#4668992875
1!
#4670006937
1"
#4674031562
0"
#4675527875
0!
#4675744875
1!
#4676749812
1"
#4680740562
0"
#4682228875
0!
#4682443875
1!
#4683441500
1"
#4683441500
0!
#4684441500
1!
#4687405562
0"
#4688877875
0!
#4689090875
1!
#4690085312
1"
#4694016562
0"
#4695475875
0!
#4695687875
1!
#4696673375
1"
#4700576062
0"
#4702024875
0!
#4702234875
1!
#4703217812
1"
#4707091125
0"
#4708524875
0!
#4708732875
1!
#4709708312
1"
#4713554125
0"
#4714976875
0!
#4715183875
1!
#4716151875
1"
#4719974750
0"
#4721382875
0!
#4721587875
1!
#4722553312
1"
#4726345625
0"
#4727743875
0!
#4727947875
1!
#4728905812
1"
#4732674562
0"
#4734060875
0!
#4734263875
1!
#4735214875
1"
#4738965062
0"
#4740334875
0!
#4740535875
1!
#4741484812
1"
#4745209562
0"
#4746564875
0!
#4746764875
1!
#4747706500
1"
#4751389625
0"
#4752753875
0!
#4752951875
1!
#4753888312
1"
#4757552562
0"
#4758901875
0!
#4759098875
1!
#4760031812
1"
#4760031812
0!
#4761031812
1!
#4763674562
0"
#4765009875
0!
#4765205875
1!
#4766132812
1"
#4769759062
0"
#4771078875
0!
#4771273875
1!
#4772198125
1"
#4775802125
0"
#4777108875
0!
#4777301875
1!
#4778220812
1"
#4781786562
0"
#4783100875
0!
#4783292875
1!
#4784206312
1"
#4787754562
0"
#4789055875
0!
#4789246875
1!
#4790154312
1"
#4793691062
0"
#4794974875
0!
#4795164875
1!
#4796069812
1"
#4799588125
0"
#4800857875
0!
#4801046875
1!
#4801946312
1"
#4805428625
0"
#4806705875
0!
#4806893875
1!
#4807787875
1"
#4811259562
0"
#4812518875
0!
#4812704875
1!
#4813598312
1"
#4817053125
0"
#4818297875
0!
#4818482875
1!
#4819370312
1"
#4822791625
0"
#4824042875
0!
#4824226875
1!
#4825108812
1"
#4828517062
0"
#4829755875
0!
#4829938875
1!
#4830815812
1"
#4834215125
0"
#4835436875
0!
#4835618875
1!
#4836494375
1"
#4839859125
0"
#4841085875
0!
#4841266875
1!
#4842137375
1"
#4845492062
0"
#4846703875
0!
#4846883875
1!
#4847750312
1"
#4847750312
0!
#4848750312
1!
#4851097062
0"
#4852290875
0!
#4852469875
1!
#4853334312
1"
#4856647062
0"
#4857847875
0!
#4858025875
1!
#4858885312
1"
#4862188687
0"
#4863374875
0!
#4863551875
1!
#4864407062
1"
#4867681562
0"
#4868872875
0!
#4869048875
1!
#4869899312
1"
#4873167625
0"
#4874341875
0!
#4874517875
1!
#4875366312
1"
#4878622625
0"
#4879783875
0!
#4879958875
1!
#4880803312
1"
#4884036125
0"
#4885197875
0!
#4885371875
1!
#4886214812
1"
#4886214812
0!
#4887214812
1!
#4889437562
0"
#4890583875
0!
#4890756875
1!
#4891596375
1"
#4894792562
0"
#4895942875
0!
#4896114875
1!
#4896950312
1"
#4900138062
0"
#4901274875
0!
#4901445875
1!
#4902276812
1"
#4905438625
0"
#4906580875
0!
#4906750875
1!
#4907578000
1"
#4910737750
0"
#4911860875
0!
#4912029875
1!
#4912855812
1"
#4915988125
0"
#4917114875
0!
#4917283875
1!
#4918104812
1"
#4921231562
0"
#4922344875
0!
#4922512875
1!
#4923330312
1"
#4926435687
0"
#4927549875
0!
#4927716875
1!
#4928534125
1"
#4931631562
0"
#4932729875
0!
#4932895875
1!
#4933708812
1"
#4936781562
0"
#4937885875
0!
#4938051875
1!
#4938860375
1"
#4941930187
0"
#4943018875
0!
#4943183875
1!
#4943993437
1"
#4947038625
0"
#4948128875
0!
#4948292875
1!
#4949097812
1"
#4949097812
0!
#4950097812
1!
#4952142562
0"
#4953214875
0!
#4953377875
1!
#4954179312
1"
#4957200062
0"
#4958277875
0!
#4958440875
1!
#4959238000
1"
#4962258625
0"
#4963319875
0!
#4963481875
1!
#4964278875
1"
#4967274562
0"
#4968338875
0!
#4968499875
1!
#4969293812
1"
#4972289125
0"
#4973335875
0!
#4973495875
1!
#4974286375
1"
#4977258250
0"
#4978310875
0!
#4978470875
1!
#4979256812
1"
#4982207562
0"
#4983264875
0!
#4983423875
1!
#4984207312
1"
#4984207312
0!
#4985207312
1!
#4987160250
0"
#4988197875
0!
#4988355875
1!
#4989139312
1"
#4992068062
0"
#4993109875
0!
#4993267875
1!
#4994046812
1"
#4996976625
0"
#4998001875
0!
#4998158875
1!
#4998935375
1"
#5001848250
0"
#5002872875
0!
#5003028875
1!
#5003804812
1"
#5006714562
0"
#5007723875
0!
#5007879875
1!
#5008651812
1"
#5011541062
0"
#5012555875
0!
#5012710875
1!
#5013480312
1"
#5016351062
0"
#5017367875
0!
#5017521875
1!
#5018289312
1"
#5021159062
0"
#5022159875
0!
#5022313875
1!
#5023077812
1"
#5025931562
0"
#5026933875
0!
#5027086875
1!
#5027852312
1"
#5027852312
0!
#5028852312
1!
#5030686062
0"
#5031688875
0!
#5031841875
1!
#5032601375
1"
#5032601375
0!
#5033601375
1!
#5035434625
0"
#5036425875
0!
#5036577875
1!
#5037335000
1"
#5040153062
0"
#5041143875
0!
#5041294875
1!
#5042052875
1"
#5044871562
0"
#5045842875
0!
#5045993875
1!
#5046747437
1"
#5049545875
0"
#5050524875
0!
#5050674875
1!
#5051426312
1"
#5054208125
0"
#5055188875
0!
#5055338875
1!
#5056087375
1"
#5058872812
0"
#5059835875
0!
#5059984875
1!
#5060730312
1"
#5063500562
0"
#5064464875
0!
#5064613875
1!
#5065358312
1"
#5068109125
0"
#5069076875
0!
#5069224875
1!
#5069967312
1"
#5072721062
0"
#5073671875
0!
#5073819875
1!
#5074558812
1"
#5077298125
0"
#5078249875
0!
#5078396875
1!
#5079136375
1"
#5081855062
0"
#5082810875
0!
#5082956875
1!
#5083693812
1"
#5086416562
0"
#5087354875
0!
#5087500875
1!
#5088234812
1"
#5090940562
0"
#5091883875
0!
#5092028875
1!
#5092761187
1"
#5095452062
0"
#5096395875
0!
#5096540875
1!
#5097269812
1"
#5099967562
0"
#5100892875
0!
#5101036875
1!
#5101766625
1"
#5104446062
0"
#5105383875
0!
#5105527875
1!
#5106256312
1"
#5108930062
0"
#5109874875
0!
#5110018875
1!
#5110752312
1"
#5110752312
0!
#5111752312
1!
#5113433437
0"
#5114365875
0!
#5114509875
1!
#5115237312
1"
#5117917062
0"
#5118856875
0!
#5119000875
1!
#5119729312
1"
#5122413687
0"
#5123347875
0!
#5123491875
1!
#5124220312
1"
#5126908562
0"
#5127838875
0!
#5127982875
1!
#5128711312
1"
#5131402125
0"
#5132329875
0!
#5132473875
1!
#5133202500
1"
#5135894562
0"
#5136820875
0!
#5136964875
1!
#5137693812
1"
#5137693812
0!
#5138693812
1!
#5140386062
0"
#5141311875
0!
#5141455875
1!
#5142184312
1"
#5144877062
0"
#5145802875
0!
#5145946875
1!
#5146675312
1"
#5149368250
0"
#5150293875
0!
#5150437875
1!
#5151166437
1"
#5153859062
0"
#5154784875
0!
#5154928875
1!
#5155657750
1"
#5158350437
0"
#5159275875
0!
#5159419875
1!
#5160148312
1"
#5162841375
0"
#5163766875
0!
#5163910875
1!
#5164639312
1"
#5167332062
0"
#5168257875
0!
#5168401875
1!
#5169130312
1"
#5171823062
0"
#5172748875
0!
#5172892875
1!
#5173621562
1"
#5173621562
0!
#5174621562
1!
#5176313562
0"
#5177239875
0!
#5177383875
1!
#5178112375
1"
#5180804562
0"
#5181730875
0!
#5181874875
1!
#5182603312
1"
#5185295562
0"
#5186221875
0!
#5186365875
1!
#5187094312
1"
#5189786562
0"
#5190712875
0!
#5190856875
1!
#5191585375
1"
#5194277562
0"
#5195203875
0!
#5195347875
1!
#5196076375
1"
#5196076375
0!
#5197076375
1!
#5198768562
0"
#5199694875
0!
#5199838875
1!
#5200567312
1"
#5203259562
0"
#5204185875
0!
#5204329875
1!
#5205058375
1"
#5207750750
0"
#5208676875
0!
#5208820875
1!
#5209549875
1"
#5212242562
0"
#5213167875
0!
#5213311875
1!
#5214039937
1"
#5216733125
0"
#5217658875
0!
#5217802875
1!
#5218531312
1"
#5221224125
0"
#5222149875
0!
#5222293875
1!
#5223022375
1"
#5225714812
0"
#5226640875
0!
#5226784875
1!
#5227513875
1"
#5230206562
0"
#5231131875
0!
#5231275875
1!
#5232003812
1"
#5234697125
0"
#5235622875
0!
#5235766875
1!
#5236495375
1"
#5239187562
0"
#5240113875
0!
#5240257875
1!
#5240986312
1"
#5243678562
0"
#5244604875
0!
#5244748875
1!
#5245477312
1"
#5248169562
0"
#5249095875
0!
#5249239875
1!
#5249968812
1"
#5252661562
0"
#5253586875
0!
#5253730875
1!
#5254459000
1"
#5257152062
0"
#5258077875
0!
#5258221875
1!
#5258950687
1"
#5261642687
0"
#5262568875
0!
#5262712875
1!
#5263441375
1"
#5266133562
0"
#5267059875
0!
#5267203875
1!
#5267932687
1"
#5270624562
0"
#5271550875
0!
#5271694875
1!
#5272423375
1"
#5275115812
0"
#5276041875
0!
#5276185875
1!
#5276914812
1"
#5279607562
0"
#5280532875
0!
#5280676875
1!
#5281405812
1"
#5284098562
0"
#5285023875
0!
#5285167875
1!
#5285895812
1"
#5288589187
0"
#5289514875
0!
#5289658875
1!
#5290387375
1"
#5293079562
0"
#5294005875
0!
#5294149875
1!
#5294878312
1"
#5297570750
0"
#5298496875
0!
#5298640875
1!
#5299369812
1"
#5302062562
0"
#5302987875
0!
#5303131875
1!
#5303860000
1"
#5306553062
0"
#5307478875
0!
#5307622875
1!
#5308351437
1"
#5311043875
0"
#5311969875
0!
#5312113875
1!
#5312842687
1"
#5315534562
0"
#5316460875
0!
#5316604875
1!
#5317333375
1"
#5320026062
0"
#5320951875
0!
#5321095875
1!
#5321824312
1"
#5324516750
0"
#5325442875
0!
#5325586875
1!
#5326315375
1"
#5329007562
0"
#5329933875
0!
#5330077875
1!
#5330806875
1"
#5333498625
0"
#5334424875
0!
#5334568875
1!
#5335297312
1"
#5337989562
0"
#5338915875
0!
#5339059875
1!
#5339788312
1"
#5342480562
0"
#5343406875
0!
#5343550875
1!
#5344279312
1"
#5346972000
0"
#5347897875
0!
#5348041875
1!
#5348770312
1"
#5348770312
0!
#5349770312
1!
#5351463062
0"
#5352388875
0!
#5352532875
1!
#5353261437
1"
#5355954125
0"
#5356879875
0!
#5357023875
1!
#5357752312
1"
#5357752312
0!
#5358752312
1!
#5360444625
0"
#5361370875
0!
#5361514875
1!
#5362243687
1"
#5362243687
0!
#5363243687
1!
#5364935562
0"
#5365861875
0!
#5366005875
1!
#5366734750
1"
#5369426750
0"
#5370352875
0!
#5370496875
1!
#5371225312
1"
#5371225312
0!
#5372225312
1!
#5373917625
0"
#5374843875
0!
#5374987875
1!
#5375716312
1"
#5378408562
0"
#5379334875
0!
#5379478875
1!
#5380207312
1"
#5382899562
0"
#5383825875
0!
#5383969875
1!
#5384698312
1"
#5387390562
0"
#5388316875
0!
#5388460875
1!
#5389189375
1"
#5391881562
0"
#5392807875
0!
#5392951875
1!
#5393680375
1"
#5396372625
0"
#5397298875
0!
#5397442875
1!
#5398171312
1"
#5400863562
0"
#5401789875
0!
#5401933875
1!
#5402662375
1"
#5405354562
0"
#5406280875
0!
#5406424875
1!
#5407153500
1"
#5407153500
0!
#5408153500
1!
#5409845562
0"
#5410771875
0!
#5410915875
1!
#5411644312
1"
#5411644312
0!
#5412644312
1!
#5414336562
0"
#5415262875
0!
#5415406875
1!
#5416135625
1"
#5418827562
0"
#5419753875
0!
#5419897875
1!
#5420626375
1"
#5423318562
0"
#5424244875
0!
#5424388875
1!
#5425119812
1"
#5427814625
0"
#5428735875
0!
#5428879875
1!
#5429607812
1"
#5432299187
0"
#5433226875
0!
#5433370875
1!
#5434099312
1"
#5436791562
0"
#5437717875
0!
#5437861875
1!
#5438590312
1"
#5441282625
0"
#5442208875
0!
#5442352875
1!
#5443081312
1"
#5445773562
0"
#5446699875
0!
#5446843875
1!
#5447572875
1"
#5450265562
0"
#5451190875
0!
#5451334875
1!
#5452063437
1"
#5454756062
0"
#5455681875
0!
#5455825875
1!
#5456554312
1"
#5459247125
0"
#5460172875
0!
#5460316875
1!
#5461045812
1"
#5463738125
0"
#5464663875
0!
#5464807875
1!
#5465536312
1"
#5468229062
0"
#5469154875
0!
#5469298875
1!
#5470027812
1"
#5472720625
0"
#5473645875
0!
#5473789875
1!
#5474518250
1"
#5477211562
0"
#5478136875
0!
#5478280875
1!
#5479009375
1"
#5481702062
0"
#5482627875
0!
#5482771875
1!
#5483500312
1"
#5486192625
0"
#5487118875
0!
#5487262875
1!
#5487991312
1"
#5490683562
0"
#5491609875
0!
#5491753875
1!
#5492482312
1"
#5495174562
0"
#5496100875
0!
#5496244875
1!
#5496973312
1"
#5499665687
0"
#5500591875
0!
#5500735875
1!
#5501464312
1"
#5504156562
0"
#5505082875
0!
#5505226875
1!
#5505955312
1"
#5508647562
0"
#5509573875
0!
#5509717875
1!
#5510446312
1"
#5513138562
0"
#5514064875
0!
#5514208875
1!
#5514937312
1"
#5517629625
0"
#5518555875
0!
#5518699875
1!
#5519428312
1"
#5519428312
0!
#5520428312
1!
#5522121125
0"
#5523046875
0!
#5523190875
1!
#5523919812
1"
#5526612062
0"
#5527537875
0!
#5527681875
1!
#5528410312
1"
#5531102625
0"
#5532028875
0!
#5532172875
1!
#5532901500
1"
#5535593562
0"
#5536519875
0!
#5536663875
1!
#5537392312
1"
#5540084625
0"
#5541010875
0!
#5541154875
1!
#5541883312
1"
#5544575562
0"
#5545501875
0!
#5545645875
1!
#5546374312
1"
#5549066625
0"
#5549992875
0!
#5550136875
1!
#5550865312
1"
#5550865312
0!
#5551865312
1!
#5553557562
0"
#5554483875
0!
#5554627875
1!
#5555356375
1"
#5558048562
0"
#5558974875
0!
#5559118875
1!
#5559847375
1"
#5562539562
0"
#5563465875
0!
#5563609875
1!
#5564338875
1"
#5567030625
0"
#5567956875
0!
#5568100875
1!
#5568829312
1"
#5571521750
0"
#5572447875
0!
#5572591875
1!
#5573320312
1"
#5576012625
0"
#5576938875
0!
#5577082875
1!
#5577811312
1"
#5580503562
0"
#5581429875
0!
#5581573875
1!
#5582302312
1"
#5584994687
0"
#5585920875
0!
#5586064875
1!
#5586793812
1"
#5589486625
0"
#5590411875
0!
#5590555875
1!
#5591283812
1"
#5593977125
0"
#5594902875
0!
#5595046875
1!
#5595775437
1"
