analysis/wokwi-logic.vcd
$version Generated by Wokwi.com $end
$date Tue, 09 Sep 2025 12:20:06 GMT $end
$timescale 1ns $end
$scope module logic $end
$var wire 1 ! D2 $end
$var wire 1 " D3 $end
$var wire 1 # D4 $end
$upscope $end
$enddefinitions $end
#0
0!
#0
0"
#0
0#
#0
1!
#7783750
1"
#7783750
0!
#8783750
1!
#1010218437
1#
#1030218437
0!
#1030884437
1!
#1050884437
0!
#1051550437
1!
#1071550437
0!
#1072216437
1!
#1092216437
0!
#1092882437
1!
#1112882437
0!
#1113548437
1!
#1114253125
0"
#1117255000
1"
#1133548437
0!
#1134214437
1!
#1134919187
0"
#1137921000
1"
#1154214437
0!
#1154880437
1!
#1155585125
0"
#1158587000
1"
#1174880437
0!
#1175546437
1!
#1176251125
0"
#1179253000
1"
#1195546437
0!
#1196212437
1!
#1196917625
0"
#1199919562
1"
#1199919562
0!
#1200919562
1!
#1216212437
0!
#1216878437
1!
#1217583625
0"
#1220585500
1"
#1236878437
0!
#1237544437
1!
#1238248625
0"
#1241250500
1"
#1241250500
0!
#1242250500
1!
#1257544437
0!
#1258210437
1!
#1258915125
0"
#1261917062
1"
#1278210437
0!
#1278876437
1!
#1279581187
0"
#1282583000
1"
#1298876437
0!
#1299542437
1!
#1300247125
0"
#1303249000
1"
#1319542437
0!
#1320208437
1!
#1320913125
0"
#1323915000
1"
#1340208437
0!
#1340874437
1!
#1341579625
0"
#1344581500
1"
#1360874437
0!
#1361540437
1!
#1362244625
0"
#1365246500
1"
#1381540437
0!
#1382206437
1!
#1382911687
0"
#1385913562
1"
#1402206437
0!
#1402872437
1!
#1403576625
0"
#1406578500
1"
#1422872437
0!
#1423538437
1!
#1424243125
0"
#1427245000
1"
#1427245000
0!
#1428245000
1!
#1443538437
0!
#1444204437
1!
#1444909125
0"
#1447911000
1"
#1464204437
0!
#1464870437
1!
#1465575625
0"
#1468577500
1"
#1484870437
0!
#1485536437
1!
#1486240625
0"
#1489242500
1"
#1505536437
0!
#1506202437
1!
#1506907625
0"
#1509909562
1"
#1526202437
0!
#1526868437
1!
#1527572625
0"
#1530574500
1"
#1546868437
0!
#1547534437
1!
#1548239125
0"
#1551241000
1"
#1567534437
0!
#1568200437
1!
#1568905125
0"
#1571907000
1"
#1588200437
0!
#1588866437
1!
#1589571625
0"
#1592573500
1"
#1608866437
0!
#1609532437
1!
#1610236625
0"
#1613238500
1"
#1627530437
0!
#1628101437
1!
#1628385187
0"
#1631387000
1"
#1644523437
0!
#1645017937
0"
#1645048437
1!
#1647947062
1"
#1660246437
0!
#1660735437
1!
#1660744125
0"
#1663353562
1"
#1674949437
0!
#1675408437
1!
#1688807437
0!
#1689241437
1!
#1690694187
0"
#1693696062
1"
#1701950437
0!
#1702363437
1!
#1714480437
0!
#1714874437
1!
#1715126625
0"
#1718128562
1"
#1726474437
0!
#1726852437
1!
#1737815125
0"
#1737996437
0!
#1738360437
1!
#1740102000
1"
#1748629187
0"
#1749098437
0!
#1749449437
1!
#1751109500
1"
#1759122125
0"
#1759823437
0!
#1760163437
1!
#1761754062
1"
#1769310125
0"
#1770207437
0!
#1770536437
1!
#1772071500
1"
#1779243625
0"
#1780280437
0!
#1780600437
1!
#1782083562
1"
#1788911187
0"
#1790069437
0!
#1790380437
1!
#1791810062
1"
#1791810062
0!
#1792810062
1!
#1798338687
0"
#1799596437
0!
#1799899437
1!
#1801286000
1"
#1807540125
0"
#1808882437
0!
#1809177437
1!
#1810529000
1"
#1816535687
0"
#1817943437
0!
#1818231437
1!
#1819551000
1"
#1825329187
0"
#1826795437
0!
#1827077437
1!
#1828360500
1"
#1833936125
0"
#1835453437
0!
#1835729437
1!
#1836985000
1"
#1842376625
0"
#1843929437
0!
#1844199437
1!
#1845428500
1"
#1845428500
0!
#1846428500
1!
#1850643187
0"
#1852233437
0!
#1852498437
1!
#1853706562
1"
#1858755625
0"
#1860376437
0!
#1860636437
1!
#1861821000
1"
#1866721625
0"
#1868366437
0!
#1868621437
1!
#1869784000
1"
#1874540125
0"
#1876212437
0!
#1876462437
1!
#1877609062
1"
#1882227125
0"
#1883921437
0!
#1884167437
1!
#1885294500
1"
#1889789625
0"
#1891501437
0!
#1891743437
1!
#1892855000
1"
#1897264687
0"
#1898957437
0!
#1899195437
1!
#1900289562
1"
#1904629625
0"
#1906296437
0!
#1906530437
1!
#1907611000
1"
#1911882625
0"
#1913522437
0!
#1913753437
1!
#1914817000
1"
#1919044625
0"
#1920641437
0!
#1920868437
1!
#1921921500
1"
#1926090125
0"
#1927657437
0!
#1927881437
1!
#1928918562
1"
#1933030625
0"
#1934575437
0!
#1934796437
1!
#1935823500
1"
#1939865125
0"
#1941399437
0!
#1941617437
1!
#1942633500
1"
#1946624625
0"
#1948133437
0!
#1948348437
1!
#1949351500
1"
#1953301625
0"
#1954780437
0!
#1954993437
1!
#1955986562
1"
#1959877125
0"
#1961344437
0!
#1961554437
1!
#1962535500
1"
#1966388625
0"
#1967827437
0!
#1968034437
1!
#1969007562
1"
#1972826187
0"
#1974232437
0!
#1974437437
1!
#1975402062
1"
#1979164125
0"
#1980562437
0!
#1980765437
1!
#1981718500
1"
#1985434125
0"
#1986820437
0!
#1987020437
1!
#1987967062
1"
#1991655125
0"
#1993007437
0!
#1993205437
1!
#1994141062
1"
#1997784125
0"
#1999127437
0!
#1999323437
1!
#2000252000
1"
#2003851687
0"
#2005182437
0!
#2005376437
1!
#2006299062
1"
#2009873187
0"
#2011173437
0!
#2011365437
1!
#2012278562
1"
#2015817124
0"
#2017103437
0!
#2017293437
1!
#2018196999
1"
#2021697624
0"
#2022973437
0!
#2023161437
1!
#2024059562
1"
#2024059562
0!
#2025059562
1!
#2027523625
0"
#2028785437
0!
#2028971437
1!
#2029864000
1"
#2033290187
0"
#2034541437
0!
#2034725437
1!
#2035609062
1"
#2039004125
0"
#2040242437
0!
#2040425437
1!
#2041304062
1"
#2044664125
0"
#2045891437
0!
#2046072437
1!
#2046942500
1"
#2050275624
0"
#2051488437
0!
#2051667437
1!
#2052533000
1"
#2055834125
0"
#2057034437
0!
#2057212437
1!
#2058069500
1"
#2061345625
0"
#2062532437
0!
#2062708437
1!
#2063558500
1"
#2066808625
0"
#2067982437
0!
#2068157437
1!
#2069003000
1"
#2072226687
0"
#2073386437
0!
#2073559437
1!
#2074402000
1"
#2077599124
0"
#2078744437
0!
#2078916437
1!
#2079750499
1"
#2082925187
0"
#2084058437
0!
#2084228437
1!
#2085056499
1"
#2088211125
0"
#2089329437
0!
#2089498437
1!
#2090322500
1"
#2093455125
0"
#2094558437
0!
#2094726437
1!
#2095543499
1"
#2098635625
0"
#2099746437
0!
#2099912437
1!
#2100728999
1"
#2103800687
0"
#2104894437
0!
#2105059437
1!
#2105867500
1"
#2105867500
0!
#2106867500
1!
#2108922124
0"
#2110003437
0!
#2110167437
1!
#2110971499
1"
#2114005625
0"
#2115074437
0!
#2115236437
1!
#2116035500
1"
#2119036125
0"
#2120106437
0!
#2120267437
1!
#2121063000
1"
#2124044125
0"
#2125102437
0!
#2125262437
1!
#2126053000
1"
#2129018625
0"
#2130062437
0!
#2130221437
1!
#2131005500
1"
#2133959625
0"
#2134987437
0!
#2135145437
1!
#2135926500
1"
#2138846624
0"
#2139878437
0!
#2140035437
1!
#2140811062
1"
#2143717624
0"
#2144736437
0!
#2144892437
1!
#2145665999
1"
#2148558625
0"
#2149561437
0!
#2149716437
1!
#2150484062
1"
#2153347125
0"
#2154353437
0!
#2154507437
1!
#2155272500
1"
#2155272500
0!
#2156272500
1!
#2158121125
0"
#2159114437
0!
#2159267437
1!
#2160027500
1"
#2162868125
0"
#2163844437
0!
#2163996437
1!
#2164754500
1"
#2167563125
0"
#2168543437
0!
#2168694437
1!
#2169447562
1"
#2172246687
0"
#2173213437
0!
#2173363437
1!
#2174112000
1"
#2176884625
0"
#2177853437
0!
#2178002437
1!
#2178749062
1"
#2181510625
0"
#2182464437
0!
#2182612437
1!
#2183354500
1"
#2186090187
0"
#2187047437
0!
#2187194437
1!
#2187934500
1"
#2190660125
0"
#2191602437
0!
#2191748437
1!
#2192484000
1"
#2195203125
0"
#2196130437
0!
#2196275437
1!
#2197007000
1"
#2199702125
0"
#2200631437
0!
#2200775437
1!
#2201506000
1"
#2204192125
0"
#2205775437
0!
#2205941437
1!
#2206269187
1"
#2209517187
0"
#2210941437
0!
#2211107437
1!
#2211470687
1"
#2211470687
0!
#2212470687
1!
#2214813625
0"
#2216107437
0!
#2216273437
1!
#2217083500
1"
#2217083500
0!
#2218083500
1!
#2220069125
0"
#2221273437
0!
#2221439437
1!
#2222249562
1"
#2225314125
0"
#2226439437
0!
#2226605437
1!
#2227415562
1"
#2227415562
0!
#2228415562
1!
#2230523125
0"
#2231605437
0!
#2231771437
1!
#2232581562
1"
#2235709625
0"
#2236771437
0!
#2236937437
1!
#2237747562
1"
#2240898187
0"
#2241937437
0!
#2242103437
1!
#2242913500
1"
#2246052187
0"
#2247103437
0!
#2247269437
1!
#2248079500
1"
#2251222125
0"
#2252269437
0!
#2252435437
1!
#2253246000
1"
#2256388125
0"
#2257435437
0!
#2257601437
1!
#2258412062
1"
#2261550687
0"
#2262601437
0!
#2262767437
1!
#2263578000
1"
#2266734187
0"
#2267767437
0!
#2267933437
1!
#2268743500
1"
#2271893125
0"
#2272933437
0!
#2273099437
1!
#2273909500
1"
#2277053625
0"
#2278099437
0!
#2278265437
1!
#2279076062
1"
#2282214625
0"
#2283265437
0!
#2283431437
1!
#2284241500
1"
#2287375187
0"
#2288431437
0!
#2288597437
1!
#2289407500
1"
#2292535625
0"
#2293597437
0!
#2293763437
1!
#2294574062
1"
#2297698125
0"
#2298763437
0!
#2298929437
1!
#2299739500
1"
#2302859187
0"
#2303929437
0!
#2304095437
1!
#2304906062
1"
#2304906062
0!
#2305906062
1!
#2308021125
0"
#2309095437
0!
#2309261437
1!
#2310071500
1"
#2313183625
0"
#2314261437
0!
#2314427437
1!
#2315237500
1"
#2318346625
0"
#2319427437
0!
#2319593437
1!
#2320403500
1"
#2323510125
0"
#2324593437
0!
#2324759437
1!
#2325570062
1"
#2328674125
0"
#2329759437
0!
#2329925437
1!
#2330735500
1"
#2333838187
0"
#2334925437
0!
#2335091437
1!
#2335901500
1"
#2339001625
0"
#2340091437
0!
#2340257437
1!
#2341068000
1"
#2344167187
0"
#2345257437
0!
#2345423437
1!
#2346234000
1"
#2349351125
0"
#2350423437
0!
#2350589437
1!
#2351400000
1"
#2354516125
0"
#2355589437
0!
#2355755437
1!
#2356565562
1"
#2359680125
0"
#2360755437
0!
#2360921437
1!
#2361731500
1"
#2364845625
0"
#2365921437
0!
#2366087437
1!
#2366897500
1"
#2370011687
0"
#2371087437
0!
#2371253437
1!
#2372063562
1"
#2375176687
0"
#2376253437
0!
#2376419437
1!
#2377229500
1"
#2380341125
0"
#2381419437
0!
#2381585437
1!
#2382395562
1"
#2385507125
0"
#2386585437
0!
#2386751437
1!
#2387561562
1"
#2390672187
0"
#2391751437
0!
#2391917437
1!
#2392727500
1"
#2395838125
0"
#2396917437
0!
#2397083437
1!
#2397894000
1"
#2401004625
0"
#2402083437
0!
#2402249437
1!
#2403059500
1"
#2406170125
0"
#2407249437
0!
#2407415437
1!
#2408225500
1"
#2411335125
0"
#2412415437
0!
#2412581437
1!
#2413391500
1"
#2416501125
0"
#2417581437
0!
#2417747437
1!
#2418557500
1"
#2421667187
0"
#2422747437
0!
#2422913437
1!
#2423724000
1"
#2426833625
0"
#2427913437
0!
#2428079437
1!
#2428890000
1"
#2431999625
0"
#2433079437
0!
#2433245437
1!
#2434056062
1"
#2434056062
0!
#2435056062
1!
#2437165625
0"
#2438245437
0!
#2438411437
1!
#2439221562
1"
#2442330125
0"
#2443411437
0!
#2443577437
1!
#2444387562
1"
#2447496125
0"
#2448577437
0!
#2448743437
1!
#2449553500
1"
#2452662125
0"
#2453743437
0!
#2453909437
1!
#2454720000
1"
#2457828687
0"
#2458909437
0!
#2459075437
1!
#2459885500
1"
#2462994187
0"
#2464075437
0!
#2464241437
1!
#2465051500
1"
#2468160125
0"
#2469241437
0!
#2469407437
1!
#2470218000
1"
#2473326625
0"
#2474407437
0!
#2474573437
1!
#2475384062
1"
#2478492687
0"
#2479573437
0!
#2479739437
1!
#2480549500
1"
#2480549500
0!
#2481549500
1!
#2483658125
0"
#2484739437
0!
#2484905437
1!
#2485715562
1"
#2488824125
0"
#2489905437
0!
#2490071437
1!
#2490881500
1"
#2493991750
0"
#2495071437
0!
#2495237437
1!
#2496047500
1"
#2499156125
0"
#2500237437
0!
#2500403437
1!
#2501213500
1"
#2504322187
0"
#2505403437
0!
#2505569437
1!
#2506379562
1"
#2506379562
0!
#2507379562
1!
#2509488187
0"
#2510569437
0!
#2510735437
1!
#2511545562
1"
#2514654125
0"
#2515735437
0!
#2515901437
1!
#2516711500
1"
#2519820125
0"
#2520901437
0!
#2521067437
1!
#2521878000
1"
#2524986625
0"
#2526067437
0!
#2526233437
1!
#2527043562
1"
#2530152187
0"
#2531233437
0!
#2531399437
1!
#2532209562
1"
#2535318125
0"
#2536399437
0!
#2536565437
1!
#2537375500
1"
#2540484125
0"
#2541565437
0!
#2541731437
1!
#2542542000
1"
#2545650687
0"
#2546731437
0!
#2546897437
1!
#2547708062
1"
#2550816625
0"
#2551897437
0!
#2552063437
1!
#2552873500
1"
#2555982125
0"
#2557063437
0!
#2557229437
1!
#2558039500
1"
#2561148125
0"
#2562229437
0!
#2562395437
1!
#2563206000
1"
#2566314625
0"
#2567395437
0!
#2567561437
1!
#2568372000
1"
#2571480625
0"
#2572561437
0!
#2572727437
1!
#2573537500
1"
#2576646125
0"
#2577727437
0!
#2577893437
1!
#2578703562
1"
#2581812125
0"
#2582893437
0!
#2583059437
1!
#2583869500
1"
#2586978125
0"
#2588059437
0!
#2588225437
1!
#2589036062
1"
#2592144687
0"
#2593225437
0!
#2593391437
1!
#2594201562
1"
#2597310125
0"
#2598391437
0!
#2598557437
1!
#2599367562
1"
#2599367562
0!
#2600367562
1!
#2602476187
0"
#2603557437
0!
#2603723437
1!
#2604533562
1"
#2607642125
0"
#2608723437
0!
#2608889437
1!
#2609702125
1"
#2612808187
0"
#2613889437
0!
#2614055437
1!
#2614865500
1"
#2617974187
0"
#2619055437
0!
#2619221437
1!
#2620031500
1"
#2623139125
0"
#2624221437
0!
#2624387437
1!
#2625198000
1"
#2628306687
0"
#2629387437
0!
#2629553437
1!
#2630363500
1"
#2633472125
0"
#2634553437
0!
#2634719437
1!
#2635529500
1"
#2638638125
0"
#2639719437
0!
#2639885437
1!
#2640696062
1"
#2643804625
0"
#2644885437
0!
#2645051437
1!
#2645861500
1"
#2648970125
0"
#2650051437
0!
#2650217437
1!
#2651027500
1"
#2654136125
0"
#2655217437
0!
#2655383437
1!
#2656193562
1"
#2659302187
0"
#2660383437
0!
#2660549437
1!
#2661359500
1"
#2664468125
0"
#2665549437
0!
#2665715437
1!
#2666525500
1"
#2669634125
0"
#2670715437
0!
#2670881437
1!
#2671691500
1"
#2674799125
0"
#2675881437
0!
#2676047437
1!
#2676858000
1"
#2679966687
0"
#2681047437
0!
#2681213437
1!
#2682024000
1"
#2685132687
0"
#2686213437
0!
#2686379437
1!
#2687190062
1"
#2690298625
0"
#2691379437
0!
#2691545437
1!
#2692355500
1"
#2695464125
0"
#2696545437
0!
#2696711437
1!
#2697521500
1"
#2700630125
0"
#2701711437
0!
#2701877437
1!
#2702687500
1"
#2705796187
0"
#2706910437
0!
#2707078437
1!
#2707893000
1"
#2710992125
0"
#2712151437
0!
#2712320437
1!
#2713138500
1"
#2716266125
0"
#2717434437
0!
#2717605437
1!
#2718429500
1"
#2718429500
0!
#2719429500
1!
#2721569625
0"
#2722761437
0!
#2722933437
1!
#2723762500
1"
#2726927687
0"
#2728132437
0!
#2728306437
1!
#2729141500
1"
#2732331625
0"
#2733549437
0!
#2733724437
1!
#2734563562
1"
#2737787125
0"
#2739012437
0!
#2739189437
1!
#2740035062
1"
#2743288625
0"
#2744523437
0!
#2744701437
1!
#2745552500
1"
#2748844687
0"
#2750083437
0!
#2750263437
1!
#2751121562
1"
#2754446687
0"
#2755694437
0!
#2755875437
1!
#2756742000
1"
#2760105125
0"
#2761357437
0!
#2761540437
1!
#2762411000
1"
#2765812125
0"
#2767073437
0!
#2767258437
1!
#2768134500
1"
#2771576187
0"
#2772845437
0!
#2773032437
1!
#2773916000
1"
#2777379125
0"
#2778673437
0!
#2778861437
1!
#2779755062
1"
#2783258187
0"
#2784559437
0!
#2784749437
1!
#2785648000
1"
#2785648000
0!
#2786648000
1!
#2789196625
0"
#2790505437
0!
#2790697437
1!
#2791601500
1"
#2795195625
0"
#2796513437
0!
#2796707437
1!
#2797621000
1"
#2801242625
0"
#2802585437
0!
#2802782437
1!
#2803704500
1"
#2807372125
0"
#2808724437
0!
#2808923437
1!
#2809852500
1"
#2813571125
0"
#2814931437
0!
#2815132437
1!
#2816068500
1"
#2819823125
0"
#2821209437
0!
#2821412437
1!
#2822356500
1"
#2826165125
0"
#2827560437
0!
#2827766437
1!
#2828720062
1"
#2832566625
0"
#2833987437
0!
#2834195437
1!
#2835161000
1"
#2839042625
0"
#2840492437
0!
#2840703437
1!
#2841676500
1"
#2845621125
0"
#2847079437
0!
#2847292437
1!
#2848275500
1"
#2852270125
0"
#2853750437
0!
#2853966437
1!
#2854957000
1"
#2858998125
0"
#2860509437
0!
#2860728437
1!
#2861732500
1"
#2865846625
0"
#2867359437
0!
#2867581437
1!
#2868594500
1"
#2872763687
0"
#2874305437
0!
#2874530437
1!
#2875558500
1"
#2879782187
0"
#2881350437
0!
#2881579437
1!
#2882617562
1"
#2882617562
0!
#2883617562
1!
#2886908625
0"
#2888499437
0!
#2888731437
1!
#2889750500
1"
#2895757437
0!
#2895993437
1!
#2903129437
0!
#2903368437
1!
#2910619437
0!
#2910862437
1!
#2918234437
0!
#2918481437
1!
#2924007625
0"
#2925981437
0!
#2926233437
1!
#2927360562
1"
#2932042187
0"
#2933867437
0!
#2934123437
1!
#2935271062
1"
#2940202625
0"
#2941899437
0!
#2942160437
1!
#2943324500
1"
#2948478187
0"
#2950086437
0!
#2950352437
1!
#2951539062
1"
#2956899125
0"
#2958437437
0!
#2958709437
1!
#2959919000
1"
#2965476625
0"
#2966963437
0!
#2967241437
1!
#2968471062
1"
#2968471062
0!
#2969471062
1!
#2974230125
0"
#2975675437
0!
#2975959437
1!
#2977216500
1"
#2983181125
0"
#2984585437
0!
#2984875437
1!
#2986161062
1"
#2992339125
0"
#2993707437
0!
#2994005437
1!
#2995325000
1"
#3001722187
0"
#3003059437
0!
#3003364437
1!
#3004717562
1"
#3011353625
0"
#3012657437
0!
#3012971437
1!
#3014365062
1"
#3021258125
0"
#3022524437
0!
#3022847437
1!
#3024284500
1"
#3031450625
0"
#3032682437
0!
#3033014437
1!
#3034500500
1"
#3041966625
0"
#3043158437
0!
#3043501437
1!
#3045038500
1"
#3052834687
0"
#3053985437
0!
#3054340437
1!
#3055941062
1"
#3064096125
0"
#3065201437
0!
#3065569437
1!
#3067239062
1"
#3075803187
0"
#3076850437
0!
#3077233437
1!
#3078985500
1"
#3087995687
0"
#3088988437
0!
#3089388437
1!
#3091227000
1"
#3091227000
0!
#3092227000
1!
#3100747625
0"
#3101682437
0!
#3102101437
1!
#3104051000
1"
#3114155125
0"
#3115015437
0!
#3115456437
1!
#3117532500
1"
#3128301625
0"
#3129095437
0!
#3129563437
1!
#3131792500
1"
#3143339625
0"
#3144065437
0!
#3144564437
1!
#3146983000
1"
#3159457125
0"
#3160116437
0!
#3160654437
1!
#3163306500
1"
#3177525437
0!
#3178063625
0"
#3178113437
1!
#3181065500
1"
#3196708437
0!
#3197363437
1!
#3197702625
0"
#3200704500
1"
#3200704500
0!
#3201704500
1!
#3218352437
0!
#3219103437
1!
#3219989625
0"
#3222991500
1"
#3239103437
0!
#3239769437
1!
#3240503687
0"
#3243505500
1"
#3259769437
0!
#3260435437
1!
#3261140687
0"
#3264142500
1"
#3280435437
0!
#3281101437
1!
#3281806625
0"
#3284808500
1"
#3301101437
0!
#3301767437
1!
#3302471625
0"
#3305473500
1"
#3321767437
0!
#3322433437
1!
#3323138625
0"
#3326140500
1"
#3342433437
0!
#3343099437
1!
#3343803625
0"
#3346805500
1"
#3363099437
0!
#3363765437
1!
#3364470187
0"
#3367472000
1"
#3383765437
0!
#3384431437
1!
#3385136125
0"
#3388138000
1"
#3388138000
0!
#3389138000
1!
#3404431437
0!
#3405097437
1!
#3405802625
0"
#3408804500
1"
#3408804500
0!
#3409804500
1!
#3425097437
0!
#3425763437
1!
#3426467625
0"
#3429469500
1"
#3445763437
0!
#3446429437
1!
#3447134687
0"
#3450136500
1"
#3466429437
0!
#3467095437
1!
#3467800687
0"
#3470802500
1"
#3487095437
0!
#3487761437
1!
#3488466625
0"
#3491468500
1"
#3507761437
0!
#3508427437
1!
#3509131625
0"
#3512133562
1"
#3528427437
0!
#3529093437
1!
#3529798125
0"
#3532800000
1"
#3549093437
0!
#3549759437
1!
#3550464125
0"
#3553466000
1"
#3569759437
0!
#3570425437
1!
#3571130625
0"
#3574132500
1"
#3590425437
0!
#3591091437
1!
#3591795687
0"
#3594797500
1"
#3611091437
0!
#3611757437
1!
#3612462125
0"
#3615464000
1"
#3631757437
0!
#3632423437
1!
#3633128687
0"
#3636130562
1"
#3652423437
0!
#3653089437
1!
#3653793625
0"
#3656795500
1"
#3673089437
0!
#3673755437
1!
#3674460687
0"
#3677462562
1"
#3693755437
0!
#3694421437
1!
#3695125625
0"
#3698127562
1"
#3714421437
0!
#3715087437
1!
#3715792125
0"
#3718794000
1"
#3735087437
0!
#3735753437
1!
#3736458687
0"
#3739460562
1"
#3755753437
0!
#3756419437
1!
#3757123687
0"
#3760125562
1"
#3760125562
0!
#3761125562
1!
#3776419437
0!
#3777085437
1!
#3777790125
0"
#3780792000
1"
#3797085437
0!
#3797751437
1!
#3798456687
0"
#3801458562
1"
#3817751437
0!
#3818417437
1!
#3819121625
0"
#3822123500
1"
#3838417437
0!
#3839083437
1!
#3839788125
0"
#3842790000
1"
#3859083437
0!
#3859749437
1!
#3860454125
0"
#3863456000
1"
#3879749437
0!
#3880415437
1!
#3881120125
0"
#3884122000
1"
#3884122000
0!
#3885122000
1!
#3900415437
0!
#3901081437
1!
#3901786125
0"
#3904788062
1"
#3921081437
0!
#3921747437
1!
#3922452125
0"
#3925454000
1"
#3941747437
0!
#3942413437
1!
#3943118625
0"
#3946120500
1"
#3962413437
0!
#3963079437
1!
#3963783625
0"
#3966785500
1"
#3983079437
0!
#3983745437
1!
#3984450625
0"
#3987452500
1"
#4003745437
0!
#4004411437
1!
#4005115625
0"
#4008117500
1"
#4024411437
0!
#4025077437
1!
#4025782125
0"
#4028784000
1"
#4045077437
0!
#4045743437
1!
#4046448125
0"
#4049450000
1"
#4049450000
0!
#4050449999
1!
#4065743437
0!
#4066409437
1!
#4067114125
0"
#4070115999
1"
#4086409437
0!
#4087075437
1!
#4087780624
0"
#4090782500
1"
#4107075437
0!
#4107741437
1!
#4108446625
0"
#4111448562
1"
#4127741437
0!
#4128407437
1!
#4129112625
0"
#4132114562
1"
#4148407437
0!
#4149073437
1!
#4149778624
0"
#4152780500
1"
#4152780500
0!
#4153780500
1!
#4169073437
0!
#4169739437
1!
#4170443625
0"
#4173445562
1"
#4189739437
0!
#4190405437
1!
#4191110187
0"
#4194112062
1"
#4210405437
0!
#4211071437
1!
#4211776125
0"
#4214778000
1"
#4231071437
0!
#4231737437
1!
#4232442625
0"
#4235444500
1"
#4251737437
0!
#4252403437
1!
#4253107625
0"
#4256109562
1"
#4272403437
0!
#4273069437
1!
#4273774187
0"
#4276776062
1"
#4293069437
0!
#4293735437
1!
#4294440125
0"
#4297442062
1"
#4313735437
0!
#4314401437
1!
#4315106125
0"
#4318108000
1"
#4334401437
0!
#4335067437
1!
#4335772687
0"
#4338774500
1"
#4355067437
0!
#4355733437
1!
#4356438625
0"
#4359440500
1"
#4375733437
0!
#4376399437
1!
#4377103625
0"
#4380105500
1"
#4396399437
0!
#4397065437
1!
#4397770625
0"
#4400772500
1"
#4417065437
0!
#4417731437
1!
#4418436687
0"
#4421438562
1"
#4437731437
0!
#4438397437
1!
#4439101625
0"
#4442103500
1"
#4458397437
0!
#4459063437
1!
#4459768625
0"
#4462770500
1"
#4466874250
1#
