analysis/wokwi-logic.vcd
$version Generated by Wokwi.com $end
$date Tue, 09 Sep 2025 11:43:05 GMT $end
$timescale 1ns $end
$scope module logic $end
$var wire 1 ! D2 $end
$var wire 1 " D3 $end
$var wire 1 # D4 $end
$upscope $end
$enddefinitions $end
#0
0!
#0
0"
#0
0#
#0
1!
#7446625
1"
#7446625
0!
#8446625
1!
#1009881312
1#
#1025670312
0!
#1026196312
1!
#1041985312
0!
#1042511312
1!
#1058300312
0!
#1058826312
1!
#1074615312
0!
#1075141312
1!
#1090930312
0!
#1091323187
0"
#1091456312
1!
#1094181312
1"
#1107245312
0!
#1107643875
0"
#1107771312
1!
#1110496312
1"
#1123560312
0!
#1124039312
0"
#1124086312
1!
#1126811250
1"
#1139875312
0!
#1140354312
0"
#1140401312
1!
#1143126250
1"
#1156190312
0!
#1156669312
0"
#1156716312
1!
#1159441250
1"
#1159441250
0!
#1160441250
1!
#1172505312
0!
#1172984312
0"
#1173031312
1!
#1175756250
1"
#1188820312
0!
#1189299312
0"
#1189346312
1!
#1192071250
1"
#1192071250
0!
#1193071250
1!
#1205135312
0!
#1205614375
0"
#1205661312
1!
#1208386750
1"
#1221339312
0!
#1221830062
0"
#1221859312
1!
#1224558750
1"
#1237406312
0!
#1237904500
0"
#1237922312
1!
#1240598812
1"
#1253341312
0!
#1253837187
0"
#1253852312
1!
#1256498750
1"
#1269146312
0!
#1269640937
0"
#1269653312
1!
#1272269312
1"
#1284825312
0!
#1285319625
0"
#1285328312
1!
#1287915250
1"
#1300381312
0!
#1300874000
0"
#1300880312
1!
#1303446250
1"
#1315817312
0!
#1316312812
0"
#1316313312
1!
#1318850250
1"
#1331137312
0!
#1331629312
1!
#1346342312
0!
#1346830312
1!
#1346846687
0"
#1349848250
1"
#1349848250
0!
#1350848250
1!
#1361434312
0!
#1361919312
1!
#1376417312
0!
#1376898312
1!
#1376923625
0"
#1379925312
1"
#1391292312
0!
#1391770312
1!
#1406048562
0"
#1406063312
0!
#1406537312
1!
#1408924750
1"
#1420671562
0"
#1421537312
0!
#1422037312
1!
#1424577812
1"
#1437037312
0!
#1437531562
0"
#1437537312
1!
#1440082750
1"
#1452537312
0!
#1453033187
0"
#1453037312
1!
#1455582750
1"
#1468037312
0!
#1468536000
0"
#1468537312
1!
#1471082812
1"
#1483537312
0!
#1484034812
0"
#1484037312
1!
#1486583812
1"
#1499037312
0!
#1499537125
0"
#1499537312
1!
#1502082750
1"
#1514537312
0!
#1515037312
1!
#1515037750
0"
#1517583812
1"
#1530037312
0!
#1530537312
1!
#1530541875
0"
#1533083250
1"
#1545537312
0!
#1546037187
0"
#1546037312
1!
#1548583250
1"
#1561037312
0!
#1561537312
1!
#1561538312
0"
#1564082750
1"
#1576537312
0!
#1577037312
1!
#1577039625
0"
#1579583812
1"
#1592037312
0!
#1592537312
1!
#1592539937
0"
#1595082812
1"
#1607537312
0!
#1608037312
1!
#1608040250
0"
#1610582750
1"
#1623037312
0!
#1623537312
1!
#1623542062
0"
#1626082750
1"
#1638537312
0!
#1639037312
1!
#1639043500
0"
#1641582812
1"
#1654037312
0!
#1654537312
1!
#1654543750
0"
#1657082750
1"
#1669537312
0!
#1670037312
1!
#1670044562
0"
#1672582750
1"
#1685037312
0!
#1685537312
1!
#1685544750
0"
#1688082812
1"
#1688082812
0!
#1689082812
1!
#1700537312
0!
#1701037312
1!
#1701044000
0"
#1703582750
1"
#1716037312
0!
#1716537312
1!
#1716543812
0"
#1719082750
1"
#1731537312
0!
#1732037312
1!
#1732043812
0"
#1734582750
1"
#1747037312
0!
#1747537312
1!
#1747542937
0"
#1750083750
1"
#1762537312
0!
#1763037312
1!
#1763044750
0"
#1765582812
1"
#1778037312
0!
#1778537312
1!
#1778544000
0"
#1781083750
1"
#1781083750
0!
#1782083750
1!
#1793537312
0!
#1794037312
1!
#1794044562
0"
#1796583250
1"
#1809037312
0!
#1809537312
1!
#1809544500
0"
#1812082750
1"
#1824537312
0!
#1825037312
1!
#1825044500
0"
#1827582750
1"
#1840037312
0!
#1840537312
1!
#1840546875
0"
#1843082750
1"
#1855537312
0!
#1856037312
1!
#1856046250
0"
#1858582750
1"
#1871037312
0!
#1871537312
1!
#1871546437
0"
#1874082750
1"
#1886537312
0!
#1887037312
1!
#1887044812
0"
#1889583750
1"
#1902037312
0!
#1902537312
1!
#1902545687
0"
#1905082812
1"
#1917537312
0!
#1918037312
1!
#1918044875
0"
#1920582750
1"
#1933037312
0!
#1933537312
1!
#1933540937
0"
#1936083750
1"
#1948537312
0!
#1949037312
1!
#1949040875
0"
#1951582750
1"
#1964037312
0!
#1964537312
1!
#1964540375
0"
#1966673437
1#
